<?xml version="1.0" encoding="UTF-8"?>
<svg width="74px" height="30px" viewBox="0 0 74 30" version="1.1" xmlns="http://www.w3.org/2000/svg" xmlns:xlink="http://www.w3.org/1999/xlink">
    <!-- Generator: Sketch 48.2 (47327) - http://www.bohemiancoding.com/sketch -->
    <title>folded-ribbon-side-view@3x</title>
    <desc>Created with Sketch.</desc>
    <defs></defs>
    <g id="Artboard" stroke="none" stroke-width="1" fill="none" fill-rule="evenodd" transform="translate(-1217.000000, -1601.000000)">
        <g id="folded-ribbon-side-view" transform="translate(1217.000000, 1601.000000)" fill="#AFAFAF" fill-rule="nonzero">
            <path d="M39.1088825,10.8853125 C53.2367746,10.8853125 64.9167937,9.31242187 73.8616317,6.22382812 L73.8616317,6.0684375 C63.1508952,2.16890625 51.4048635,0.191484375 38.9434984,0.191484375 C28.6048762,0.191484375 20.8494413,1.60476562 18.3367302,2.1253125 L23.7171175,10.3148437 C28.5360444,10.6570312 33.7595048,10.8871875 39.1088825,10.8853125 Z" id="Shape"></path>
            <path d="M39.018673,29.9057813 C52.1709397,29.9057813 63.2761079,28.4165625 72.1328508,25.5124219 C72.463854,25.404375 72.8021397,25.3000781 73.1256254,25.1885156 C73.366419,25.1048438 73.6243619,25.033125 73.8628063,24.946875 L73.8628063,24.7722656 L73.8628063,7.5515625 C64.841854,10.5897656 53.1564317,12.1300781 39.1091175,12.1300781 C34.0735937,12.1300781 29.1567048,11.9235937 24.5719937,11.6167969 C24.3128762,11.5992188 24.0507048,11.5825781 23.7934667,11.5645312 C23.5355238,11.5455469 23.2698286,11.5303125 23.0149397,11.5122656 C11.9922286,10.7039062 3.18928254,9.331875 0.0751746032,8.80757812 L4.93192381,18.6457031 L0,26.2528125 C3.9948254,26.9992969 20.7183556,29.9057813 39.018673,29.9057813 Z" id="Shape"></path>
        </g>
    </g>
</svg>