<?xml version="1.0" encoding="UTF-8"?>
<svg width="102px" height="39px" viewBox="0 0 102 39" version="1.1" xmlns="http://www.w3.org/2000/svg" xmlns:xlink="http://www.w3.org/1999/xlink">
    <!-- Generator: Sketch 48.2 (47327) - http://www.bohemiancoding.com/sketch -->
    <title>lineal-ribbonn@3x</title>
    <desc>Created with Sketch.</desc>
    <defs></defs>
    <g id="Artboard" stroke="none" stroke-width="1" fill="none" fill-rule="evenodd" transform="translate(-1203.000000, -1954.000000)">
        <g id="lineal-ribbonn" transform="translate(1203.000000, 1954.000000)" fill="#AFAFAF" fill-rule="nonzero">
            <path d="M86.8831126,0.0334285714 C86.2335154,0.0334285714 85.6737338,0.393830357 85.3743481,0.921375 C85.3579863,0.945053571 85.3374471,0.964205357 85.3221297,0.988928571 L80.0630375,9.3819375 L14.8658908,9.3819375 C6.66898976,9.3819375 0,16.0523304 0,24.2517321 C0,31.6342232 5.50277816,37.9637143 12.8015222,38.9791071 C12.8833311,38.9909464 12.9654881,38.9972143 13.0476451,38.9972143 C13.0483413,38.9972143 13.0490375,38.9972143 13.0493857,38.9972143 C13.0500819,38.9972143 13.05043,38.9972143 13.0511263,38.9972143 C13.0539113,38.9972143 13.0566962,38.9965179 13.0594812,38.9965179 C13.1461638,38.9958214 13.2321502,38.9871161 13.3174403,38.9738839 C13.3456382,38.9693571 13.3734881,38.9637857 13.4013379,38.9582143 C13.4678294,38.9446339 13.5329283,38.926875 13.5973311,38.9052857 C13.6185666,38.8983214 13.6401502,38.89275 13.6606894,38.8850893 C13.7431945,38.8540982 13.8232628,38.8168393 13.9005461,38.7736607 C13.9158635,38.7649554 13.9304846,38.7545089 13.9454539,38.7454554 C14.0077679,38.7078482 14.0676451,38.6664107 14.1254334,38.6211429 C14.1445802,38.6061696 14.1633788,38.5908482 14.1818294,38.5748304 C14.2361365,38.5278214 14.2876587,38.4773304 14.336744,38.4233571 C14.3499727,38.4090804 14.3638976,38.3958482 14.3767782,38.380875 C14.4296928,38.3185446 14.4791263,38.2523839 14.5240341,38.181 L14.5424846,38.1514018 C14.5428328,38.1507054 14.543529,38.1496607 14.5438771,38.1489643 L19.7921775,29.7737143 L86.816273,29.7737143 C95.0131741,29.7737143 101.682164,23.1029732 101.682164,14.9039196 C101.682512,6.70416964 95.0434608,0.0334285714 86.8831126,0.0334285714 Z M87.7628191,3.65067857 C88.9513106,4.02535714 89.8156997,5.13790179 89.8156997,6.44858036 C89.8156997,8.06603571 88.5001433,9.38158929 86.8834608,9.38158929 L84.1719317,9.38158929 L87.7628191,3.65067857 Z M12.3750717,35.0540357 C11.6530648,34.5097768 11.1911058,33.6437679 11.1911058,32.706375 C11.1911058,31.0889196 12.5066621,29.7733661 14.1233447,29.7733661 L15.6839795,29.7733661 L12.3750717,35.0540357 Z M86.8166212,26.2912232 L14.1236928,26.2912232 C10.5871126,26.2912232 7.71022526,29.1692143 7.71022526,32.706375 C7.71022526,32.8414821 7.71440273,32.9755446 7.72275768,33.1089107 C5.12576109,31.0018661 3.48122867,27.7843661 3.48122867,24.2517321 C3.48122867,17.9723839 8.58819113,12.8637321 14.8658908,12.8637321 L86.8831126,12.8637321 C90.4196928,12.8637321 93.2965802,9.98574107 93.2965802,6.44858036 C93.2965802,6.11742857 93.2711672,5.79184821 93.2227782,5.47392857 C96.2249898,7.52386607 98.2012833,10.9858125 98.2012833,14.9032232 C98.2012833,21.1825714 93.0939727,26.2912232 86.8166212,26.2912232 Z" id="Shape"></path>
        </g>
    </g>
</svg>