<?xml version="1.0" encoding="UTF-8"?>
<svg width="96px" height="67px" viewBox="0 0 96 67" version="1.1" xmlns="http://www.w3.org/2000/svg" xmlns:xlink="http://www.w3.org/1999/xlink">
    <!-- Generator: Sketch 48.2 (47327) - http://www.bohemiancoding.com/sketch -->
    <title>ribbon-dark-shape@3x</title>
    <desc>Created with Sketch.</desc>
    <defs></defs>
    <g id="Artboard" stroke="none" stroke-width="1" fill="none" fill-rule="evenodd" transform="translate(-1522.000000, -1682.000000)">
        <g id="ribbon-dark-shape" transform="translate(1522.000000, 1682.000000)" fill="#AFAFAF" fill-rule="nonzero">
            <path d="M91.8297844,47.0457758 L69.5472304,61.0402485 C70.3209133,60.9907091 71.0968288,60.9598485 71.8768034,60.9598485 C81.9712135,60.9598485 90.0796617,65.0269515 93.3491416,66.9506636 L90.9897336,53.2889576 L95.6703932,48.7473727 C94.5916617,48.0619424 93.301852,47.5005636 91.8297844,47.0457758 Z" id="Shape"></path>
            <polygon id="Shape" points="91.5750698 45.3224545 94.1483975 43.7089727 65.4186216 43.7089727 65.5820042 45.6462879 65.6481691 46.4419636 65.71474 47.241903 66.8549683 60.8471667 89.7173784 46.4898788 90.6647949 45.895203"></polygon>
            <polygon id="Shape" points="91.2562199 24.6082879 91.0774123 23.9317909 90.8340634 23.9317909 89.4090825 23.9317909 32.0014884 23.9317909 11.8463594 41.8311455 11.8140888 42.1151848 63.688592 42.1151848 64.4882537 42.1151848 65.2990782 42.1151848 95.8816744 42.1151848"></polygon>
            <path d="M29.6020973,23.9317909 L30.4991797,23.134897 L31.3962622,22.338003 L31.4902326,22.2553697 C29.3120677,21.9559 27.041759,21.7721576 24.6711882,21.7721576 C21.7936237,21.7721576 19.0065793,21.9987394 16.4143763,22.338003 C14.6967273,22.5629606 13.0716279,22.8374576 11.5676956,23.134897 C11.3537759,23.1783455 11.1451332,23.2199667 10.9381142,23.2642273 C10.6771078,23.3188424 10.4077801,23.3716303 10.155704,23.4270576 C9.62821142,23.5421758 9.11553488,23.6581061 8.62619873,23.7748485 L10.090148,41.2586 L10.3312643,41.0454182 L11.2234757,40.253803 L12.1152812,39.4613758 L29.6020973,23.9317909 Z" id="Shape"></path>
            <path d="M2.35007188,23.8763636 C3.36547992,23.5431909 4.9394334,23.0599788 6.92478647,22.5534182 C7.20162368,22.4817485 7.49652431,22.4119061 7.78980127,22.3394242 C8.26432135,22.2234939 8.75528118,22.1091879 9.26734884,21.9940697 C13.4714588,21.0507909 18.906723,20.1795879 24.6701734,20.1795879 C27.0630698,20.1795879 29.385945,20.3312515 31.594148,20.6278788 C31.6103848,20.629503 31.6290571,20.6311273 31.6452939,20.6327515 L31.4220381,19.9501636 L26.4870698,4.87374242 L26.2102326,4.02629394 L25.9331924,3.1804697 L25.2082199,0.967845455 C23.9299789,0.741263636 20.08937,0.134406061 15.5558562,0.134406061 C10.8973192,0.134406061 4.52235095,0.792630303 0.000202959831,3.84661212 L4.77077378,9.84392424 L2.35007188,23.8763636 Z" id="Shape"></path>
        </g>
    </g>
</svg>