<?xml version="1.0" encoding="UTF-8"?>
<svg width="93px" height="30px" viewBox="0 0 93 30" version="1.1" xmlns="http://www.w3.org/2000/svg" xmlns:xlink="http://www.w3.org/1999/xlink">
    <!-- Generator: Sketch 48.2 (47327) - http://www.bohemiancoding.com/sketch -->
    <title>ribbon-3@3x</title>
    <desc>Created with Sketch.</desc>
    <defs></defs>
    <g id="Artboard" stroke="none" stroke-width="1" fill="none" fill-rule="evenodd" transform="translate(-1948.000000, -1875.000000)">
        <g id="ribbon-3" transform="translate(1948.000000, 1875.000000)" fill="#AFAFAF" fill-rule="nonzero">
            <path d="M92.6719251,14.0206061 C92.472899,13.6715152 92.1433094,13.4157576 91.7558599,13.31 L90.50657,12.9681818 C87.5814625,12.1675758 84.6296971,11.4745455 81.658544,10.8830303 L82.7636384,6.84242424 C82.9844756,6.03515152 82.5091759,5.20181818 81.7024691,4.98121212 L80.4528762,4.63939394 C69.3776971,1.60848485 57.9323355,0.0718181818 46.4351726,0.0718181818 C34.9380098,0.0718181818 23.4932541,1.60848485 12.4180749,4.63939394 L11.1684821,4.98121212 C10.3614723,5.20212121 9.88647557,6.03545455 10.1073127,6.84242424 L11.2124072,10.8830303 C8.241557,11.4742424 5.28979153,12.1675758 2.36468404,12.9681818 L1.11539414,13.31 C0.727944625,13.4160606 0.398355049,13.6715152 0.19932899,14.0206061 C0.000302931596,14.369697 -0.0521042345,14.7836364 0.0542247557,15.1712121 L3.7496873,28.6839394 C3.85571336,29.0715152 4.11108469,29.4012121 4.46036482,29.600303 C4.69089577,29.7318182 4.94990228,29.7993939 5.21072638,29.7993939 C5.34462215,29.7993939 5.47912378,29.7815152 5.61029316,29.7457576 L6.85988599,29.4039394 C16.4716026,26.7736364 26.4047296,25.44 36.3826906,25.44 L36.6413941,25.44 C37.0479283,25.44 37.4374984,25.2763636 37.7222541,24.9863636 C38.0070098,24.6960606 38.1633225,24.3036364 38.1557492,23.8969697 L38.0360912,17.4306061 C40.8285147,17.2206061 43.630329,17.1112121 46.4360814,17.1112121 C49.2418339,17.1112121 52.0436482,17.2206061 54.8360717,17.4306061 L54.7164137,23.8969697 C54.7088404,24.3036364 54.8651531,24.6960606 55.1499088,24.9863636 C55.4346645,25.2766667 55.8242345,25.44 56.2307687,25.44 L56.4894723,25.44 C66.4674332,25.44 76.4002573,26.7736364 86.0122769,29.4039394 L87.2618697,29.7457576 C87.393342,29.7818182 87.5275407,29.7993939 87.6614365,29.7993939 C87.9222606,29.7993939 88.1812671,29.7318182 88.411798,29.600303 C88.7607752,29.4012121 89.0164495,29.0715152 89.1224756,28.6839394 L92.8179381,15.1712121 C92.9230554,14.7833333 92.8706482,14.3693939 92.6719251,14.0206061 Z M16.3249837,18.0942424 L13.4289577,7.50454545 C24.1775765,4.58333333 35.2818371,3.10212121 46.4357785,3.10212121 C57.5894169,3.10212121 68.6933746,4.58333333 79.4419935,7.50454545 L76.5459674,18.0942424 C66.7397687,15.4306061 56.610342,14.080303 46.4354756,14.080303 C36.2606091,14.080303 26.1308795,15.4306061 16.3249837,18.0942424 Z M6.2712899,26.4227273 L3.37526384,15.8330303 C6.23130293,15.0566667 9.11309121,14.3860606 12.0136612,13.8139394 L13.8024723,20.3548485 C13.9821107,21.0118182 14.5688893,21.4421212 15.2153453,21.4627273 C15.2901694,21.4893939 15.3652964,21.5151515 15.4458762,21.53 L23.8685863,23.0939394 C17.9287036,23.7442424 12.0442573,24.8548485 6.2712899,26.4227273 Z M35.091899,22.0957576 L22.3563518,19.7312121 C26.5319609,18.8112121 30.7572508,18.1330303 35.0104104,17.6969697 L35.091899,22.0957576 Z M70.5142964,19.7312121 L57.7787492,22.0957576 L57.8602378,17.6969697 C62.1130945,18.1330303 66.3386873,18.8109091 70.5142964,19.7312121 Z M86.5993583,26.4227273 C80.8263909,24.8548485 74.9419446,23.7439394 69.0020619,23.0939394 L77.424772,21.53 C77.4983844,21.5163636 77.5668469,21.4918182 77.6359153,21.4684848 C78.2905505,21.4560606 78.8867199,21.0187879 79.0681759,20.3548485 L80.856987,13.8139394 C83.7572541,14.3860606 86.6390423,15.0566667 89.4953844,15.8330303 L86.5993583,26.4227273 Z" id="Shape"></path>
        </g>
    </g>
</svg>