<?xml version="1.0" encoding="UTF-8"?>
<svg width="82px" height="30px" viewBox="0 0 82 30" version="1.1" xmlns="http://www.w3.org/2000/svg" xmlns:xlink="http://www.w3.org/1999/xlink">
    <!-- Generator: Sketch 48.2 (47327) - http://www.bohemiancoding.com/sketch -->
    <title>ribbon-silhouette@3x</title>
    <desc>Created with Sketch.</desc>
    <defs></defs>
    <g id="Artboard" stroke="none" stroke-width="1" fill="none" fill-rule="evenodd" transform="translate(-2584.000000, -1708.000000)">
        <g id="ribbon-silhouette" transform="translate(2584.000000, 1708.000000)" fill="#AFAFAF" fill-rule="nonzero">
            <path d="M4.12645726,0.0777192982 C4.12645726,0.0777192982 0,0.886491228 0,4.96877193 C0,9.05070175 0,29.9389474 0,29.9389474 C0,29.9389474 0.458183761,24.9085965 4.12645726,24.9085965 L81.8414316,24.9085965 L73.9163419,12.0507018 L81.8414316,0.0777192982 L4.12645726,0.0777192982 Z" id="Shape"></path>
        </g>
    </g>
</svg>