<?xml version="1.0" encoding="UTF-8"?>
<svg width="95px" height="40px" viewBox="0 0 95 40" version="1.1" xmlns="http://www.w3.org/2000/svg" xmlns:xlink="http://www.w3.org/1999/xlink">
    <!-- Generator: Sketch 48.2 (47327) - http://www.bohemiancoding.com/sketch -->
    <title>ribbon-15@3x</title>
    <desc>Created with Sketch.</desc>
    <defs></defs>
    <g id="Artboard" stroke="none" stroke-width="1" fill="none" fill-rule="evenodd" transform="translate(-2423.000000, -1870.000000)">
        <g id="ribbon-15" transform="translate(2423.000000, 1870.000000)" fill="#AFAFAF" fill-rule="nonzero">
            <path d="M90.2997764,20 L94.451246,13.6236364 C94.7544569,13.1575758 94.778131,12.5633333 94.5125559,12.0751515 C94.2469808,11.5866667 93.7352556,11.2827273 93.1786102,11.2827273 L65.1772843,11.2827273 C61.8541054,4.50666667 54.9628115,0.181818182 47.3482428,0.181818182 C39.7336741,0.181818182 32.8423802,4.50666667 29.5188978,11.2824242 L1.51757188,11.2824242 C0.954249201,11.2824242 0.437364217,11.5939394 0.174824281,12.0915152 C-0.087715655,12.5890909 -0.0525079872,13.1909091 0.265878594,13.6545455 L4.62495208,20 L0.265878594,26.3451515 C-0.0525079872,26.8087879 -0.087715655,27.4109091 0.174824281,27.9081818 C0.437364217,28.4057576 0.954249201,28.7172727 1.51757188,28.7172727 L29.5188978,28.7172727 C32.8423802,35.4930303 39.7336741,39.8178788 47.3482428,39.8178788 C54.9628115,39.8178788 61.8541054,35.4930303 65.1775879,28.7172727 L93.1789137,28.7172727 C93.7352556,28.7172727 94.2472843,28.4133333 94.5128594,27.9248485 C94.7784345,27.4366667 94.7547604,26.8424242 94.4515495,26.3763636 L90.2997764,20 Z M62.8095687,26.6054545 C60.1547284,32.7909091 54.085655,36.7878788 47.3482428,36.7878788 C40.6108307,36.7878788 34.5417572,32.7912121 31.8869169,26.6054545 C31.6477476,26.0481818 31.0989936,25.6869697 30.4919649,25.6869697 L4.39853035,25.6869697 L7.71685304,20.8569697 C8.07135783,20.3406061 8.07135783,19.6593939 7.71685304,19.1430303 L4.39853035,14.3130303 L30.4919649,14.3130303 C31.0989936,14.3130303 31.6477476,13.9518182 31.8869169,13.3945455 C34.5417572,7.20878788 40.6108307,3.21212121 47.3482428,3.21212121 C54.085655,3.21212121 60.1547284,7.20878788 62.8095687,13.3945455 C63.048738,13.9518182 63.597492,14.3130303 64.2045208,14.3130303 L90.3826358,14.3130303 L87.2175879,19.1742424 C86.8907029,19.6763636 86.8907029,20.3236364 87.2175879,20.8257576 L90.3826358,25.6869697 L64.2045208,25.6869697 C63.597492,25.6872727 63.048738,26.0481818 62.8095687,26.6054545 Z" id="Shape"></path>
            <path d="M47.3482428,5.45454545 C39.3151278,5.45454545 32.7795527,11.979697 32.7795527,20 C32.7795527,28.020303 39.3151278,34.5454545 47.3482428,34.5454545 C55.3813578,34.5454545 61.9169329,28.020303 61.9169329,20 C61.9169329,11.979697 55.3813578,5.45454545 47.3482428,5.45454545 Z M47.3482428,31.5151515 C40.9887061,31.5151515 35.8146965,26.3493939 35.8146965,20 C35.8146965,13.6506061 40.9887061,8.48484848 47.3482428,8.48484848 C53.7077796,8.48484848 58.8817891,13.6506061 58.8817891,20 C58.8817891,26.3493939 53.7077796,31.5151515 47.3482428,31.5151515 Z" id="Shape"></path>
        </g>
    </g>
</svg>