<?xml version="1.0" encoding="UTF-8"?>
<svg width="67px" height="67px" viewBox="0 0 67 67" version="1.1" xmlns="http://www.w3.org/2000/svg" xmlns:xlink="http://www.w3.org/1999/xlink">
    <!-- Generator: Sketch 48.2 (47327) - http://www.bohemiancoding.com/sketch -->
    <title>canine-pawprint@3x</title>
    <desc>Created with Sketch.</desc>
    <defs></defs>
    <g id="Artboard" stroke="none" stroke-width="1" fill="none" fill-rule="evenodd" transform="translate(-1424.000000, -53.000000)">
        <g id="canine-pawprint" transform="translate(1424.000000, 53.000000)" fill="#D8D8D8" fill-rule="nonzero">
            <path d="M14.1221411,33.0220486 L6.9254496,34.6429332 C3.31568952,35.4569696 0.588141129,38.4390121 0.0836149194,42.1202146 C-0.421856855,45.7997895 1.40092137,49.4088381 4.65731048,51.1736235 C8.3959375,53.2004413 11.2437077,54.8123745 11.6732641,55.24367 C12.1024153,55.6751012 13.7094698,58.5352146 15.7270343,62.2891134 C17.4857843,65.5588219 21.0801452,67.3923704 24.7473145,66.8848522 C28.414619,66.377334 31.3813952,63.6360304 32.1914738,60.0102996 L33.8047419,52.786913 C35.0405948,47.2573785 33.3687016,41.4765263 29.3769335,37.4681903 C25.3858407,33.4613462 19.6284335,31.7826842 14.1221411,33.0220486 Z" id="Shape"></path>
            <path d="M36.6927661,15.3396093 C33.7324738,13.6066964 29.3998972,15.5319291 27.0135625,19.6409008 C24.6272278,23.7464818 25.089744,28.4821883 28.0474698,30.2145587 C31.0049254,31.9474717 35.3368266,30.0222389 37.7247823,25.9157085 C40.1109819,21.8067368 39.6495464,17.0721154 36.6927661,15.3396093 Z" id="Shape"></path>
            <path d="M38.003994,13.0796478 C39.2055363,13.7839615 40.7505887,13.3769433 41.4500363,12.169587 C42.1525907,10.9641296 44.1846089,5.21677733 42.982121,4.51436235 C41.779498,3.81004858 37.798131,8.41324696 37.0966573,9.61965385 C36.3966694,10.8271457 36.8004254,12.375334 38.003994,13.0796478 Z" id="Shape"></path>
            <path d="M12.1842742,28.3182146 C15.4393125,29.3831619 19.2662823,26.5821822 20.7343387,22.0587328 C22.2022601,17.5388097 20.751629,13.0064089 17.4976714,11.9449879 C14.2422278,10.8788198 10.410125,13.6819696 8.94409476,18.2033846 C7.47711895,22.7233077 8.92775,27.2557085 12.1842742,28.3182146 Z" id="Shape"></path>
            <path d="M18.302752,9.45730769 C19.6264073,9.89063765 21.0502923,9.16286032 21.4789032,7.83384615 C21.9104859,6.50795142 22.6869294,0.4596417 21.3619234,0.0264473684 C20.0392137,-0.406882591 17.1176895,4.94036842 16.6884032,6.26748381 C16.2577661,7.59731174 16.9790968,9.02492713 18.302752,9.45730769 Z" id="Shape"></path>
            <path d="M47.4097944,40.1206579 C51.5032782,37.7237126 53.420748,33.3735951 51.6961734,30.4028097 C49.9691673,27.4339231 45.2537722,26.9692632 41.1627198,29.367836 C37.0712621,31.763832 35.1543327,36.1148988 36.8807984,39.0836498 C38.6068589,42.0533502 43.3223891,42.5166538 47.4097944,40.1206579 Z" id="Shape"></path>
            <path d="M62.4772298,24.0866356 C61.775756,22.8806356 56.0525242,24.9204737 54.8526028,25.6247874 C53.6499798,26.3281518 53.2446028,27.8782389 53.9460766,29.0857308 C54.6476855,30.2941721 56.1890907,30.6991559 57.3915786,29.9967409 C58.593256,29.2925628 63.1788387,25.2941275 62.4772298,24.0866356 Z" id="Shape"></path>
            <path d="M45.0015766,46.4244899 C40.4963669,47.8984899 37.7068165,51.7421741 38.7684153,55.011747 C39.8275827,58.2799636 44.3398165,59.7353826 48.8415141,58.2635526 C53.3457782,56.7906377 56.1373548,52.9450547 55.075621,49.6753462 C54.0186149,46.4080789 49.5058407,44.9504899 45.0015766,46.4244899 Z" id="Shape"></path>
            <path d="M66.9452923,45.7953138 C66.5147903,44.4638583 60.4919496,45.2434453 59.169375,45.6784028 C57.8466653,46.1082065 57.1223629,47.5367713 57.5548911,48.8683623 C57.9845827,50.1973765 59.4059012,50.9206781 60.7294214,50.489247 C62.0536169,50.0557814 67.3779556,47.1243279 66.9452923,45.7953138 Z" id="Shape"></path>
        </g>
    </g>
</svg>