<?xml version="1.0" encoding="UTF-8"?>
<svg width="81px" height="67px" viewBox="0 0 81 67" version="1.1" xmlns="http://www.w3.org/2000/svg" xmlns:xlink="http://www.w3.org/1999/xlink">
    <!-- Generator: Sketch 48.2 (47327) - http://www.bohemiancoding.com/sketch -->
    <title>kiwi-eating@3x</title>
    <desc>Created with Sketch.</desc>
    <defs></defs>
    <g id="Artboard" stroke="none" stroke-width="1" fill="none" fill-rule="evenodd" transform="translate(-907.000000, -212.000000)">
        <g id="kiwi-eating" transform="translate(907.000000, 212.000000)" fill="#D8D8D8" fill-rule="nonzero">
            <path d="M80.6981582,18.9239951 C80.6981582,8.54029927 72.3270706,0.125360097 54.0238443,0.125360097 C39.8953212,0.125360097 27.8646642,5.14905596 23.0991873,12.2137251 C19.7343528,12.2577397 16.3801144,13.5494866 13.8093358,16.1192871 C9.44618491,20.4845572 8.78009732,27.0919635 11.7010365,32.2033625 L0.315600973,46.5054988 C-0.0971581509,47.0214477 -0.11313382,47.7724672 0.315600973,48.3120535 C0.81443309,48.938691 1.72618735,49.0422068 2.35331387,48.5433747 L16.6567543,37.1605474 C21.7723917,40.0863771 28.379635,39.4189854 32.7424599,35.0520852 C33.136635,34.657747 33.442292,34.2135255 33.777129,33.7862579 C38.0116594,35.6464453 43.0537762,36.9303674 48.5635888,37.4489246 L46.4375207,59.2588102 L43.1326764,57.4558418 C42.4848467,57.1022579 41.6691095,57.3399367 41.3163406,57.9902117 C40.9642238,58.6382044 41.2040219,59.4508443 41.8518516,59.8044282 L45.0627981,61.5550681 L41.6171071,64.5293139 C41.0581217,65.0129854 40.9981314,65.8569246 41.4782165,66.41591 C41.7449124,66.722545 42.1183844,66.8795304 42.4921825,66.8795304 C42.8028929,66.8795304 43.1142555,66.7724282 43.3672579,66.5541484 L48.1271922,62.4431849 L53.8331144,59.8481168 C54.5045815,59.5421338 54.8022506,58.749382 54.4969197,58.0767737 C54.1886545,57.4064477 53.4017713,57.1087786 52.7257397,57.4129684 L50.5517445,58.4016667 L52.5715255,37.6844842 C54.4573066,37.8095182 58.2797299,37.5979221 60.1997445,37.3654599 L62.3266277,59.170129 L59.1834964,57.4558418 C58.5355036,57.1022579 57.7231898,57.3399367 57.3683017,57.9902117 C57.0148808,58.6382044 57.255983,59.4508443 57.9036496,59.8044282 L61.1142701,61.5550681 L57.66809,64.5293139 C57.1089416,65.0129854 57.0491144,65.8569246 57.5298516,66.41591 C57.7963844,66.722545 58.1701825,66.8795304 58.5433285,66.8795304 C58.854365,66.8795304 59.1650754,66.7724282 59.4187299,66.5541484 L64.1837178,62.4378054 L69.6808151,59.8396399 C70.3469027,59.5235499 70.6344647,58.7268856 70.3178856,58.0583528 C69.9995134,57.3893309 69.2051314,57.1086156 68.5367616,57.4204672 L66.2898978,58.4826861 L64.1602433,36.6692141 C75.4283066,34.1140852 80.6981582,27.144292 80.6981582,18.9239951 Z" id="Shape"></path>
        </g>
    </g>
</svg>