<?xml version="1.0" encoding="UTF-8"?>
<svg width="69px" height="67px" viewBox="0 0 69 67" version="1.1" xmlns="http://www.w3.org/2000/svg" xmlns:xlink="http://www.w3.org/1999/xlink">
    <!-- Generator: Sketch 48.2 (47327) - http://www.bohemiancoding.com/sketch -->
    <title>almond@3x</title>
    <desc>Created with Sketch.</desc>
    <defs></defs>
    <g id="Artboard" stroke="none" stroke-width="1" fill="none" fill-rule="evenodd" transform="translate(-468.000000, -3304.000000)">
        <g id="almond" transform="translate(468.000000, 3304.000000)" fill="#9B9B9B" fill-rule="nonzero">
            <path d="M67.2808675,22.0326468 C64.3364172,15.1721722 56.8722031,11.7662649 50.6416468,14.4402009 C49.5137395,14.924287 48.3686755,15.6200221 47.2311545,16.468245 C47.5970662,14.9781236 47.7820927,13.6083951 47.7820927,12.3723709 C47.7820927,5.59220751 41.7084614,0.0761699779 34.2429161,0.0761699779 C26.7773709,0.0761699779 20.7037395,5.59220751 20.7037395,12.3723709 C20.7037395,13.6464062 20.9066623,15.0279669 21.261777,16.4648433 C20.0821038,15.5876313 18.9394062,14.9102362 17.8441854,14.440053 C11.6133333,11.7662649 4.14926711,15.1721722 1.20481678,22.0326468 C-0.212684327,25.3359095 -0.385434879,28.945479 0.718660044,32.1960883 C1.83695364,35.4884062 4.12634216,38.0197638 7.16500662,39.3238234 C9.27114349,40.2276578 11.8226159,40.6447439 14.4058874,40.7781523 C12.2028742,42.0137329 10.0285541,43.537872 8.5143245,45.3152208 C6.36988079,47.8323797 5.44179029,51.1168587 5.90058499,54.5634393 C6.35361148,57.9663885 8.11025386,61.1244106 10.8466049,63.4555077 C13.569053,65.7749205 16.8681744,66.9230905 20.0511921,66.9230905 C23.512415,66.9230905 26.8363841,65.5641589 29.1268079,62.8755806 C30.7552185,60.9640839 32.1542318,58.1557042 33.2848013,54.5283863 C33.7412296,53.0642958 34.1087682,51.6110022 34.4062009,50.2392031 C35.3060419,54.364362 36.9260221,59.5990883 39.717245,62.8755806 C41.8616887,65.3927395 44.9568521,66.8310949 48.4325695,66.9256049 C48.5538499,66.9288587 48.6751302,66.9304857 48.7962627,66.9304857 C52.1035188,66.9304857 55.3579735,65.704223 57.9974481,63.4555077 C60.7337991,61.1244106 62.4904415,57.9665364 62.943468,54.5634393 C63.4024106,51.1167108 62.4741722,47.8323797 60.3297285,45.3152208 C58.9098609,43.6485033 56.8315298,42.1286534 54.4502936,40.792351 C56.7858278,40.630989 59.2420508,40.2158256 61.3208256,39.3238234 C64.3594901,38.0197638 66.6488786,35.4884062 67.7671722,32.1960883 C68.8712671,28.945479 68.6985166,25.3359095 67.2808675,22.0326468 Z M34.2429161,2.29471302 C40.4851567,2.29471302 45.5635497,6.81551214 45.5635497,12.3723709 C45.5635497,14.2746976 45.0410088,16.5960331 44.0123444,19.2720397 C41.3184415,21.9388764 38.8134106,25.1949581 36.8593179,28.2027108 C36.4607196,27.5652494 35.9920155,26.880755 35.3521876,26.4931015 L35.3521876,20.7636402 C36.7933532,20.294936 37.838287,18.939702 37.838287,17.3442737 C37.838287,15.3619316 36.2254062,13.7490508 34.2429161,13.7490508 C32.260426,13.7490508 30.6475453,15.3619316 30.6475453,17.3442737 C30.6475453,18.939702 31.692479,20.294936 33.1336446,20.7636402 L33.1336446,26.5033068 C32.4414592,26.935479 31.9510132,27.7226181 31.5312649,28.3977947 C31.2288035,28.8840993 30.8523907,29.4893179 30.5806932,29.6462428 C30.4798234,29.7045166 30.3181656,29.7441545 30.125596,29.7722561 C24.8203201,22.0462539 22.9222826,15.7275475 22.9222826,12.3723709 C22.9222826,6.81566004 28.0006755,2.29471302 34.2429161,2.29471302 Z M40.2054724,38.4158477 C40.4095784,38.794479 40.7765254,39.4755717 40.8025563,39.7669404 C40.5412119,39.8786071 39.8286159,39.9018278 39.3887528,39.9161744 C39.3639051,39.9169139 39.3389095,39.9178013 39.3140618,39.9186887 L36.1110773,36.3953466 L39.5677152,34.9139514 C39.4360817,35.2662561 39.3500022,35.6238852 39.3497064,35.9871347 C39.3489669,36.8270751 39.7845408,37.6347726 40.2054724,38.4158477 Z M35.0707285,42.4090773 C34.8382252,42.7829757 34.4616645,43.3884901 34.2341898,43.5588742 C33.994883,43.3907086 33.5887417,42.732245 33.3627461,42.3660375 C32.9017329,41.6188322 32.424894,40.8469272 31.7099316,40.4246645 L34.2429161,37.6383223 L36.7751611,40.423777 C36.0340199,40.8611258 35.5441656,41.6476733 35.0707285,42.4090773 Z M29.0967837,32.0623841 C30.0015055,32.0328035 30.9369912,32.0023355 31.6899647,31.5675011 C32.2969581,31.2169713 32.7357859,30.6324592 33.1336446,30.0162958 L33.1336446,34.3069581 L28.0512583,32.1289404 C28.374574,32.0861965 28.7983157,32.0721457 29.0967837,32.0623841 Z M34.2429161,18.7211015 C33.4837307,18.7211015 32.8660883,18.1034592 32.8660883,17.3442737 C32.8660883,16.5852362 33.4837307,15.9675938 34.2429161,15.9675938 C35.0021015,15.9675938 35.6197439,16.5852362 35.6197439,17.3442737 C35.619596,18.1036071 35.0021015,18.7211015 34.2429161,18.7211015 Z M27.674106,39.7817307 C27.6573929,39.5106247 28.0663444,38.7620883 28.2893819,38.3538764 C28.7052848,37.5927682 29.1352384,36.8059249 29.1359779,35.9912759 C29.1364216,35.6277307 29.0547792,35.2702494 28.9281744,34.9182406 L32.3746071,36.3953466 L29.1334636,39.9606932 C28.656181,39.9490088 27.887234,39.9231258 27.674106,39.7817307 Z M35.3521876,34.307106 L35.3521876,29.9802075 C35.7519691,30.6113091 36.1887263,31.2165276 36.7983819,31.5677969 C37.5041744,31.9745298 38.4007616,31.995532 39.2676203,32.0159426 C39.6043951,32.0237815 40.1435011,32.0367969 40.5017219,32.1000993 L35.3521876,34.307106 Z M2.8193245,31.4826049 C1.89182561,28.7518742 2.04253863,25.7065541 3.24350993,22.9076402 C5.7055011,17.1713753 11.8628455,14.2871214 16.9691921,16.478894 C18.6727373,17.2099779 20.5497726,18.555894 22.5483841,20.4793709 C22.5605121,20.4910552 22.5735276,20.5011126 22.5859514,20.5120574 C23.8941523,23.7978675 25.7287395,27.1268653 27.5828499,29.9623113 C26.8408212,30.0929095 26.1484879,30.3847219 25.7448609,31.0851898 C25.7361347,31.1002759 25.7302185,31.1155099 25.7220839,31.1307439 L20.4206534,28.85866 C20.430415,28.7508389 20.4361832,28.6416865 20.4361832,28.531351 C20.4361832,26.5490088 18.8233024,24.936128 16.8408124,24.936128 C14.8583223,24.936128 13.2455894,26.5490088 13.2455894,28.531351 C13.2455894,30.5138411 14.8583223,32.1267219 16.8408124,32.1267219 C17.917989,32.1267219 18.8852737,31.649883 19.5447726,30.8970574 L25.8096424,33.5819382 C25.9653841,33.9435607 26.1529249,34.291872 26.3274503,34.6156313 C26.5765188,35.0776799 26.9175828,35.7104084 26.917287,35.9893532 C26.9169912,36.2385695 26.5711943,36.8714459 26.3423885,37.2901589 C26.2753885,37.4129183 26.2063179,37.5395232 26.1379868,37.6686424 C20.2246821,38.7577991 12.5177594,39.2068322 8.0398521,37.2851302 C5.5867351,36.2323576 3.73277263,34.1716269 2.8193245,31.4826049 Z M18.2176402,28.531351 C18.2176402,29.2905364 17.5999978,29.9081788 16.8408124,29.9081788 C16.0817748,29.9081788 15.4641325,29.2905364 15.4641325,28.531351 C15.4641325,27.7723135 16.0817748,27.1546711 16.8408124,27.1546711 C17.6001457,27.1546711 18.2176402,27.7723135 18.2176402,28.531351 Z M27.4382009,61.4367815 C23.8345475,65.6666556 17.0373753,65.8148543 12.2852561,61.7667528 C9.96687859,59.7916578 8.48030684,57.1294062 8.09975276,54.2707395 C7.72496689,51.4555563 8.47187638,48.7860574 10.2030795,46.7540199 C11.9962539,44.6492141 15.2418344,42.56334 19.5915099,40.7188433 C21.8896247,40.5666512 23.9645541,40.2829735 25.4696137,40.0358278 C25.499638,40.3242384 25.5837947,40.6120574 25.7469316,40.894404 C26.1036733,41.5123422 26.6648168,41.8264879 27.2883753,41.9902163 L23.2917439,46.3864812 C22.8403444,46.1819316 22.339989,46.067011 21.813011,46.067011 C19.8306689,46.067011 18.2176402,47.6798918 18.2176402,49.6623819 C18.2176402,51.6447241 19.830521,53.2576049 21.813011,53.2576049 C23.7955011,53.2576049 25.408234,51.6447241 25.408234,49.6623819 C25.408234,49.0138278 25.2347439,48.4053554 24.9330221,47.8794128 L30.0745695,42.223755 C30.2973113,42.2454967 30.4863311,42.2792185 30.5799536,42.3332031 C30.8216269,42.4723797 31.1990751,43.0842539 31.4746181,43.5310684 C31.8809073,44.1896799 32.3531611,44.950936 33.0099978,45.4033709 C32.0329514,52.5099558 29.9713333,58.4634901 27.4382009,61.4367815 Z M23.1896909,49.6623819 C23.1896909,50.4214194 22.5720486,51.0390618 21.813011,51.0390618 C21.0538256,51.0390618 20.4361832,50.4214194 20.4361832,49.6623819 C20.4361832,48.9031965 21.0538256,48.2855541 21.813011,48.2855541 C22.5720486,48.2855541 23.1896909,48.9031965 23.1896909,49.6623819 Z M58.6411214,46.7540199 C60.3723245,48.7862053 61.119234,51.4557042 60.7444481,54.2707395 C60.363894,57.1295541 58.8773223,59.7916578 56.5589448,61.7667528 C54.2405673,63.7418477 51.3780552,64.7867815 48.4930618,64.7078013 C45.6542141,64.630596 43.137351,63.4689669 41.4061479,61.4367815 C38.793,58.3694238 36.6988433,52.3126534 35.7632097,45.1582958 C36.247,44.7153267 36.623117,44.1136578 36.9545673,43.5807638 C37.2570287,43.0944592 37.6334415,42.4892406 37.9051391,42.3323157 C38.0113333,42.270936 38.185415,42.2302627 38.3917395,42.2021611 L43.5529581,47.8794128 C43.2512362,48.4053554 43.0777461,49.0138278 43.0777461,49.6623819 C43.0777461,51.6447241 44.690479,53.2576049 46.6729691,53.2576049 C48.6554592,53.2576049 50.26834,51.6447241 50.26834,49.6623819 C50.26834,47.6798918 48.6554592,46.067011 46.6729691,46.067011 C46.1459912,46.067011 45.6456358,46.1819316 45.1942362,46.3864812 L41.1708344,41.9606358 C41.8088874,41.808 42.386596,41.5086446 42.7412671,40.8933687 C43.2110066,40.0779801 43.024649,39.207128 42.679,38.4025364 C51.2505629,40.8333201 56.5292163,44.2750199 58.6411214,46.7540199 Z M46.6728212,48.2855541 C47.4320066,48.2855541 48.049649,48.9031965 48.049649,49.6623819 C48.049649,50.4214194 47.4320066,51.0390618 46.6728212,51.0390618 C45.9137837,51.0390618 45.2961413,50.4214194 45.2961413,49.6623819 C45.2961413,48.9031965 45.9137837,48.2855541 46.6728212,48.2855541 Z M65.6665077,31.4826049 C64.7530596,34.1716269 62.8990971,36.2323576 60.4458322,37.2851302 C57.9859117,38.3408609 54.27,38.8135585 49.9808168,38.616404 C49.9751965,38.6161082 49.9697241,38.6166998 49.9639558,38.6165519 C47.3320243,37.5068366 44.6043996,36.6055166 42.138415,35.9532649 C41.957234,35.9053444 41.7785673,35.8593466 41.6013797,35.8142362 C41.6932274,35.5120706 41.9569382,35.0293157 42.1431479,34.6883996 C42.3337947,34.3393488 42.538936,33.9620486 42.7044393,33.5696623 L48.9407638,30.8969095 C49.6002627,31.6497351 50.5675475,32.126574 51.6447241,32.126574 C53.6270662,32.126574 55.239947,30.5136932 55.239947,28.5312031 C55.239947,26.5488609 53.6272141,24.9359801 51.6447241,24.9359801 C49.662234,24.9359801 48.0493532,26.5488609 48.0493532,28.5312031 C48.0493532,28.6415386 48.0551214,28.7506909 48.064883,28.8585121 L42.7622693,31.1310397 C42.7536909,31.115362 42.7476269,31.0995364 42.7386049,31.0840066 C42.0328124,29.8614415 40.5284923,29.8262406 39.3196821,29.7976954 C39.074755,29.7919272 38.7657859,29.784532 38.4936446,29.7620508 C43.4584481,21.968457 48.4571214,17.7916799 51.5164923,16.4787461 C56.6226909,14.2872693 62.7801832,17.1712274 65.2420265,22.9074923 C66.4432936,25.7064062 66.5940066,28.7517263 65.6665077,31.4826049 Z M50.2680442,28.531351 C50.2680442,27.7723135 50.8856865,27.1546711 51.644872,27.1546711 C52.4039095,27.1546711 53.0215519,27.7723135 53.0215519,28.531351 C53.0215519,29.2905364 52.4039095,29.9081788 51.644872,29.9081788 C50.8856865,29.9081788 50.2680442,29.2905364 50.2680442,28.531351 Z" id="Shape"></path>
        </g>
    </g>
</svg>