<?xml version="1.0" encoding="UTF-8"?>
<svg width="67px" height="67px" viewBox="0 0 67 67" version="1.1" xmlns="http://www.w3.org/2000/svg" xmlns:xlink="http://www.w3.org/1999/xlink">
    <!-- Generator: Sketch 48.2 (47327) - http://www.bohemiancoding.com/sketch -->
    <title>astrantia@3x</title>
    <desc>Created with Sketch.</desc>
    <defs></defs>
    <g id="Artboard" stroke="none" stroke-width="1" fill="none" fill-rule="evenodd" transform="translate(-1010.000000, -3304.000000)">
        <g id="astrantia" transform="translate(1010.000000, 3304.000000)" fill="#9B9B9B" fill-rule="nonzero">
            <path d="M66.9878445,33.4939222 C66.9878445,33.2008877 66.8693283,32.9201533 66.6592117,32.7159698 C64.4496587,30.566905 62.1110259,29.1610626 59.835486,28.245203 C61.7873132,26.3336048 63.3310626,24.0790475 64.4325832,21.5207473 C64.5484946,21.2517343 64.5505205,20.9469784 64.4385162,20.6762289 C64.3265119,20.4054795 64.1094492,20.1914557 63.837108,20.0830691 C61.248419,19.0527451 58.561473,18.5501728 55.829378,18.5791145 C56.7913996,16.3219525 57.4527171,13.6753801 57.4956955,10.5925119 C57.4997473,10.2994773 57.3851382,10.0171512 57.1779158,9.80992873 C56.9706933,9.60256156 56.6860518,9.48317711 56.3954773,9.49229374 C53.3130432,9.53512743 50.6667603,10.1963002 48.4098877,11.1580324 C48.43854,8.42492441 47.9349546,5.73899136 46.9047754,3.15088121 C46.7963888,2.87853996 46.5825097,2.66162203 46.3117603,2.54961771 C46.0410108,2.43761339 45.7363996,2.4394946 45.4672419,2.55540605 C42.9090864,3.65692657 40.6543844,5.20082073 38.7430756,7.15250324 C37.827216,4.87681857 36.4213737,2.53818575 34.2723089,0.328488121 C34.0675464,0.118516199 33.7869568,-1.11022302e-14 33.4939222,-1.11022302e-14 C33.2008877,-1.11022302e-14 32.9202981,0.118516199 32.7159698,0.328632829 C30.5671944,2.53804104 29.1613521,4.87652916 28.2454924,7.15192441 C26.3337495,5.19995248 24.0791922,3.65692657 21.5210367,2.55555076 C21.251879,2.43978402 20.9472678,2.43761339 20.6765184,2.54976242 C20.4057689,2.66176674 20.1918898,2.87868467 20.0835032,3.15102592 C19.0531793,5.73957019 18.5504622,8.42680562 18.5794039,11.1586112 C16.3220972,10.1965896 13.6755248,9.53512743 10.5926566,9.49243844 C10.3000562,9.48332181 10.0172959,9.60285097 9.81021814,9.81007343 C9.60299568,10.0174406 9.48838661,10.299622 9.49243844,10.5926566 C9.53527214,13.6748013 10.1964449,16.3207948 11.1580324,18.5776674 C8.4247797,18.5487257 5.73913607,19.0530346 3.15088121,20.0833585 C2.87868467,20.1916004 2.66176674,20.4056242 2.54961771,20.6763737 C2.43746868,20.9471231 2.43963931,21.251879 2.55555076,21.520892 C3.65707127,24.0789028 5.19937365,26.3338942 7.15149028,28.2457819 C4.87623974,29.1614968 2.53804104,30.5673391 0.328777538,32.7159698 C0.118516199,32.9201533 -5.81756865e-14,33.2008877 -5.81756865e-14,33.4939222 C-5.81756865e-14,33.7869568 0.118516199,34.0676911 0.328632829,34.2718747 C2.53861987,36.4212289 4.87739741,37.8256242 7.15337149,38.7414838 C5.20111015,40.6532268 3.65707127,42.9082181 2.55526134,45.4670972 C2.43934989,45.7361102 2.43732397,46.0408661 2.54932829,46.3116156 C2.66133261,46.582365 2.87839525,46.7963888 3.1507365,46.9047754 C5.66953132,47.9073153 8.28065011,48.4120583 10.9376415,48.4119136 C11.0111533,48.4119136 11.0846652,48.4101771 11.1583218,48.4093089 C10.1964449,50.6663261 9.53512743,53.3127538 9.49229374,56.3953326 C9.4882419,56.6883672 9.60285097,56.9706933 9.81007343,57.1779158 C10.0136782,57.3815205 10.2897819,57.4956955 10.5774622,57.4956955 C10.582527,57.4956955 10.5874471,57.4956955 10.5925119,57.4955508 C13.6752354,57.4527171 16.3218078,56.7913996 18.5788251,55.8295227 C18.5500281,58.5620518 19.0528898,61.2485637 20.0832138,63.8369633 C20.1916004,64.1093045 20.4054795,64.3262225 20.6762289,64.4382268 C20.809216,64.4933607 20.9504514,64.5208553 21.0915421,64.5208553 C21.2376976,64.5208553 21.3838531,64.4913348 21.5207473,64.4324384 C24.0789028,63.3307732 26.3336048,61.786879 28.2449136,59.8353413 C29.1607732,62.1110259 30.5666156,64.4496587 32.7156803,66.6593564 C32.9200086,66.8693283 33.2005983,66.9879892 33.4936328,66.9879892 C33.7866674,66.9879892 34.067257,66.869473 34.2715853,66.6593564 C36.4205054,64.4498035 37.8264924,62.1111706 38.7422073,59.8356307 C40.6536609,61.7873132 42.9083629,63.3309179 45.4665184,64.4325832 C45.6035572,64.4914795 45.749568,64.521 45.8957235,64.521 C46.0368143,64.521 46.1780497,64.4935054 46.3110367,64.4383715 C46.5817862,64.3263672 46.7956652,64.1094492 46.9040518,63.837108 C47.9342311,61.2488531 48.4383952,58.5633542 48.4098877,55.8302462 C50.6666156,56.7918337 53.3126091,57.4528618 56.3947538,57.4956955 C56.3998186,57.4958402 56.4047387,57.4958402 56.4098035,57.4958402 C56.6974838,57.4958402 56.9735875,57.3816652 57.1771922,57.1780605 C57.3844147,56.9706933 57.4990238,56.6885119 57.4949719,56.3954773 C57.4521382,53.3131879 56.7909654,50.6670497 55.8292333,48.4101771 C55.9028898,48.4109006 55.9766911,48.4123477 56.0503477,48.4123477 C58.7057473,48.4123477 61.3180238,47.9073153 63.8365292,46.9049201 C64.1088704,46.7965335 64.3256436,46.5825097 64.4379374,46.3117603 C64.5500864,46.0410108 64.5479158,45.7363996 64.4320043,45.4672419 C63.3303391,42.9086523 61.7870238,40.6535162 59.834473,38.7414838 C62.1103024,37.8256242 64.4490799,36.4213737 66.6587775,34.2721641 C66.8693283,34.0676911 66.9878445,33.7869568 66.9878445,33.4939222 Z M61.9530043,21.7058294 C60.8456955,23.9121987 59.3488315,25.841162 57.491933,27.4569762 C54.7193197,26.6975464 52.1520475,26.5730972 50.1699762,26.5862657 C51.580594,25.19446 53.3060972,23.2911102 54.729594,20.7941663 C57.1854406,20.6232657 59.6088726,20.928311 61.9530043,21.7058294 Z M47.315892,29.1060734 L45.729743,29.7631944 C45.4262894,29.888946 45.092013,29.888946 44.7884147,29.7631944 C44.4848164,29.6374428 44.2485076,29.4009892 44.1226112,29.0973909 C43.9968596,28.7937927 43.9968596,28.4595162 44.1226112,28.1560626 C44.2483629,27.8524644 44.4846717,27.6161555 44.78827,27.4902592 L46.3745637,26.8332829 L46.3236263,27.5491555 C46.3132073,27.6094989 46.3066955,27.6712894 46.3066955,27.734527 C46.3066955,27.8698294 46.3325983,27.9987646 46.3777473,28.1182937 C46.3819438,28.1294363 46.3855616,28.1408683 46.3900475,28.1520108 C46.3948229,28.1632981 46.4003218,28.1740065 46.4053866,28.185149 C46.4579158,28.3013499 46.5307041,28.4107495 46.6262117,28.506257 C46.6560216,28.536067 46.6872786,28.5631274 46.7195486,28.5887408 L47.315892,29.1060734 Z M48.6567603,25.0283348 C48.6207279,24.7306695 48.4644428,24.4570259 48.2161231,24.2781663 C47.9110778,24.0580648 47.5139978,24.0120475 47.1662635,24.1558877 L43.9576436,25.4848898 C43.1184795,25.8324795 42.4648315,26.4861274 42.1172419,27.3254363 C41.913203,27.8180238 41.832311,28.3398423 41.8679093,28.8567408 L38.1203952,30.4090281 L45.9010778,22.6283456 C46.3752873,22.8627732 46.8921857,22.9828812 47.4100972,22.9828812 C48.2809525,22.9828812 49.1518078,22.6513542 49.8147171,21.9885896 L52.2705637,19.532743 C52.5365378,19.2666242 52.6457927,18.8819892 52.5594017,18.5160216 C52.4730108,18.1499093 52.2032743,17.8547041 51.8464233,17.7356091 L49.9053045,17.0886177 L49.2583132,15.1474989 C49.1393629,14.7906479 48.8441577,14.5209114 48.4780454,14.4343758 C48.1122225,14.3481296 47.7272981,14.4572397 47.461324,14.7232138 L45.0054773,17.1790605 C43.9480929,18.2364449 43.7368186,19.8217257 44.3660108,21.0934233 L36.5846048,28.8746847 L38.1374708,25.1258683 C38.2140216,25.1310778 38.2907171,25.1371555 38.3674125,25.1371555 C38.8081944,25.1371555 39.2492657,25.0501857 39.6687754,24.8765356 C40.5079395,24.528946 41.1615875,23.8751533 41.5091771,23.0359892 L42.838324,19.8273693 C42.9823089,19.4799244 42.9360022,19.0826998 42.7160454,18.7775097 C42.5350151,18.5262959 42.2568855,18.3682743 41.9554579,18.3349914 C44.4748315,15.7913067 48.7592138,12.1816998 55.2761577,11.7115421 C54.806,18.2251577 51.2003002,22.5082376 48.6567603,25.0283348 Z M33.4911728,51.9504687 C33.4921857,51.9504687 33.493054,51.9506134 33.4939222,51.9506134 C33.4947905,51.9506134 33.4958035,51.9504687 33.4966717,51.9504687 C34.1736177,51.9520605 34.7239438,52.5031102 34.7239438,53.1803456 L34.7239438,54.8971663 L33.9792743,54.5249762 C33.8264622,54.4485702 33.6601922,54.4103672 33.4939222,54.4103672 C33.3276523,54.4103672 33.1613823,54.4485702 33.0085702,54.5249762 L32.2639006,54.8971663 L32.2639006,53.1803456 C32.2639006,52.5031102 32.8142268,51.9520605 33.4911728,51.9504687 Z M33.4939222,15.049676 C32.8156739,15.049676 32.2639006,14.4979028 32.2639006,13.8196544 L32.2639006,12.1028337 L33.0085702,12.4750238 C33.3140497,12.6279806 33.6737948,12.6279806 33.9792743,12.4750238 L34.7239438,12.1028337 L34.7239438,13.8196544 C34.7239438,14.4979028 34.1721706,15.049676 33.4939222,15.049676 Z M31.1062333,33.5 C31.1062333,32.1834428 32.177365,31.112311 33.4939222,31.112311 C34.8104795,31.112311 35.8816112,32.1834428 35.8816112,33.5 C35.8816112,34.8165572 34.8104795,35.887689 33.4939222,35.887689 C32.177365,35.887689 31.1062333,34.8165572 31.1062333,33.5 Z M46.5402549,20.4538121 C46.0606911,19.9742484 46.0606911,19.1936911 46.5402549,18.7142721 L47.7543585,17.5001685 L48.0175832,18.289987 C48.1256803,18.6139892 48.379933,18.8682419 48.7039352,18.9763391 L49.4937538,19.2395637 L48.2796501,20.4536674 C47.8000864,20.9332311 47.0198186,20.9330864 46.5402549,20.4538121 Z M38.3949071,20.262797 C38.4216782,20.2969482 38.450041,20.3302311 38.4814428,20.3616328 C38.5245659,20.4046112 38.5708726,20.4422354 38.6187711,20.4763866 C38.6193499,20.4768207 38.6199287,20.4772549 38.6205076,20.477689 C38.6536458,20.5012765 38.6875076,20.5229827 38.722527,20.5423737 C38.7239741,20.5430972 38.7252765,20.5439654 38.7265788,20.5448337 C38.7520475,20.5587257 38.7779503,20.5713153 38.8041425,20.5830367 C38.8145616,20.5878121 38.8248359,20.5931663 38.8353996,20.5975076 C38.8469762,20.6022829 38.8588423,20.6060454 38.8705637,20.6103866 C38.8953089,20.6196479 38.9201987,20.6286199 38.9456674,20.6361447 C38.9576782,20.6396177 38.9698337,20.6423672 38.9819892,20.645406 C39.0073132,20.6519179 39.0327819,20.657851 39.0588294,20.6626263 C39.0741685,20.6653758 39.0896523,20.6675464 39.1051361,20.6697171 C39.1282894,20.6729006 39.1515875,20.6753607 39.1750302,20.6769525 C39.1921058,20.6782549 39.2091814,20.6791231 39.2264017,20.6795572 C39.2353737,20.6797019 39.2440562,20.6808596 39.2531728,20.6808596 C39.2683672,20.6808596 39.2831274,20.6792678 39.2981771,20.6785443 C39.3087408,20.6781102 39.3193045,20.6788337 39.330013,20.6781102 L40.1604946,20.6190691 L39.5033737,22.2053629 C39.377622,22.5089611 39.1413132,22.74527 38.8377149,22.8711663 C38.5342613,22.9969179 38.1998402,22.9969179 37.8963866,22.8711663 C37.2696544,22.6115594 36.971121,21.890622 37.2305832,21.2640346 L37.8877041,19.6778855 L38.3949071,20.262797 Z M45.2820151,5.03484017 C46.0590994,7.37810367 46.3653024,9.80066739 46.1946911,12.2576717 C43.6973132,13.6814579 41.7935292,15.4072505 40.4015788,16.818013 C40.4147473,14.8359417 40.2904428,12.268959 39.531013,9.49649028 C41.1463931,7.63944708 43.0753564,6.14243844 45.2820151,5.03484017 Z M33.4939222,2.68969546 C37.7693326,7.62975162 38.2467257,13.2110108 38.2295054,16.7912419 C37.9929071,16.6039892 37.6871382,16.5200583 37.3832505,16.5691145 C37.0119287,16.6293132 36.6983456,16.8776328 36.5543607,17.2250778 L35.2252138,20.4336976 C34.652892,21.8155184 35.0631404,23.3624514 36.131378,24.2963996 L34.5790907,28.0437689 L34.5790907,17.0417322 C35.923432,16.5876371 36.8944255,15.3153607 36.8944255,13.8196544 L36.8944255,10.3466523 C36.8944255,9.97041037 36.6996479,9.62108423 36.3796976,9.42341253 C36.0597473,9.22588553 35.6602073,9.20779698 35.3237603,9.37594816 L33.4937775,10.2907948 L31.6637948,9.37594816 C31.327203,9.20765227 30.9276631,9.22574082 30.6078575,9.42341253 C30.2879071,9.62108423 30.0931296,9.97041037 30.0931296,10.3466523 L30.0931296,13.8196544 C30.0931296,15.3153607 31.0641231,16.5876371 32.4084644,17.0417322 L32.4084644,28.0437689 L30.8563218,24.2963996 C31.9245594,23.3624514 32.3346631,21.8153737 31.762486,20.4336976 L30.4333391,17.2250778 C30.2893542,16.8776328 29.9757711,16.6293132 29.6044492,16.5691145 C29.3004168,16.5204924 28.9947927,16.6042786 28.7581944,16.7913866 C28.7411188,13.2110108 29.2185119,7.62975162 33.4939222,2.68969546 Z M27.6578315,20.6783996 C27.6686847,20.6791231 27.6793931,20.6783996 27.6902462,20.6788337 C27.7051512,20.6794125 27.7197667,20.681149 27.7348164,20.681149 C27.7434989,20.681149 27.751892,20.6799914 27.7604298,20.6798467 C27.7785184,20.6794125 27.7963175,20.6783996 27.8142613,20.6770972 C27.8366911,20.6755054 27.8588315,20.6731901 27.8808272,20.6701512 C27.897324,20.6678359 27.9138207,20.6656652 27.9301728,20.6626263 C27.9547732,20.6581404 27.9789395,20.6523521 28.0031058,20.6462743 C28.016419,20.642946 28.0298769,20.6399071 28.0430454,20.636 C28.0683693,20.6284752 28.0929698,20.6196479 28.1174255,20.6103866 C28.1282786,20.6063348 28.1392765,20.6031512 28.1499849,20.5986652 C28.1505637,20.5985205 28.1511425,20.5980864 28.1515767,20.5979417 C28.1518661,20.597797 28.1521555,20.5976523 28.1525896,20.5975076 C28.1632981,20.5930216 28.1734276,20.5878121 28.1838467,20.5830367 C28.2098942,20.5713153 28.2356523,20.5590151 28.2609762,20.5451231 C28.2628575,20.5441102 28.264594,20.5429525 28.2663305,20.5419395 C28.3009158,20.5226933 28.3344881,20.5012765 28.3671922,20.4779784 C28.3680605,20.4773996 28.368784,20.4768207 28.3696523,20.4762419 C28.417406,20.441946 28.4637127,20.4046112 28.5066911,20.3616328 C28.5380929,20.3302311 28.5664557,20.2968035 28.5932268,20.262797 L29.1002851,19.6781749 L29.757406,21.264324 C30.0168683,21.8909114 29.7183348,22.6119935 29.0916026,22.8714557 C28.788149,22.9972073 28.4538726,22.9972073 28.1502743,22.8714557 C27.846676,22.7457041 27.6103672,22.5092505 27.4846156,22.2056523 L26.8274946,20.6193585 L27.6578315,20.6783996 Z M21.7058294,5.03484017 C23.9119093,6.14214903 25.841162,7.63814471 27.4572657,9.4951879 C26.6976911,12.2680907 26.5732419,14.8356523 26.5864104,16.8178683 C25.1946048,15.4072505 23.2912549,13.6817473 20.794311,12.2581058 C20.6228315,9.80327214 20.9280216,7.37940605 21.7058294,5.03484017 Z M25.0328207,18.3355702 C24.7313931,18.3689978 24.4531188,18.52673 24.2720886,18.7779438 C24.0521317,19.0829892 24.0059698,19.4803585 24.1498099,19.8278035 L25.4789568,23.0364233 C25.8265464,23.8755875 26.4800497,24.5292354 27.3193585,24.8769698 C27.7388683,25.0506199 28.1797948,25.1375896 28.6207214,25.1375896 C28.6974168,25.1375896 28.7741123,25.1315119 28.8506631,25.1263024 L30.4032397,28.87454 L22.6221231,21.0934233 C23.2511706,19.8218704 23.0398963,18.2367343 21.9825119,17.1793499 L19.5266652,14.7235032 C19.2606911,14.4575292 18.8757667,14.3482743 18.5099438,14.4346652 C18.1438315,14.5212009 17.8486263,14.7909374 17.729676,15.1477883 L17.0826847,17.0889071 L15.1415659,17.7358985 C14.7847149,17.8548488 14.5149784,18.150054 14.4285875,18.516311 C14.3421965,18.8822786 14.4514514,19.2670583 14.7174255,19.5330324 L17.1732721,21.988879 C17.8361814,22.6517883 18.7070367,22.9831706 19.577892,22.9831706 C20.0959482,22.9831706 20.6129914,22.8630626 21.0872009,22.6284903 L28.8681728,30.4094622 L25.1200799,28.8568855 C25.1555335,28.339987 25.0747862,27.8181685 24.8707473,27.3254363 C24.5231577,26.4862721 23.8695097,25.8327689 23.0303456,25.4851793 L19.8217257,24.1560324 C19.4741361,24.0119028 19.0769114,24.0580648 18.7718661,24.278311 C18.5235464,24.4571706 18.3672613,24.7308143 18.3312289,25.0284795 C15.787689,22.5083823 12.1819892,18.2253024 11.712121,11.7119762 C18.2290648,12.1819892 22.5134471,15.7918855 25.0328207,18.3355702 Z M20.4473002,20.453378 C20.4462873,20.4543909 20.4455637,20.4554039 20.4446955,20.4562721 C19.964987,20.9329417 19.1867451,20.9325076 18.7080497,20.4536674 L17.493946,19.2395637 L18.2837646,18.9763391 C18.6077667,18.8682419 18.8621641,18.6139892 18.9701166,18.289987 L19.2333413,17.5001685 L20.4474449,18.7142721 C20.9259957,19.1928229 20.9268639,19.9710648 20.4500497,20.4507732 C20.4493261,20.4516415 20.4483132,20.452365 20.4473002,20.453378 Z M20.2682959,28.5888855 C20.3005659,28.5632721 20.3318229,28.5362117 20.3616328,28.5064017 C20.4572851,28.4107495 20.5300734,28.3013499 20.5826026,28.1850043 C20.5876674,28.1740065 20.5931663,28.1634428 20.597797,28.1523002 C20.6024276,28.141013 20.6060454,28.129581 20.6102419,28.118149 C20.6553909,27.9987646 20.681149,27.8699741 20.681149,27.7348164 C20.681149,27.6714341 20.6746371,27.6097883 20.6642181,27.5494449 L20.6132808,26.8335724 L22.1995745,27.4905486 L22.1995745,27.4906933 C22.5030281,27.6163002 22.7393369,27.8527538 22.8652333,28.1562073 C22.9909849,28.4598056 22.9909849,28.7940821 22.8652333,29.0976803 C22.7394816,29.4012786 22.5031728,29.6375875 22.1995745,29.7634838 C21.8959762,29.8893801 21.5616998,29.8892354 21.2581015,29.7634838 L19.6719525,29.1063629 L20.2682959,28.5888855 Z M5.03484017,21.7058294 C7.37795896,20.9287451 9.80037797,20.6228315 12.2578164,20.7934428 C13.6816026,23.2908207 15.4072505,25.19446 16.818013,26.5864104 C14.835797,26.5732419 12.2683801,26.6976911 9.49562203,27.457121 C7.63828942,25.8407279 6.14200432,23.9116199 5.03484017,21.7058294 Z M16.7897948,28.7583391 C16.5992138,28.9956609 16.5134017,29.3041793 16.5630367,29.610527 C16.6233801,29.9818488 16.8715551,30.295432 17.219,30.4394168 L20.4276199,31.7685637 C20.8472743,31.9423585 21.2880562,32.0293283 21.7289827,32.0293283 C22.1697646,32.0293283 22.6108359,31.9423585 23.0303456,31.7687084 C23.522933,31.5646695 23.9492441,31.2528229 24.2895983,30.8621102 L28.0381253,32.4146868 L17.0356544,32.4146868 C16.5815594,31.0703456 15.3092829,30.0993521 13.8135767,30.0993521 L10.3405745,30.0993521 C9.96447732,30.0993521 9.61515119,30.2941296 9.41733477,30.6140799 C9.21951836,30.9341749 9.20157451,31.3337149 9.36987041,31.670162 L10.2848618,33.5001447 L9.36987041,35.3301274 C9.20157451,35.6665745 9.21951836,36.0661145 9.41733477,36.3862095 C9.61515119,36.7061598 9.96447732,36.9009374 10.3405745,36.9009374 L13.8135767,36.9009374 C15.3092829,36.9009374 16.5815594,35.9299438 17.0356544,34.5856026 L28.0376911,34.5856026 L24.2903218,36.1377451 C23.3562289,35.0696523 21.8090065,34.6594039 20.4276199,35.231581 L20.4276199,35.2317257 L17.219,36.5608726 C16.8715551,36.7047127 16.6232354,37.0182959 16.5630367,37.3897624 C16.5141253,37.6910454 16.5966091,37.9942095 16.7805335,38.2300842 C13.200013,38.2461469 7.62483153,37.7655702 2.68969546,33.4943564 C7.62917279,29.2190907 13.2095637,28.7415529 16.7897948,28.7583391 Z M12.468946,33.0146479 L12.0966112,32.2699784 L13.8135767,32.2699784 C14.4906674,32.2699784 15.0414276,32.8200151 15.0434536,33.496527 C15.0434536,33.4976847 15.0433089,33.4988423 15.0433089,33.5 C15.0433089,33.5011577 15.0434536,33.5023153 15.0434536,33.503473 C15.0415724,34.1799849 14.4906674,34.7300216 13.8135767,34.7300216 L12.0966112,34.7300216 L12.468946,33.9853521 C12.6217581,33.6797279 12.6217581,33.3202721 12.468946,33.0146479 Z M22.1997192,39.5095961 L20.6134255,40.1665724 L20.6659546,39.4279806 C20.675216,39.3708207 20.6812937,39.3127927 20.6812937,39.2530281 C20.6812937,39.1178704 20.6553909,38.9889352 20.6102419,38.8695508 C20.6060454,38.8582635 20.6024276,38.8466868 20.597797,38.8355443 C20.5931663,38.824257 20.5875227,38.8135486 20.5824579,38.8025508 C20.5299287,38.6862052 20.4571404,38.5768056 20.3616328,38.4812981 C20.3067883,38.4264536 20.2473132,38.3789892 20.1847991,38.3383261 L19.6720972,37.8936371 L21.2582462,37.2365162 C21.8845443,36.9774881 22.6053369,37.2754428 22.8650886,37.9015961 L22.8652333,37.9021749 C22.8652333,37.9023197 22.865378,37.9024644 22.8655227,37.9026091 C23.1246955,38.5293413 22.826162,39.2501339 22.1997192,39.5095961 Z M5.03484017,45.2820151 C6.14229374,43.0756458 7.63901296,41.1465378 9.49591145,39.531013 C12.1450886,40.2567257 14.6073024,40.4027365 16.5503024,40.4027365 C16.6406004,40.4027365 16.7297408,40.4024471 16.8177235,40.4018683 C15.4069611,41.7938186 13.6813132,43.6974579 12.2576717,46.1946911 C9.80124622,46.3653024 7.37824838,46.0593888 5.03484017,45.2820151 Z M18.3297819,41.9608121 C18.3632095,42.2626739 18.5205076,42.5406587 18.7718661,42.7218337 C18.9595529,42.8572808 19.1821145,42.9267408 19.4065572,42.9267408 C19.5469244,42.9267408 19.6880151,42.8995356 19.8218704,42.8441123 L23.030635,41.5149654 C24.412311,40.9424989 25.2161663,39.5586523 25.1212376,38.1428251 L28.8687516,36.5905378 L21.0874903,44.3717991 C19.8159374,43.7428963 18.2308013,43.9541706 17.1735616,45.0114104 L14.7177149,47.467257 C14.4517408,47.7333758 14.342486,48.1180108 14.4288769,48.4841231 C14.5152678,48.8500907 14.785149,49.1452959 15.142,49.2643909 L17.0829741,49.9113823 L17.7299654,51.8523564 C17.8489158,52.2092073 18.144121,52.4789438 18.5102333,52.5654795 C18.5928618,52.5850151 18.6765032,52.5944212 18.7595659,52.5944212 C19.0440626,52.5944212 19.3210346,52.4825616 19.5269546,52.2766415 L21.9828013,49.8207948 C23.0401857,48.7634104 23.25146,47.178419 22.6224125,45.9068661 L30.4035292,38.1257495 L28.8513866,41.8729741 C27.4355594,41.7780454 26.0517127,42.5819006 25.4792462,43.9637214 L24.1500994,47.172486 C24.0061145,47.5199309 24.0524212,47.9171555 24.272378,48.2224903 C24.4513823,48.4708099 24.7253153,48.6265162 25.0229806,48.662838 C22.5023045,51.2059438 18.220527,54.8067235 11.7122657,55.2761577 C12.1816998,48.7638445 15.7862419,44.481054 18.3297819,41.9608121 Z M20.4475896,48.2857279 L19.233486,49.4998315 L18.9702613,48.710013 C18.8621641,48.3860108 18.6079114,48.1316134 18.2837646,48.0236609 L17.493946,47.7604363 L18.707905,46.5464773 C19.1866004,46.0676371 19.9646976,46.067203 20.4445508,46.5438726 C20.445419,46.5448855 20.4462873,46.5458985 20.4471555,46.5467667 C20.4480238,46.547635 20.4491814,46.5485032 20.4500497,46.5493715 C20.9270086,47.0290799 20.9262851,47.8071771 20.4475896,48.2857279 Z M28.6474924,46.8000065 C28.6072635,46.7385054 28.560378,46.6801879 28.506257,46.6262117 C28.4103153,46.5304147 28.3006263,46.4573369 28.1838467,46.4049525 C28.1732829,46.4001771 28.1628639,46.3946782 28.1521555,46.3901922 C28.1407235,46.3854168 28.1290022,46.3817991 28.1174255,46.3774579 C27.9981857,46.3324536 27.86954,46.3066955 27.734527,46.3066955 C27.6543585,46.3066955 27.5763607,46.3159568 27.5011123,46.3324536 L26.8272052,46.3803521 L27.4843261,44.7940583 C27.7437883,44.1680497 28.4641469,43.8696609 29.0901555,44.1278207 C29.0905896,44.1279654 29.090879,44.1282549 29.0913132,44.1283996 C29.0917473,44.1285443 29.0921814,44.128689 29.0924708,44.1288337 C29.7181901,44.3888747 30.0162894,45.1092333 29.7569719,45.7355313 L29.099851,47.3216803 L28.6474924,46.8000065 Z M21.7058294,61.9530043 C20.9286004,59.609162 20.6228315,57.1861641 20.7937322,54.7298834 C23.2909654,53.3062419 25.19446,51.580594 26.5864104,50.1698315 C26.5732419,52.1519028 26.6975464,54.7188855 27.4569762,57.4913542 C25.8414514,59.3483974 23.9124881,60.845406 21.7058294,61.9530043 Z M33.4939222,64.298149 C29.2238661,59.3641706 28.7422765,53.790581 28.7581944,50.2099158 C28.9494989,50.3612808 29.1862419,50.4449222 29.4306544,50.4449222 C29.4883931,50.4449222 29.5465659,50.4402916 29.604594,50.4308855 C29.9759158,50.3706868 30.2894989,50.1223672 30.4334838,49.7749222 L31.7626307,46.5663024 C32.3349525,45.1844816 31.9247041,43.6375486 30.8566112,42.7036004 L32.4087538,38.9563758 L32.4087538,49.9584125 C31.0644125,50.4125076 30.093419,51.684784 30.093419,53.1804903 L30.093419,56.6534924 C30.093419,57.0297343 30.2881965,57.3790605 30.6081469,57.5767322 C30.9280972,57.7744039 31.3276371,57.7924924 31.6640842,57.6241965 L33.494067,56.7093499 L35.3240497,57.6241965 C35.4772959,57.7007473 35.6435659,57.7388056 35.8094017,57.7388056 C36.0079417,57.7388056 36.2057581,57.6843952 36.379987,57.5767322 C36.6999374,57.3790605 36.8947149,57.0297343 36.8947149,56.6534924 L36.8947149,53.1804903 C36.8947149,51.684784 35.9237214,50.4125076 34.5793801,49.9584125 L34.5793801,38.9562311 L36.1316674,42.7036004 C35.0634298,43.6375486 34.6531814,45.1846263 35.2255032,46.5663024 L36.5546501,49.7749222 C36.698635,50.1223672 37.0122181,50.3706868 37.38354,50.4308855 C37.441568,50.4401469 37.4997408,50.4449222 37.5574795,50.4449222 C37.801892,50.4449222 38.038635,50.3611361 38.2299395,50.2097711 C38.245568,53.7904363 37.7641231,59.3641706 33.4939222,64.298149 Z M39.4865875,46.3324536 C39.4113391,46.3159568 39.3333413,46.3066955 39.2531728,46.3066955 C39.1181598,46.3066955 38.989514,46.3324536 38.8702743,46.3774579 C38.8586976,46.3817991 38.8469762,46.3854168 38.8355443,46.3901922 C38.8246911,46.3946782 38.8144168,46.4000324 38.8038531,46.4049525 C38.6870734,46.4574816 38.5773844,46.5304147 38.4814428,46.6262117 C38.4274665,46.6801879 38.3804363,46.7386501 38.3402073,46.8000065 L37.8877041,47.3216803 L37.2305832,45.7355313 C36.971121,45.1089438 37.2696544,44.3878618 37.8962419,44.1285443 C38.5232635,43.8689374 39.2439114,44.1677603 39.5033737,44.794203 L40.1604946,46.3804968 L39.4865875,46.3324536 Z M45.2820151,61.9530043 C43.0755011,60.8455508 41.1465378,59.3488315 39.5308683,57.4917883 C40.2902981,54.7191749 40.4147473,52.1519028 40.4014341,50.1698315 C41.7933844,51.580594 43.696879,53.3062419 46.1939676,54.7298834 C46.3647235,57.1871771 46.0592441,59.6097408 45.2820151,61.9530043 Z M41.9652981,48.6626933 C42.2633974,48.6265162 42.5366069,48.4705205 42.7157559,48.2222009 C42.9357127,47.9170108 42.9818747,47.5197862 42.8380346,47.1721965 L41.5088877,43.963432 C40.9365659,42.5817559 39.5525745,41.7779006 38.136892,41.8726847 L36.5848942,38.1256048 L44.3658661,45.906432 C43.7369633,47.1779849 43.9482376,48.763121 45.0054773,49.8205054 L47.461324,52.2763521 C47.6672441,52.4822721 47.944216,52.5941317 48.2287127,52.5941317 C48.3117754,52.5941317 48.3954168,52.5847257 48.4780454,52.5651901 C48.8441577,52.4786544 49.1393629,52.2089179 49.2583132,51.852067 L49.9053045,49.9110929 L51.8462786,49.2641015 C52.2031296,49.1451512 52.4730108,48.849946 52.5594017,48.4838337 C52.6457927,48.1177214 52.5365378,47.7330864 52.2705637,47.4669676 L49.8147171,45.011121 C48.7574773,43.9540259 47.172486,43.7424622 45.9007883,44.3715097 L38.119527,36.5902484 L41.867041,38.1425356 C41.7721123,39.5582181 42.5759676,40.9422095 43.9576436,41.514676 L47.1662635,42.8438229 C47.2999741,42.8992462 47.4410648,42.9264514 47.5815767,42.9264514 C47.8058747,42.9264514 48.028581,42.8569914 48.2162678,42.7215443 C48.4676263,42.540514 48.6247797,42.2623844 48.6583521,41.9605227 C51.2017473,44.4807646 54.8062894,48.7635551 55.2761577,55.2757235 C48.7677516,54.8064341 44.4861188,51.2059438 41.9652981,48.6626933 Z M47.4100972,46.1865875 C47.7249827,46.1865875 48.0401577,46.3065508 48.2797948,46.5463326 L49.4937538,47.7602916 L48.7039352,48.0235162 C48.3797883,48.1314687 48.1255356,48.3858661 48.0174384,48.7098683 L47.7542138,49.4996868 L46.5401102,48.2855832 C46.0605464,47.8061641 46.0605464,47.0257516 46.5401102,46.5461879 C46.7800367,46.3065508 47.0949222,46.1865875 47.4100972,46.1865875 Z M46.8031901,38.3384708 C46.740676,38.3791339 46.6812009,38.4265983 46.6263564,38.4814428 C46.5308488,38.5769503 46.4580605,38.6862052 46.405676,38.802406 C46.4006112,38.8135486 46.3949676,38.8244017 46.3901922,38.8358337 C46.3857063,38.8468315 46.3820886,38.8582635 46.377892,38.869406 C46.3325983,38.9889352 46.3066955,39.1178704 46.3066955,39.2533175 C46.3066955,39.3130821 46.3127732,39.3711102 46.3220346,39.42827 L46.3745637,40.1668618 L44.78827,39.5098855 C44.1615378,39.2502786 43.8630043,38.5293413 44.1226112,37.9027538 C44.3822181,37.2760216 45.1031555,36.9779222 45.7295983,37.2369503 L47.3157473,37.8940713 L46.8031901,38.3384708 Z M61.9530043,45.2820151 C59.6084384,46.0595335 57.1845724,46.3644341 54.729594,46.1936782 C53.3060972,43.696879 51.580594,41.7935292 50.1699762,40.4017235 C50.257959,40.4023024 50.3470994,40.4025918 50.4373974,40.4025918 C52.3805421,40.4025918 54.8431901,40.2564363 57.4928013,39.5305788 C59.3499892,41.1468272 60.8458402,43.0760799 61.9530043,45.2820151 Z M50.207311,38.2296501 C50.3913801,37.9939201 50.4737192,37.6906112 50.4248078,37.3893283 C50.3644644,37.0180065 50.1162894,36.7044233 49.7688445,36.5604384 L46.5602246,35.2311469 C45.1785486,34.6592592 43.6314708,35.0692181 42.6975227,36.1374557 L38.9501533,34.5853132 L49.9523348,34.5853132 C50.4064298,35.9296544 51.6787063,36.9006479 53.1744125,36.9006479 L56.6474147,36.9006479 C57.0235119,36.9006479 57.372838,36.7058704 57.5706544,36.3859201 C57.7684708,36.0658251 57.7864147,35.6662851 57.6181188,35.329838 L56.7031274,33.4998553 L57.6181188,31.6698726 C57.7864147,31.3334255 57.7684708,30.9338855 57.5706544,30.6137905 C57.372838,30.2938402 57.0235119,30.0990626 56.6474147,30.0990626 L53.1744125,30.0990626 C51.6787063,30.0990626 50.4064298,31.0700562 49.9523348,32.4143974 L38.9498639,32.4143974 L42.6983909,30.861676 C43.0387451,31.2522441 43.4649114,31.5642354 43.9576436,31.7682743 C44.3771533,31.9419244 44.8180799,32.0288942 45.2590065,32.0288942 C45.699933,32.0288942 46.1408596,31.9419244 46.5603693,31.7681296 L49.7689892,30.4389827 C50.1164341,30.2951425 50.3647538,29.9815594 50.4249525,29.6100929 C50.4745875,29.3036004 50.3887754,28.9950821 50.1980497,28.7577603 C53.7782808,28.7406847 59.3588164,29.2186566 64.2982937,33.4934881 C59.363013,37.7651361 53.7879762,38.2457127 50.207311,38.2296501 Z M54.5188985,33.9853521 L54.8912333,34.7300216 L53.1742678,34.7300216 C52.4960194,34.7300216 51.9442462,34.1782484 51.9442462,33.5 C51.9442462,32.8217516 52.4960194,32.2699784 53.1742678,32.2699784 L54.8912333,32.2699784 L54.5188985,33.0146479 C54.3660864,33.3202721 54.3660864,33.6797279 54.5188985,33.9853521 Z" id="Shape"></path>
        </g>
    </g>
</svg>