<?xml version="1.0" encoding="UTF-8"?>
<svg width="42px" height="67px" viewBox="0 0 42 67" version="1.1" xmlns="http://www.w3.org/2000/svg" xmlns:xlink="http://www.w3.org/1999/xlink">
    <!-- Generator: Sketch 48.2 (47327) - http://www.bohemiancoding.com/sketch -->
    <title>birch@3x</title>
    <desc>Created with Sketch.</desc>
    <defs></defs>
    <g id="Artboard" stroke="none" stroke-width="1" fill="none" fill-rule="evenodd" transform="translate(-360.000000, -4117.000000)">
        <g id="birch" transform="translate(360.000000, 4117.000000)" fill="#9B9B9B" fill-rule="nonzero">
            <path d="M37.448514,22.8322397 C35.0457754,18.1070756 31.8595853,14.5324881 29.0483348,11.378568 C26.0206004,7.98182721 23.1607279,4.77349676 21.7935227,0.737 C21.6443283,0.296507559 21.2308963,3.55271368e-15 20.7656587,3.55271368e-15 C20.3004212,3.55271368e-15 19.8869892,0.296507559 19.7376501,0.737144708 C18.3704449,4.77364147 15.5105724,7.98197192 12.482838,11.3787127 C9.67158747,14.5324881 6.48539741,18.1072203 4.08265875,22.8323844 C1.33551404,28.2352181 0,34.3753413 0,41.6036717 C0,45.7100626 1.63752052,49.1435594 5.00647732,52.0999525 C7.79819222,54.5500108 11.3623607,56.2617667 14.2261404,57.6370756 C16.7827041,58.8649266 19.6803456,60.2565875 19.6803456,61.2840173 L19.6803456,65.9146868 C19.6803456,66.5140691 20.1661317,67 20.7656587,67 C21.3651857,67 21.8509719,66.5140691 21.8509719,65.9146868 L21.8509719,61.2840173 C21.8509719,60.2565875 24.7486134,58.8649266 27.3051771,57.6370756 C30.1689568,56.2617667 33.7331253,54.5500108 36.5248402,52.0999525 C39.893797,49.1435594 41.5313175,45.7100626 41.5313175,41.6036717 C41.5313175,34.3753413 40.1958035,28.2352181 37.448514,22.8322397 Z M2.51126998,35.7153413 L19.6803456,46.8247516 L19.6803456,52.3430626 L2.17438877,41.0157214 C2.19450324,39.126987 2.31128294,37.3650173 2.51126998,35.7153413 Z M4.05053348,28.6076976 L19.6803456,38.7210799 L19.6803456,44.2393909 L2.86522678,33.359054 C3.1730216,31.6529417 3.57429806,30.0756199 4.05053348,28.6076976 Z M6.84326134,22.3096976 C6.85006263,22.3143283 6.85614039,22.3193931 6.86294168,22.323879 L19.6803456,30.6174082 L19.6803456,36.1357192 L4.80735853,26.5120302 C5.4132527,24.996933 6.10032829,23.6051274 6.84326134,22.3096976 Z M10.7472052,16.7081793 C10.7977084,16.7572354 10.8534212,16.8022397 10.9147775,16.8418898 L19.6803456,22.5137365 L19.6803456,28.0320475 L8.04202592,20.5014212 C8.02089849,20.4878186 7.99904752,20.4760972 7.97734125,20.4640864 C8.85861555,19.1210475 9.79328726,17.881041 10.7472052,16.7081793 Z M34.2339611,21.5404276 L21.8509719,29.552933 L21.8509719,24.034622 L31.5953477,17.7293866 C32.513378,18.9146933 33.4034795,20.173946 34.2339611,21.5404276 Z M37.1847106,27.7346717 L21.8509719,37.6566048 L21.8509719,32.1382937 L35.3049482,23.4327797 C36.0001274,24.7583089 36.6343844,26.1842657 37.1847106,27.7346717 Z M38.8895205,34.7352311 L21.8509719,45.7602765 L21.8509719,40.2419654 L37.8670108,29.8786717 C38.2910065,31.3804557 38.637149,32.9940994 38.8895205,34.7352311 Z M21.8509719,5.82248812 C22.9574125,7.59299568 24.2807711,9.23066091 25.6937041,10.8592095 L21.8509719,13.3455896 L21.8509719,5.82248812 Z M19.6803456,11.8247041 L16.6737387,9.87924406 C17.7713521,8.56992225 18.7953089,7.23860475 19.6803456,5.82234341 L19.6803456,11.8247041 Z M21.8509719,48.3456371 L39.1688078,37.1399957 C39.2935464,38.5472851 39.3606911,40.0315594 39.3606911,41.6036717 C39.3606911,41.8943909 39.3495486,42.1784536 39.3301577,42.4573067 L21.8509719,53.7674276 L21.8509719,48.3456371 Z M30.2251037,16.0306544 L21.8509719,21.4492613 L21.8509719,15.9309503 L27.1449849,12.5054125 C27.2391901,12.6111944 27.3332505,12.7168315 27.4278898,12.8230475 C28.3506955,13.8581469 29.2936156,14.9163996 30.2251037,16.0306544 Z M14.1034276,12.8229028 C14.486905,12.3926847 14.867054,11.9655054 15.2430065,11.538905 L19.6803456,14.4100648 L19.6803456,19.9283758 L12.1403132,15.0495313 C12.7972894,14.2885097 13.4554233,13.5499179 14.1034276,12.8229028 Z M15.1658769,55.680473 C9.92584017,53.1638488 3.52654428,50.0900972 2.35845788,43.7201771 L19.6803456,54.9284233 L19.6803456,58.0965248 C18.4970648,57.2810929 16.9182959,56.5222419 15.1658769,55.680473 Z M26.3654406,55.680473 C24.6130216,56.5222419 23.0342527,57.2810929 21.8509719,58.0965248 L21.8509719,56.3527883 L38.7029914,45.4485745 C36.7984838,50.6686415 31.1076803,53.4029071 26.3654406,55.680473 Z" id="Shape"></path>
        </g>
    </g>
</svg>