<?xml version="1.0" encoding="UTF-8"?>
<svg width="28px" height="67px" viewBox="0 0 28 67" version="1.1" xmlns="http://www.w3.org/2000/svg" xmlns:xlink="http://www.w3.org/1999/xlink">
    <!-- Generator: Sketch 48.2 (47327) - http://www.bohemiancoding.com/sketch -->
    <title>cherry@3x</title>
    <desc>Created with Sketch.</desc>
    <defs></defs>
    <g id="Artboard" stroke="none" stroke-width="1" fill="none" fill-rule="evenodd" transform="translate(-618.000000, -4207.000000)">
        <g id="cherry" transform="translate(618.000000, 4207.000000)" fill="#9B9B9B" fill-rule="nonzero">
            <path d="M18.6420626,5.82147516 C16.9541836,4.07961987 15.4965356,2.5752311 14.8430324,0.723976242 C14.6899309,0.290140389 14.2798272,0 13.8196544,0 C13.3594816,0 12.949378,0.290140389 12.7962765,0.72412095 C12.1427732,2.57537581 10.6851253,4.07961987 8.99724622,5.82161987 C5.2002419,9.73988985 0,15.106257 0,28.8693305 C0,40.2251793 5.60860907,47.8589827 9.3198013,52.9103197 C11.1519546,55.4042246 12.7343413,57.5579201 12.7343413,58.9686825 L12.7343413,65.9146868 C12.7343413,66.5140691 13.2201274,67 13.8196544,67 C14.4191814,67 14.9049676,66.5140691 14.9049676,65.9146868 L14.9049676,58.9686825 C14.9049676,57.5579201 16.4873542,55.4042246 18.3195076,52.9103197 C22.0306998,47.8589827 27.6393089,40.2251793 27.6393089,28.8693305 C27.6393089,15.106257 22.439067,9.73988985 18.6420626,5.82147516 Z M11.0690367,51.6251641 C7.31370842,46.5137732 2.17062635,39.5135032 2.17062635,28.8693305 C2.17062635,15.9853607 6.82010799,11.1874082 10.5559006,7.33208639 C11.32054,6.54299136 12.0668013,5.77241901 12.7343413,4.96914255 L12.7343413,14.6724212 L11.1141857,13.0522657 C10.6901901,12.6284147 10.0031145,12.6284147 9.5792635,13.0522657 C9.15541253,13.4761166 9.15541253,14.1633369 9.5792635,14.5870432 L12.7343413,17.7422657 L12.7343413,19.6072678 C12.7343413,19.6077019 12.7343413,19.6082808 12.7343413,19.6087149 L12.7343413,21.6184255 L9.95651836,18.8406026 C9.53252268,18.4167516 8.84544708,18.4167516 8.42159611,18.8406026 C7.99774514,19.2644536 7.99774514,19.9516739 8.42159611,20.3753801 L12.7343413,24.68827 L12.7343413,26.5532721 C12.7343413,26.5537063 12.7343413,26.5542851 12.7343413,26.5547192 L12.7343413,28.5644298 L7.64118359,23.4712721 C7.2171879,23.0474212 6.53011231,23.0474212 6.10626134,23.4712721 C5.68241037,23.8951231 5.68241037,24.5823434 6.10626134,25.0060497 L12.7343413,31.6342743 L12.7343413,33.4992765 C12.7343413,33.4997106 12.7343413,33.5002894 12.7343413,33.5007235 L12.7343413,35.5104341 L8.79885097,31.5749438 C8.37485529,31.1510929 7.6877797,31.1510929 7.26392873,31.5749438 C6.84007775,31.9987948 6.84007775,32.6860151 7.26392873,33.1097214 L12.7343413,38.5802786 L12.7343413,40.4452808 C12.7343413,40.4457149 12.7343413,40.4462937 12.7343413,40.4467279 L12.7343413,42.4564384 L9.95651836,39.6786156 C9.53252268,39.2547646 8.84544708,39.2547646 8.42159611,39.6786156 C7.99774514,40.1024665 7.99774514,40.7896868 8.42159611,41.2133931 L12.7343413,45.5262829 L12.7343413,47.3912851 C12.7343413,47.3917192 12.7343413,47.3922981 12.7343413,47.3927322 L12.7343413,53.9402095 C12.2320583,53.2098661 11.669432,52.4423326 11.0690367,51.6251641 Z M16.5702721,51.6251641 C15.9700216,52.4421879 15.4073952,53.2098661 14.9049676,53.9402095 L14.9049676,47.8416177 L19.2178575,43.5287279 C19.6417084,43.1048769 19.6417084,42.4176566 19.2178575,41.9939503 C18.7938618,41.5700994 18.1067862,41.5700994 17.6829352,41.9939503 L14.9049676,44.7717732 L14.9049676,40.8956134 L20.3755248,35.4250562 C20.7993758,35.0012052 20.7993758,34.3139849 20.3755248,33.8902786 C19.9515292,33.4664276 19.2644536,33.4664276 18.8406026,33.8902786 L14.9049676,37.8257689 L14.9049676,33.9496091 L21.5331922,27.3213844 C21.9570432,26.8975335 21.9570432,26.2103132 21.5331922,25.7866069 C21.1091965,25.3627559 20.422121,25.3627559 19.99827,25.7866069 L14.9049676,30.8797646 L14.9049676,27.0036048 L19.2178575,22.6907149 C19.6417084,22.2668639 19.6417084,21.5796436 19.2178575,21.1559374 C18.7938618,20.7320864 18.1067862,20.7320864 17.6829352,21.1559374 L14.9049676,23.9337603 L14.9049676,20.0576004 L18.0601901,16.902378 C18.484041,16.478527 18.484041,15.7913067 18.0601901,15.3676004 C17.6361944,14.9437495 16.9491188,14.9437495 16.5252678,15.3676004 L14.9049676,16.9877559 L14.9049676,4.96914255 C15.5725076,5.77241901 16.3187689,6.54299136 17.0834082,7.33208639 C20.8192009,11.1874082 25.4686825,15.9853607 25.4686825,28.8693305 C25.4686825,39.5135032 20.3256004,46.5137732 16.5702721,51.6251641 Z" id="Shape"></path>
        </g>
    </g>
</svg>