<?xml version="1.0" encoding="UTF-8"?>
<svg width="62px" height="67px" viewBox="0 0 62 67" version="1.1" xmlns="http://www.w3.org/2000/svg" xmlns:xlink="http://www.w3.org/1999/xlink">
    <!-- Generator: Sketch 48.2 (47327) - http://www.bohemiancoding.com/sketch -->
    <title>gladiolus@3x</title>
    <desc>Created with Sketch.</desc>
    <defs></defs>
    <g id="Artboard" stroke="none" stroke-width="1" fill="none" fill-rule="evenodd" transform="translate(-69.000000, -3427.000000)">
        <g id="gladiolus" transform="translate(69.000000, 3427.000000)" fill="#9B9B9B" fill-rule="nonzero">
            <path d="M53.5904492,35.1486631 C52.9868704,34.6115054 52.3712808,34.0623369 51.749324,33.4995659 C52.373162,32.9350583 52.9897646,32.3860346 53.5904492,31.8511922 C56.2703045,29.4656739 58.5846263,27.40546 60.0545745,25.3126868 C61.8120583,22.8105335 62.1296933,20.4873844 61.025568,18.2102527 C59.9214428,15.933121 57.9007343,14.7437624 54.8478207,14.5740194 C52.2937171,14.4317711 49.2434082,14.9731253 45.7106415,15.5997127 C44.2793305,15.8535313 42.7993974,16.1160324 41.2628834,16.348 C41.180689,16.3604449 41.0983499,16.3750605 41.0161555,16.3908337 C40.626311,15.1101641 40.2698942,13.8571339 39.9256328,12.6417279 C38.9482721,9.18970842 38.1041879,6.20828078 36.8623002,3.97239093 C35.3777365,1.29933693 33.4259093,2.84217094e-14 30.8952484,2.84217094e-14 C28.3645875,2.84217094e-14 26.4127603,1.29933693 24.9280518,3.97239093 C23.6861641,6.20828078 22.8420799,9.18956371 21.8647192,12.6417279 C21.5206026,13.8571339 21.164041,15.1101641 20.7741965,16.3908337 C20.6918575,16.3750605 20.6096631,16.3603002 20.5274687,16.3478553 C18.9909546,16.1158877 17.5110216,15.8533866 16.0797106,15.599568 C12.5470886,14.9729806 9.49634557,14.4313369 6.94253132,14.5738747 C3.889473,14.7436177 1.86876458,15.933121 0.764784017,18.210108 C-0.339196544,20.487095 -0.0217062635,22.8103888 1.73577754,25.3125421 C3.20587041,27.4053153 5.52019222,29.4655292 8.19990281,31.8510475 C8.80116631,32.386324 9.41747948,32.9353477 10.0408834,33.4995659 C9.41907127,34.0623369 8.80348164,34.6113607 8.19990281,35.1485184 C5.52004752,37.5340367 3.2057257,39.5942505 1.73577754,41.6871685 C-0.0217062635,44.1893218 -0.339341253,46.5124708 0.764639309,48.7896026 C1.86861987,51.0667343 3.889473,52.2560929 6.94238661,52.4258359 C7.22123974,52.4413197 7.50559179,52.4486998 7.79631102,52.4486998 C10.1676479,52.4486998 12.9325918,51.9582829 16.0795659,51.4001425 C17.5108769,51.146324 18.9908099,50.8838229 20.527324,50.6518553 C20.6096631,50.6394104 20.691568,50.6229136 20.7736177,50.6071404 C21.1636069,51.8883888 21.5203132,53.1421425 21.8647192,54.3581274 C22.8420799,57.8101469 23.6861641,60.7915745 24.9280518,63.0273197 C26.4127603,65.7006631 28.3645875,67 30.8952484,67 C33.4259093,67 35.3777365,65.7006631 36.8624449,63.0274644 C38.1043326,60.7917192 38.9484168,57.8102916 39.9257775,54.3582721 C40.2701836,53.1422873 40.6267451,51.8885335 41.016879,50.6071404 C41.098784,50.6227689 41.1802549,50.6395551 41.2630281,50.652 C42.7995421,50.8839676 44.2794752,51.1464687 45.7107862,51.4002873 C48.857905,51.9584276 51.6225594,52.4488445 53.994041,52.4488445 C54.2844708,52.4488445 54.569257,52.4414644 54.8479654,52.4259806 C57.9010238,52.2562376 59.9217322,51.0667343 61.0257127,48.7897473 C62.1296933,46.5127603 61.8120583,44.1894665 60.0545745,41.6873132 C58.5846263,39.5943952 56.2703045,37.5341814 53.5904492,35.1486631 Z M46.0899222,17.7369114 C53.3196998,16.4543607 57.4875918,15.8881166 59.0725832,19.1572246 C60.6575745,22.4261879 57.6317214,25.3477063 52.1472721,30.229879 C51.4953607,30.8103045 50.8243477,31.4083844 50.1429158,32.0265788 C48.8011793,30.8226048 46.9380583,30.1570907 44.741095,30.1029698 C43.0931555,30.061149 41.3511555,30.3756004 39.7338942,30.9939395 C39.3090302,29.4976544 38.5148704,28.1557732 37.4548812,27.073933 C38.7925659,25.8573693 39.8975594,24.3651361 40.6088013,22.7979438 C41.2773542,21.3248121 41.5676393,19.870203 41.4756048,18.5137063 C41.5126501,18.5070497 41.5498402,18.499959 41.5868855,18.4943153 C43.1511836,18.2581512 44.6451533,17.9931901 46.0899222,17.7369114 Z M30.8952484,40.5183585 C27.025311,40.5183585 23.8768898,37.3699374 23.8768898,33.5 C23.8768898,29.6300626 27.025311,26.4816415 30.8952484,26.4816415 C34.7651857,26.4816415 37.9136069,29.6300626 37.9136069,33.5 C37.9136069,37.3699374 34.7651857,40.5183585 30.8952484,40.5183585 Z M22.670311,17.615067 C23.1401793,16.1046004 23.5536112,14.6447819 23.9532959,13.2330065 C25.9536004,6.16790713 27.2623434,2.17062635 30.8952484,2.17062635 C34.5281533,2.17062635 35.8368963,6.16790713 37.8373456,13.2330065 C38.2370302,14.6447819 38.6504622,16.1046004 39.1203305,17.615067 C39.7681901,19.6975659 38.8022613,23.0960432 35.738784,25.6960194 C34.6225032,25.0006955 33.3470432,24.5389309 31.9805616,24.3772916 L31.9805616,19.6079914 C31.9805616,19.0086091 31.4946307,18.5226782 30.8952484,18.5226782 C30.2958661,18.5226782 29.8099352,19.0086091 29.8099352,19.6079914 L29.8099352,24.3772916 C28.4440324,24.5387862 27.1692959,25.0001166 26.0533045,25.6950065 C23.3741728,23.4062981 21.9279568,20.0008747 22.670311,17.615067 Z M2.71791361,19.1572246 C4.30290497,15.8882613 8.47065227,16.4545054 15.7005745,17.7369114 C17.1453434,17.9931901 18.6393132,18.2581512 20.2033218,18.4941706 C20.2403672,18.4998143 20.2774125,18.506905 20.3146026,18.5135616 C20.2218445,19.8807667 20.5173391,21.3470972 21.197324,22.832095 C21.9098683,24.3884341 23.0083499,25.866486 24.335905,27.0734989 C23.2759158,28.1551944 22.4817559,29.4970756 22.0567473,30.9933607 C20.4561274,30.3813888 18.7335184,30.0682397 17.0968661,30.1018121 C14.8793542,30.1472505 12.9998812,30.8131987 11.6478704,32.0262894 C10.9667279,31.4082397 10.2964384,30.8113175 9.64322462,30.229879 C4.15877538,25.3477063 1.13292225,22.4263326 2.71791361,19.1572246 Z M20.2033218,48.5056847 C18.6391685,48.7418488 17.1453434,49.0068099 15.7005745,49.2629438 C8.47065227,50.5453499 4.30276026,51.1114492 2.71791361,47.8426307 C1.13292225,44.5736674 4.15877538,41.652149 9.64322462,36.7698315 C10.7392462,35.7942073 11.8724579,34.7854449 13.0265076,33.7036048 C14.8412959,32.0028467 18.4985119,31.8116868 21.713933,33.1971253 C21.7106048,33.2978423 21.7062635,33.3984147 21.7062635,33.5 C21.7062635,34.6973175 21.9388099,35.840514 22.3573067,36.8903737 L17.6440086,39.4433197 C17.1169806,39.7288294 16.9211901,40.3875421 17.2066998,40.9145702 C17.4032138,41.2773542 17.7765616,41.4831296 18.1620648,41.4831296 C18.3365832,41.4831296 18.5137063,41.4408747 18.6779503,41.351879 L23.3941425,38.7973413 C24.1221706,39.8250605 25.0536587,40.6989546 26.1323153,41.3554968 C25.4608683,44.5846652 23.1413369,48.0621533 20.2033218,48.5056847 Z M37.8373456,53.7669935 C35.8368963,60.8320929 34.5281533,64.8293737 30.8952484,64.8293737 C27.2623434,64.8293737 25.9536004,60.8320929 23.9531512,53.7669935 C23.5955767,52.5042678 23.2248337,51.200879 22.8148747,49.859432 C23.9289849,49.2489071 24.9697279,48.3307322 25.8601188,47.1497667 C26.9173585,45.7475421 27.7203456,44.0227624 28.1508531,42.270054 C29.017946,42.5419611 29.9397387,42.6889849 30.8952484,42.6889849 C31.8510475,42.6889849 32.7731296,42.5419611 33.6403672,42.2699093 C34.3846026,45.2785421 36.2969244,48.3987451 38.9737408,49.8652203 C38.5645054,51.2044968 38.1943413,52.506149 37.8373456,53.7669935 Z M59.0725832,47.8427754 C57.4875918,51.1117387 53.3198445,50.5454946 46.0899222,49.2630886 C44.6451533,49.0068099 43.1511836,48.7418488 41.5871749,48.5058294 C38.6443844,48.0615745 36.3270238,44.6040562 35.6577473,41.3560756 C36.7366933,40.6995335 37.6683261,39.8254946 38.3964989,38.7976307 L43.1126911,41.3521685 C43.2770799,41.4411641 43.4540583,41.483419 43.6285767,41.483419 C44.0140799,41.483419 44.3874276,41.2774989 44.5839417,40.9148596 C44.8694514,40.3878315 44.6736609,39.7291188 44.1466328,39.4436091 L39.4333348,36.8906631 C39.8516868,35.8408035 40.084378,34.6974622 40.084378,33.5002894 C40.084378,33.39827 40.0800367,33.2974082 40.0767084,33.196257 C43.730162,31.6062009 47.1798661,32.2191857 48.7641339,33.7041836 C49.9181836,34.7860238 51.05154,35.7947862 52.1474168,36.7704104 C57.6317214,41.652149 60.6575745,44.5736674 59.0725832,47.8427754 Z" id="Shape"></path>
            <path d="M30.8952484,30.0993521 C29.0201166,30.0993521 27.4946004,31.6248683 27.4946004,33.5 C27.4946004,35.3751317 29.0201166,36.9006479 30.8952484,36.9006479 C32.7703801,36.9006479 34.2958963,35.3751317 34.2958963,33.5 C34.2958963,31.6248683 32.7703801,30.0993521 30.8952484,30.0993521 Z M30.8952484,34.7300216 C30.217,34.7300216 29.6652268,34.1782484 29.6652268,33.5 C29.6652268,32.8217516 30.217,32.2699784 30.8952484,32.2699784 C31.5734968,32.2699784 32.12527,32.8217516 32.12527,33.5 C32.12527,34.1782484 31.5734968,34.7300216 30.8952484,34.7300216 Z" id="Shape"></path>
        </g>
    </g>
</svg>