<?xml version="1.0" encoding="UTF-8"?>
<svg width="78px" height="67px" viewBox="0 0 78 67" version="1.1" xmlns="http://www.w3.org/2000/svg" xmlns:xlink="http://www.w3.org/1999/xlink">
    <!-- Generator: Sketch 48.2 (47327) - http://www.bohemiancoding.com/sketch -->
    <title>bird@3x</title>
    <desc>Created with Sketch.</desc>
    <defs></defs>
    <g id="Artboard" stroke="none" stroke-width="1" fill="none" fill-rule="evenodd" transform="translate(-1209.000000, -2185.000000)">
        <g id="bird" transform="translate(1209.000000, 2185.000000)" fill="#AFAFAF" fill-rule="nonzero">
            <path d="M9.73988571,45.7929048 C6.1633619,45.7929048 3.25300952,42.8825524 3.25300952,39.3060286 C3.25300952,35.7288667 6.1633619,32.8185143 9.73988571,32.8185143 C13.3164095,32.8185143 16.2267619,35.7288667 16.2267619,39.3060286 C16.2267619,42.8825524 13.3164095,45.7929048 9.73988571,45.7929048 Z M9.73988571,34.7328 C7.21877143,34.7328 5.16729524,36.7842762 5.16729524,39.3060286 C5.16729524,41.8271429 7.21877143,43.878619 9.73988571,43.878619 C12.261,43.878619 14.3124762,41.8271429 14.3124762,39.3060286 C14.3124762,36.7842762 12.261,34.7328 9.73988571,34.7328 Z" id="Shape"></path>
            <path d="M27.3953429,53.1731143 C26.0623619,53.1731143 24.7319333,52.842581 23.4480857,52.1840667 C20.0732,50.4522762 17.3829905,46.5956286 16.2522857,41.8673429 C14.5804762,34.8750952 10.3971238,34.5292476 10.2197333,34.5177619 C10.1859143,34.5158476 10.1425238,34.5107429 10.1093429,34.505 C6.54111429,33.8937048 3.57014286,36.2974095 3.54079048,36.3216571 C3.13240952,36.6566571 2.52940952,36.5985905 2.19377143,36.1902095 C1.85813333,35.7818286 1.9168381,35.1788286 2.32521905,34.8431905 C2.47261905,34.7213143 5.98724762,31.8843429 10.385,32.6098571 C11.0862667,32.6685619 16.1891143,33.3691905 18.1142476,41.4219524 C19.1166952,45.6136 21.4374476,48.9999714 24.3222762,50.4803524 C26.1268095,51.4068667 28.0474762,51.5013048 29.875619,50.7547333 C30.3663143,50.5550095 30.9240095,50.7904667 31.1237333,51.2786095 C31.3234571,51.7680286 31.0886381,52.327 30.5998571,52.5267238 C29.5463619,52.9580762 28.4698952,53.1731143 27.3953429,53.1731143 Z" id="Shape"></path>
            <path d="M38.8791429,66.9559714 C38.5677524,66.9559714 38.2678476,66.8034667 38.0866286,66.5354667 L28.9408095,53.0289048 C28.6849333,52.6511524 28.7315143,52.1445048 29.0531143,51.8190762 L38.1989333,42.5666952 C38.4720381,42.2904 38.8848857,42.2068095 39.2434952,42.3542095 C39.6021048,42.5016095 39.8369238,42.8512857 39.8369238,43.2398857 L39.8369238,65.9988286 C39.8369238,66.4193333 39.5625429,66.7907048 39.1599048,66.9138571 C39.067381,66.9425714 38.9729429,66.9559714 38.8791429,66.9559714 Z M30.9667619,52.6064857 L37.922,62.8779048 L37.922,45.5702095 L30.9667619,52.6064857 Z" id="Shape"></path>
            <path d="M3.03860952,64.1917429 C2.62767619,64.1917429 2.24800952,63.925019 2.12230476,63.5115333 C-2.13442857,49.4313238 4.08827619,42.4569429 4.3556381,42.1672476 C4.71424762,41.7780095 5.31852381,41.7531238 5.7084,42.1117333 C6.0963619,42.4690667 6.12188571,43.0727048 5.76646667,43.4613048 C5.69882857,43.5366 0.0382857143,50.0030571 3.95555238,62.9576667 C4.10869524,63.4636762 3.82219048,63.9977619 3.31618095,64.1509048 C3.22365714,64.1783429 3.13049524,64.1917429 3.03860952,64.1917429 Z" id="Shape"></path>
            <path d="M31.9666571,50.578619 C31.5818857,50.578619 31.2188095,50.3444381 31.0733238,49.9641333 C30.9591048,49.666781 19.4963619,20.3195048 4.05062857,24.8040381 C3.54270476,24.9501619 3.01180952,24.6591905 2.86504762,24.1519048 C2.71764762,23.644619 3.00989524,23.1137238 3.51718095,22.9663238 C10.6849048,20.884219 18.0574571,24.8410476 24.8384952,34.4054571 C29.8360571,41.4551333 32.7400286,48.9629619 32.8606286,49.2794571 C33.0501429,49.7727048 32.8032,50.3265714 32.3099524,50.5154476 C32.1970095,50.5582 32.0808762,50.578619 31.9666571,50.578619 Z" id="Shape"></path>
            <path d="M35.5814667,47.0690952 C35.0888571,47.0690952 34.6702667,46.6907048 34.6287905,46.1910762 C34.6019905,45.8630952 31.7018476,13.3744762 13.6022762,9.93705714 C13.0828667,9.83815238 12.7414857,9.33788571 12.8403905,8.81847619 C12.9392952,8.29970476 13.4382857,7.95832381 13.9589714,8.05659048 C22.0985143,9.60205714 28.5873048,16.7046952 32.7240762,28.5956 C35.7996952,37.4357714 36.507981,45.6863429 36.5366952,46.0334667 C36.5800857,46.5605333 36.1882952,47.0225143 35.6618667,47.0659048 C35.6350667,47.067819 35.6082667,47.0690952 35.5814667,47.0690952 Z" id="Shape"></path>
            <path d="M6.86718095,34.5196762 C6.73062857,34.5196762 6.5921619,34.4903238 6.46007619,34.4284286 C5.98150476,34.203181 5.77667619,33.6327238 6.00128571,33.1547905 C6.08870476,32.9691048 8.19122857,28.589219 12.3688381,27.2696381 C14.7144762,26.5288095 17.2094286,26.8995429 19.785419,28.3716286 C20.2442095,28.6338857 20.4037333,29.218381 20.1414762,29.6771714 C19.879219,30.1359619 19.2940857,30.2961238 18.8359333,30.0332286 C16.742981,28.8374381 14.7610571,28.521581 12.9456762,29.0952286 C9.55802857,30.1653143 7.75158095,33.9319905 7.73435238,33.9702762 C7.5703619,34.3161238 7.22642857,34.5196762 6.86718095,34.5196762 Z" id="Shape"></path>
            <path d="M4.21015238,38.5607333 C4.1948381,38.5607333 4.17952381,38.5607333 4.16357143,38.5594571 C3.74370476,38.5396762 1.63671429,38.1778762 1.36552381,33.0278095 C1.35914286,32.904019 0.820590476,20.5447524 9.9696,10.9452476 C16.5713333,4.01872381 26.2920762,0.531533333 38.9365714,0.594066667 C39.4649143,0.596619048 39.8918,1.02733333 39.8892476,1.55567619 C39.8866952,2.08274286 39.4585333,2.50835238 38.9321048,2.50835238 C38.8459619,2.50835238 38.7279143,2.50771429 38.6264571,2.50771429 C26.7010952,2.50771429 17.5272,5.79007619 11.3549048,12.2654667 C2.76869524,21.2747333 3.27087619,32.8114952 3.27725714,32.9276286 C3.43550476,35.9292286 4.2478,36.6477238 4.25545714,36.6483619 C4.7838,36.6738857 5.19090476,37.1224667 5.16538095,37.6501714 C5.14049524,38.1619238 4.7174381,38.5607333 4.21015238,38.5607333 Z" id="Shape"></path>
            <path d="M68.0177619,45.7929048 C64.4412381,45.7929048 61.5308857,42.8825524 61.5308857,39.3060286 C61.5308857,35.7288667 64.4412381,32.8185143 68.0177619,32.8185143 C71.5942857,32.8185143 74.5046381,35.7288667 74.5046381,39.3060286 C74.5046381,42.8825524 71.5949238,45.7929048 68.0177619,45.7929048 Z M68.0177619,34.7328 C65.4966476,34.7328 63.4451714,36.7842762 63.4451714,39.3060286 C63.4451714,41.8271429 65.4966476,43.878619 68.0177619,43.878619 C70.5388762,43.878619 72.5903524,41.8271429 72.5903524,39.3060286 C72.5903524,36.7842762 70.5388762,34.7328 68.0177619,34.7328 Z" id="Shape"></path>
            <path d="M50.3629429,53.1731143 C49.2877524,53.1731143 48.2119238,52.9587143 47.1584286,52.528 C46.6690095,52.3282762 46.4341905,51.7693048 46.6345524,51.2798857 C46.8336381,50.7911048 47.3926095,50.5556476 47.8826667,50.7560095 C49.7101714,51.5019429 51.6302,51.4075048 53.4353714,50.4816286 C56.3202,49.0012476 58.6403143,45.6148762 59.6434,41.4232286 C61.5691714,33.3717429 66.672019,32.6698381 67.3732857,32.6111333 C71.7710381,31.8862571 75.2850286,34.7225905 75.4337048,34.8444667 C75.8420857,35.1801048 75.9001524,35.7837429 75.5645143,36.1914857 C75.2301524,36.5998667 74.6265143,36.6592095 74.2174952,36.3229333 C74.189419,36.2999619 71.1954762,33.8994476 67.6489429,34.5062762 C67.609381,34.5132952 67.569181,34.5177619 67.528981,34.5190381 C67.3611619,34.5298857 63.1778095,34.8757333 61.506,41.867981 C60.3752952,46.5962667 57.6857238,50.4529143 54.3108381,52.1847048 C53.0263524,52.842581 51.6952857,53.1731143 50.3629429,53.1731143 Z" id="Shape"></path>
            <path d="M38.8791429,66.9559714 C38.785981,66.9559714 38.6909048,66.9425714 38.599019,66.9138571 C38.196381,66.7907048 37.922,66.4193333 37.922,65.9988286 L37.922,43.2405238 C37.922,42.8525619 38.156181,42.5028857 38.5154286,42.3548476 C38.8734,42.2074476 39.2868857,42.2910381 39.5599905,42.5673333 L48.7058095,51.8197143 C49.0274095,52.1445048 49.0739905,52.6511524 48.8181143,53.0295429 L39.6722952,66.5361048 C39.4904381,66.8034667 39.1905333,66.9559714 38.8791429,66.9559714 Z M39.8362857,45.5702095 L39.8362857,62.8785429 L46.7915238,52.6071238 L39.8362857,45.5702095 Z" id="Shape"></path>
            <path d="M74.7196762,64.1917429 C74.6271524,64.1917429 74.5346286,64.1783429 74.4414667,64.1509048 C73.9354571,63.9977619 73.6495905,63.4636762 73.8027333,62.9576667 C77.7468,49.9130857 72.0511619,43.5270286 71.9930952,43.4638571 C71.6344857,43.0752571 71.6606476,42.4690667 72.0492476,42.1110952 C72.4378476,41.7537619 73.0434,41.7780095 73.4013714,42.1666095 C73.6680952,42.4569429 79.8920762,49.4306857 75.6347048,63.5108952 C75.5102762,63.925019 75.1306095,64.1917429 74.7196762,64.1917429 Z" id="Shape"></path>
            <path d="M45.7916286,50.578619 C45.6774095,50.578619 45.5619143,50.5582 45.4489714,50.5148095 C44.9557238,50.3259333 44.708781,49.7720667 44.8982952,49.278819 C45.0188952,48.9623238 47.9228667,41.4544952 52.9204286,34.404819 C59.7008286,24.8397714 67.0772095,20.8861333 74.2404667,22.9656857 C74.7483905,23.1130857 75.0406381,23.643981 74.8926,24.1512667 C74.7458381,24.6591905 74.2149429,24.9514381 73.707019,24.8034 C58.2523524,20.3163143 46.799181,49.6661429 46.6849619,49.9634952 C46.5394762,50.3444381 46.1764,50.578619 45.7916286,50.578619 Z" id="Shape"></path>
            <path d="M42.176819,47.0690952 C42.150019,47.0690952 42.1238571,47.0684571 42.0970571,47.0659048 C41.5699905,47.0225143 41.1782,46.5598952 41.2215905,46.0328286 C41.2503048,45.6863429 41.9579524,37.4351333 45.0342095,28.5949619 C49.170981,16.7040571 55.6597714,9.60141905 63.7986762,8.05595238 C64.3187238,7.95640952 64.8196286,8.29842857 64.9178952,8.8178381 C65.0161619,9.33724762 64.675419,9.83815238 64.1566476,9.93641905 C46.0449524,13.3763905 43.1569333,45.8624571 43.1301333,46.1904381 C43.0886571,46.6907048 42.6700667,47.0690952 42.176819,47.0690952 Z" id="Shape"></path>
            <path d="M70.8911048,34.5196762 C70.5324952,34.5196762 70.1879238,34.3167619 70.0252095,33.9709143 C69.9971333,33.9122095 68.1670762,30.1474476 64.8011238,29.0914 C62.9895714,28.5228571 61.0114762,28.8399905 58.9223524,30.0332286 C58.4648381,30.2954857 57.8790667,30.1372381 57.6161714,29.6771714 C57.3539143,29.218381 57.5134381,28.6338857 57.9728667,28.3716286 C60.547581,26.900181 63.0425333,26.5294476 65.3881714,27.2696381 C69.566419,28.588581 71.6689429,32.9691048 71.7563619,33.1547905 C71.9816095,33.6333619 71.7761429,34.203181 71.2975714,34.4284286 C71.1667619,34.4903238 71.0276571,34.5196762 70.8911048,34.5196762 Z" id="Shape"></path>
            <path d="M73.5481333,38.5607333 C73.0402095,38.5607333 72.6171524,38.1619238 72.5929048,37.6495333 C72.5692952,37.1601143 72.9176952,36.7383333 73.3892476,36.6598476 C73.4977238,36.5966762 74.3183143,36.0140952 74.4810286,32.9269905 C74.4874095,32.8114952 74.9895905,21.2740952 66.4027429,12.2648286 C60.2310857,5.79007619 51.0559143,2.50771429 39.1318286,2.50771429 C39.0303714,2.50771429 38.9289143,2.49495238 38.826181,2.50835238 C38.2997524,2.50835238 37.8715905,2.08274286 37.8690381,1.55567619 C37.8664857,1.02733333 38.2933714,0.596619048 38.8217143,0.594066667 C51.4432381,0.505371429 61.1863143,4.01808571 67.7886857,10.9446095 C76.9383333,20.5441143 76.3991429,32.904019 76.3927619,33.0278095 C76.1215714,38.1778762 74.0139429,38.5396762 73.5947143,38.5594571 C73.5794,38.5607333 73.5640857,38.5607333 73.5481333,38.5607333 Z" id="Shape"></path>
        </g>
    </g>
</svg>