<?xml version="1.0" encoding="UTF-8"?>
<svg width="64px" height="67px" viewBox="0 0 64 67" version="1.1" xmlns="http://www.w3.org/2000/svg" xmlns:xlink="http://www.w3.org/1999/xlink">
    <!-- Generator: Sketch 48.2 (47327) - http://www.bohemiancoding.com/sketch -->
    <title>camel@3x</title>
    <desc>Created with Sketch.</desc>
    <defs></defs>
    <g id="Artboard" stroke="none" stroke-width="1" fill="none" fill-rule="evenodd" transform="translate(-1364.000000, -2728.000000)">
        <g id="camel" transform="translate(1364.000000, 2728.000000)" fill="#AFAFAF" fill-rule="nonzero">
            <path d="M16.3662727,50.334719 C16.1907438,50.334719 16.0135537,50.2793471 15.8629421,50.1641736 C9.16349587,45.0522397 9.35397521,35.6406777 9.63858678,33.7635702 C6.55880165,32.6062975 5.59533058,29.6400248 5.55324793,29.5054711 C4.42255372,25.5070661 6.00120661,23.0092397 7.16180165,22.0839752 C4.67006612,19.2146033 1.68053719,12.3423967 0.465677686,7.68728099 C-0.929694215,2.33724793 1.86880165,0.785727273 1.98840496,0.722049587 C3.57757851,-0.209859504 6.20608264,-0.714297521 9.52452066,2.26581818 C11.3783719,3.93029752 12.5893554,5.92700826 12.6402975,6.01117355 C13.463124,7.49126446 13.9886033,7.79138017 14.1497355,7.8506281 C18.425,2.96239669 24.7828017,0.141198347 31.5830248,0.141198347 C31.5841322,0.141198347 31.584686,0.141198347 31.5857934,0.141198347 C32.0442727,0.141198347 32.4163719,0.513297521 32.4163719,0.97177686 C32.4163719,1.43080992 32.0442727,1.80235537 31.5857934,1.80235537 C31.584686,1.80235537 31.5835785,1.80235537 31.5830248,1.80235537 C25.2163636,1.80235537 19.2749587,4.45466942 15.2804298,9.08043802 C15.0113223,9.35785124 14.5561653,9.58819835 13.9775289,9.51178512 C13.0378678,9.38609091 12.1303223,8.51287603 11.2022893,6.84341322 C11.1740496,6.79690083 6.87829752,-0.218165289 2.79628099,2.17279339 C2.71045455,2.22373554 1.03157851,3.27580165 2.07257025,7.26866942 C3.28078512,11.8994215 6.35060331,18.8635455 8.65075207,21.2522893 C8.67566942,21.278314 8.6983719,21.3054463 8.71996694,21.3342397 C8.88608264,21.5584959 9.0361405,21.9477603 8.96083471,22.3674793 C8.91321488,22.6310496 8.75983471,23.008686 8.2991405,23.3082479 C8.27643802,23.3226446 5.99123967,24.9500248 7.14519008,29.0303802 C7.17287603,29.113438 8.0283719,31.6738347 10.7521157,32.374843 C11.1192314,32.4689752 11.376157,32.8000992 11.376157,33.1793967 C11.376157,33.4335537 11.3534545,33.7735372 11.2554463,34.0526116 C11.1867851,34.7475289 10.4830083,43.9691653 16.8712645,48.8435537 C17.2356116,49.1215207 17.3059339,49.643124 17.0274132,50.0080248 C16.8640661,50.222314 16.616,50.334719 16.3662727,50.334719 Z" id="Shape"></path>
            <path d="M33.9252562,62.8177603 C33.4983388,62.8177603 33.1002149,62.7535289 32.7402975,62.6112231 C32.4196942,62.4844215 32.061438,62.2712397 31.7474793,61.9146446 C31.4335207,62.2712397 31.0752645,62.4838678 30.7546612,62.6112231 C27.3930331,63.9434711 20.5939174,58.4151405 19.8303388,57.7805785 C15.918314,54.9449835 15.7948347,51.4814711 15.7915124,51.3352893 C15.8712479,39.9026529 18.354124,31.7557851 23.1714793,27.0962397 C27.113405,23.284438 31.1483554,23.3459008 31.3144711,23.3508843 L32.2026364,23.3508843 C32.3593388,23.347562 36.3843223,23.2866529 40.3234793,27.0967934 C45.1408347,31.7563388 47.6242645,39.9026529 47.7034463,51.3114793 C47.700124,51.4820248 47.5766446,54.9449835 43.6219835,57.8143554 C42.978562,58.3509091 37.4862231,62.8177603 33.9252562,62.8177603 Z M31.2834628,25.0120413 C31.0758182,25.0120413 27.6305785,25.0663058 24.2811322,28.3343554 C19.8884793,32.6206942 17.5274215,40.5698843 17.4526694,51.3225537 C17.4565455,51.4056116 17.5949752,54.1094215 20.8486281,56.4693719 C23.4865455,58.656562 28.2944876,61.8000248 30.1428017,61.0669008 C30.2939669,61.0070992 30.7507851,60.8260331 30.8925372,59.785595 L30.8925372,41.9923884 C30.8925372,39.9314463 27.2878264,39.4441736 26.183157,39.3433967 C24.9228926,39.2282231 24.0153471,38.8267769 23.4865455,38.1490248 C23.0136694,37.5432562 23.0097934,36.9330579 23.0308347,36.6955124 C23.044124,35.7802149 23.4583058,35.2314793 23.806595,34.9308099 C24.8160248,34.0598099 26.394124,34.264686 26.571314,34.2907107 C29.3388017,34.5924876 30.9169008,36.1794463 31.7491405,37.8804711 C32.5847025,36.1788926 34.17,34.5908264 36.9557603,34.2868347 C37.1019421,34.264686 38.6800413,34.0603636 39.6894711,34.9313636 C40.0377603,35.2314793 40.4519421,35.7807686 40.4652314,36.6960661 C40.4862727,36.9336116 40.4823967,37.5438099 40.0100744,38.1490248 C39.4818264,38.8267769 38.574281,39.2287769 37.3129091,39.3439504 C36.2082397,39.4447273 32.6035289,39.932 32.6035289,41.9929421 L32.6035289,59.7861488 C32.745281,60.8265868 33.2015455,61.0076529 33.3532645,61.0674545 C35.1052314,61.7634793 39.8184876,58.8176942 42.6048017,56.5031488 C45.9010909,54.1094215 46.0395207,51.4061653 46.0439504,51.2920992 C45.9680909,40.531124 43.5915289,32.5669835 39.1700826,28.2906116 C35.7209669,24.9550083 32.2602231,25.0137025 32.2258926,25.0114876 L31.292876,25.0114876 C31.2912149,25.0120413 31.2884463,25.0120413 31.2834628,25.0120413 Z M37.5133554,35.9125537 C37.3743719,35.9125537 37.2525537,35.9214132 37.1678347,35.9341488 C34.9042314,36.1811074 33.7630165,37.4685041 33.1877025,38.7143719 C34.201562,38.1872314 35.5399008,37.8367273 37.1622975,37.6888843 C38.4917769,37.5676198 38.8240083,37.0958512 38.8101653,36.8356033 C38.8035207,36.7929669 38.8046281,36.7852149 38.8046281,36.7425785 C38.8046281,36.4009339 38.6900083,36.2625041 38.6041818,36.1883058 C38.3539008,35.9734628 37.8749339,35.9125537 37.5133554,35.9125537 Z M25.9804959,35.9147686 C25.6050744,35.9147686 25.1355207,35.9767851 24.8896694,36.1905207 C24.8049504,36.264719 24.691438,36.402595 24.691438,36.7431322 C24.691438,36.7857686 24.6881157,36.8289587 24.6814711,36.8710413 C24.6720579,37.0958512 25.0037355,37.5681736 26.3332149,37.689438 C27.9506281,37.8361736 29.2856446,38.1855702 30.2983967,38.7099421 C29.7230826,37.4651818 28.5901736,36.1816612 26.3592397,35.9385785 C26.260124,35.9241818 26.1272314,35.9147686 25.9804959,35.9147686 Z" id="Shape"></path>
            <path d="M12.9442893,30.5957438 C11.3158017,30.5957438 9.99075207,29.2706942 9.99075207,27.6422066 C9.99075207,26.0142727 11.3158017,24.6892231 12.9442893,24.6892231 C14.5727769,24.6892231 15.8978264,26.0142727 15.8978264,27.6422066 C15.8978264,29.2706942 14.5727769,30.5957438 12.9442893,30.5957438 Z M12.9442893,26.3503802 C12.2316529,26.3503802 11.6519091,26.9295702 11.6519091,27.6422066 C11.6519091,28.354843 12.2316529,28.9345868 12.9442893,28.9345868 C13.6569256,28.9345868 14.2366694,28.354843 14.2366694,27.6422066 C14.2366694,26.9295702 13.6569256,26.3503802 12.9442893,26.3503802 Z" id="Shape"></path>
            <path d="M47.0998926,50.3568678 C46.8490579,50.3568678 46.6015455,50.2433554 46.4376446,50.0285124 C46.1607851,49.6630579 46.2322149,49.1420083 46.5976694,48.864595 C53.0091818,43.9990661 52.3098347,34.7619256 52.2400661,34.0542727 C52.1420579,33.7768595 52.1193554,33.4346612 52.1193554,33.1793967 C52.1193554,32.8000992 52.376281,32.4695289 52.7433967,32.374843 C55.4942727,31.6677438 56.3486612,29.0348099 56.3564132,29.0082314 C57.503719,24.9500248 55.2185207,23.3226446 55.1947107,23.3076942 C54.735124,23.008686 54.5817438,22.6310496 54.534124,22.3674793 C54.4582645,21.9477603 54.608876,21.5584959 54.7749917,21.3342397 C54.7965868,21.3054463 54.8192893,21.2777603 54.8442066,21.2522893 C57.1443554,18.8635455 60.2141736,11.8988678 61.4223884,7.26866942 C62.4639339,3.27635537 60.7850579,2.22373554 60.7130744,2.18109917 C56.6221983,-0.215396694 52.3214628,6.79745455 52.2782727,6.8688843 C51.3657438,8.51342975 50.4581983,9.38609091 49.5185372,9.51178512 C48.9448843,9.58930579 48.4858512,9.35895868 48.2499669,9.11809091 C44.2211074,4.45522314 38.2791488,1.80235537 31.9124876,1.80235537 C31.9113802,1.80235537 31.9108264,1.80235537 31.909719,1.80235537 C31.4512397,1.80235537 31.0791405,1.43080992 31.0791405,0.97177686 C31.0791405,0.513297521 31.4512397,0.141198347 31.909719,0.141198347 C31.9102727,0.141198347 31.9119339,0.141198347 31.9124876,0.141198347 C38.6960992,0.141198347 45.0383967,2.94855372 49.3468843,7.8506281 C49.5096777,7.79082645 50.0318347,7.4923719 50.8402645,6.03609091 C50.9056033,5.92700826 52.1171405,3.93029752 53.970438,2.26581818 C57.288876,-0.714297521 59.9168264,-0.209859504 61.537562,0.739214876 C61.626157,0.785173554 64.4246529,2.33669421 63.0287273,7.68728099 C61.8144215,12.3429504 58.8243388,19.2157107 56.3320496,22.0845289 C57.5031653,23.0247438 59.0690826,25.5181405 57.9478017,29.4827686 C57.8996281,29.6383636 56.936157,32.6062975 53.8552645,33.7635702 C54.1420909,35.6550744 54.3270331,45.0832479 47.5999008,50.1874298 C47.4515041,50.3020496 47.2754215,50.3568678 47.0998926,50.3568678 Z" id="Shape"></path>
            <path d="M50.5517769,30.5957438 C48.9232893,30.5957438 47.5982397,29.2706942 47.5982397,27.6422066 C47.5982397,26.0142727 48.9232893,24.6892231 50.5517769,24.6892231 C52.1802645,24.6892231 53.505314,26.0142727 53.505314,27.6422066 C53.505314,29.2706942 52.1802645,30.5957438 50.5517769,30.5957438 Z M50.5517769,26.3503802 C49.8391405,26.3503802 49.2593967,26.9295702 49.2593967,27.6422066 C49.2593967,28.354843 49.8391405,28.9345868 50.5517769,28.9345868 C51.2644132,28.9345868 51.844157,28.354843 51.844157,27.6422066 C51.844157,26.9295702 51.2644132,26.3503802 50.5517769,26.3503802 Z" id="Shape"></path>
            <path d="M32.106843,66.8183802 L31.1965289,66.8183802 C25.7479339,66.8183802 22.4355868,60.0198182 22.297157,59.7302231 C22.1000331,59.316595 22.2744545,58.8210165 22.6880826,58.6233388 C23.1006033,58.4256612 23.5972893,58.5995289 23.7955207,59.013157 C23.8254215,59.0746198 26.7972314,65.1572231 31.1965289,65.1572231 L32.1073967,65.1572231 C36.5055868,65.1572231 39.4785041,59.0746198 39.508405,59.013157 C39.7066364,58.5995289 40.203876,58.4256612 40.6163967,58.6233388 C41.0294711,58.8215702 41.2044463,59.316595 41.0067686,59.7302231 C40.8677851,60.0198182 37.5543306,66.8183802 32.106843,66.8183802 Z" id="Shape"></path>
        </g>
    </g>
</svg>