<?xml version="1.0" encoding="UTF-8"?>
<svg width="92px" height="67px" viewBox="0 0 92 67" version="1.1" xmlns="http://www.w3.org/2000/svg" xmlns:xlink="http://www.w3.org/1999/xlink">
    <!-- Generator: Sketch 48.2 (47327) - http://www.bohemiancoding.com/sketch -->
    <title>cat-2@3x</title>
    <desc>Created with Sketch.</desc>
    <defs></defs>
    <g id="Artboard" stroke="none" stroke-width="1" fill="none" fill-rule="evenodd" transform="translate(-1511.000000, -2289.000000)">
        <g id="cat-2" transform="translate(1511.000000, 2289.000000)" fill="#AFAFAF" fill-rule="nonzero">
            <path d="M31.6334867,63.9980442 C31.5202389,63.9980442 31.4046195,63.9761062 31.2931504,63.9298584 C20.2203628,59.3436195 13.3418938,49.8966195 13.3418938,39.2762301 C13.3418938,31.884292 16.7209469,24.9601681 22.8564867,19.7810088 C28.9706814,14.6202301 37.1482389,11.7777699 45.8849204,11.7777699 C46.3764513,11.7777699 46.7743009,12.1756195 46.7743009,12.6671504 C46.7743009,13.1586814 46.3764513,13.556531 45.8849204,13.556531 C28.921469,13.556531 15.1206549,25.0941681 15.1206549,39.2762301 C15.1206549,49.163177 21.5787434,57.9804956 31.9744159,62.2862832 C32.428,62.4742389 32.6432301,62.9942301 32.4558673,63.4484071 C32.3135664,63.791115 31.9821239,63.9980442 31.6334867,63.9980442 Z" id="Shape"></path>
            <path d="M18.4285575,26.2349469 C18.0407876,26.2349469 17.6844425,25.9793982 17.5735664,25.5880708 L11.717885,4.94139823 C11.7083982,4.90819469 11.7006903,4.87439823 11.695354,4.84119469 C11.1700265,3.17627434 11.7404159,1.53447788 13.1746903,0.626123894 C14.4951239,-0.211079646 16.2904867,-0.202185841 17.4935221,0.635017699 C17.5184248,0.648654867 17.5421416,0.663477876 17.5658584,0.679486726 L35.8704956,13.2926814 C36.2748673,13.571354 36.3768496,14.1251416 36.098177,14.5295133 C35.8195044,14.933885 35.2657168,15.0358673 34.8613451,14.7571947 L16.6379381,2.20032743 C16.5970265,2.17838938 16.5573009,2.15348673 16.519354,2.12502655 C15.8369027,1.60977876 14.7660885,1.72184071 14.1263274,2.12739823 C12.983177,2.8519469 13.2974248,4.04490265 13.4213451,4.39353982 C13.444469,4.45757522 13.459292,4.52279646 13.467,4.58861062 L19.2847345,25.102469 C19.4187345,25.5750265 19.1442124,26.0665575 18.6716549,26.2005575 C18.5904248,26.2236814 18.5091947,26.2349469 18.4285575,26.2349469 Z" id="Shape"></path>
            <path d="M45.887292,54.8320885 L45.4817345,54.8320885 C44.3409558,54.8320885 43.6288584,53.9960708 43.3881327,53.5021681 C42.5663451,51.9303363 41.7664956,51.850885 41.123177,51.7868496 C40.899646,51.7643186 40.6678142,51.7417876 40.4436903,51.664115 C39.4647788,51.3237788 39.2353186,50.3140354 39.2536991,49.7709204 C39.2531062,48.8625664 39.9509735,48.2767611 40.3873628,48.0650885 C42.0398319,47.182823 45.5024867,47.2243274 45.8955929,47.2338142 C46.386531,47.2438938 46.7766726,47.6494513 46.7665929,48.1403894 C46.7571062,48.6253982 46.3604425,49.0119823 45.8772124,49.0119823 C45.8712832,49.0119823 45.865354,49.0119823 45.8594248,49.0119823 C44.5561858,48.9876726 42.1412212,49.1347168 41.2144867,49.639885 C41.1961062,49.6499646 41.1777257,49.6588584 41.1593451,49.6671593 C41.1213982,49.6879115 41.0318673,49.7649912 41.0318673,49.8011593 C41.0318673,49.8681593 41.0466903,49.9470177 41.063885,49.9926726 C41.1285133,50.0051239 41.2091504,50.0086814 41.2986814,50.0175752 C42.1376637,50.1005841 43.6982301,50.2553363 44.9759735,52.7011327 C44.9878319,52.7230708 45.1686726,53.0533274 45.4817345,53.0533274 L45.887292,53.0533274 C46.378823,53.0533274 46.7766726,53.451177 46.7766726,53.942708 C46.7766726,54.4342389 46.378823,54.8320885 45.887292,54.8320885 Z" id="Shape"></path>
            <path d="M34.6277345,64.5328584 C34.2316637,64.5328584 33.9440973,64.5043982 33.8136549,64.4889823 C30.6231504,64.4563717 28.0374248,61.8504867 28.0374248,58.6522743 C28.0374248,57.3288761 28.4696637,56.0801858 29.2878938,55.0413894 L29.3305841,54.984469 C29.561823,54.6607345 33.9186018,50.2470354 36.4936549,47.6470796 C41.5607522,42.9363274 41.7267699,36.239292 41.3769469,32.6639823 C41.3289204,32.1754159 41.6864513,31.7402124 42.1756106,31.6921858 C42.6600265,31.6441593 43.0993805,32.0016903 43.1474071,32.4908496 C43.5292478,36.3934513 43.3329912,43.7172035 37.7310796,48.9242301 C35.2093894,51.4720088 31.050646,55.6936018 30.7417345,56.0665487 L30.6948938,56.1282124 C30.1162035,56.8634336 29.8155929,57.7320619 29.8155929,58.6522743 C29.8155929,60.8899558 31.6358584,62.7102212 33.8735398,62.7102212 C33.9191947,62.7102212 33.9642566,62.7137788 34.0093186,62.7208938 C34.0170265,62.7220796 34.9846726,62.8566726 36.1883009,62.5744425 C36.9685841,61.1893805 40.0179735,56.3748673 44.994354,55.744 L44.994354,54.4804867 C44.994354,53.9889558 45.3922035,53.5911062 45.8837345,53.5911062 C46.3752655,53.5911062 46.773115,53.9889558 46.773115,54.4804867 L46.773115,56.5681593 C46.773115,57.0507965 46.3883097,57.4450885 45.9062655,57.4575398 C40.7253274,57.5873894 37.6148673,63.672531 37.5834425,63.7341947 C37.4731593,63.9541681 37.2763097,64.1184071 37.0403274,64.1883717 C36.0987699,64.4664513 35.2354779,64.5328584 34.6277345,64.5328584 Z" id="Shape"></path>
            <path d="M45.753885,66.8594779 C39.7505664,66.8594779 36.760469,63.6369558 36.6359558,63.4993982 C36.3056991,63.1353451 36.3335664,62.5732566 36.6976195,62.243 C37.0610796,61.9145221 37.6213894,61.9406106 37.951646,62.302292 C38.063708,62.4232478 40.5859912,65.0807168 45.753885,65.0807168 C46.2454159,65.0807168 46.6432655,65.4785664 46.6432655,65.9700973 C46.6432655,66.4616283 46.244823,66.8594779 45.753885,66.8594779 Z" id="Shape"></path>
            <path d="M29.4865221,16.8448673 C29.2398673,16.8448673 28.9949912,16.742885 28.8188938,16.5436637 C18.9301681,5.32383186 14.9463363,4.02 13.6929027,3.97968142 C13.3300354,3.96663717 13.1859558,4.06150442 13.1521593,4.08759292 C12.8948319,4.46113274 12.3908496,4.58564602 11.9864779,4.35915044 C11.5577965,4.11961062 11.4042301,3.57768142 11.6437699,3.149 C11.7184779,3.015 12.1501239,2.33966372 13.2826018,2.21870796 C16.4903009,1.87540708 22.1609912,6.30037168 30.1535575,15.3679027 C30.477885,15.7361062 30.4429027,16.2981947 30.0741062,16.623115 C29.9051239,16.7719381 29.6952301,16.8448673 29.4865221,16.8448673 Z" id="Shape"></path>
            <path d="M38.0417699,35.5912301 C37.7352301,35.5912301 37.4375841,35.4329204 37.2721593,35.1489115 L33.5183805,28.7003097 C33.2711327,28.2757788 33.4152124,27.7314779 33.8397434,27.4842301 C34.2636814,27.2369823 34.8085752,27.380469 35.055823,27.8055929 L38.8096018,34.2541947 C39.0568496,34.6787257 38.9127699,35.2230265 38.4882389,35.4702743 C38.3477168,35.5520973 38.1941504,35.5912301 38.0417699,35.5912301 Z" id="Shape"></path>
            <path d="M38.3945575,41.8892301 C38.2913894,41.8892301 38.1870354,41.8714425 38.0850531,41.8334956 C37.6267257,41.6627345 37.3919292,41.1546018 37.5591327,40.6956814 C37.6320619,40.4887522 37.7642832,39.8566991 37.5134779,39.4084513 C37.3332301,39.0870885 36.9531681,38.8623717 36.3833717,38.7402301 C35.2277699,38.4923894 33.3612566,38.1437522 31.199469,37.7393805 C28.8052566,37.2917257 26.0914602,36.7847788 23.5994159,36.2760531 C23.0432566,36.1628053 22.4995487,36.0489646 21.9730354,35.9363097 C21.4927699,35.8331416 21.186823,35.3599912 21.2899912,34.8797257 C21.3937522,34.3994602 21.8651239,34.095292 22.3465752,34.1966814 C22.8671593,34.3081504 23.405531,34.4208053 23.9557611,34.5328673 C26.4329823,35.0386283 29.1390708,35.5443894 31.5267611,35.9902655 C33.7004071,36.3970088 35.5781858,36.7474248 36.7563186,37.0000088 C38.1283363,37.2940973 38.7758053,38.0103451 39.0776018,38.5587965 C39.7576814,39.798 39.2857168,41.1575664 39.2293894,41.3087611 C39.0947965,41.6680708 38.755646,41.8892301 38.3945575,41.8892301 Z" id="Shape"></path>
            <path d="M31.6494956,43.0335664 C31.1638938,43.0335664 30.7334336,42.9879115 30.3842035,42.917354 C23.4855752,41.8311239 24.2866106,35.6546726 24.2955044,35.5924159 C24.3648761,35.1062212 24.8166814,34.7700354 25.3016903,34.8382212 C25.7866991,34.9075929 26.1240708,35.3558407 26.0564779,35.8402566 C25.9948142,36.3009558 25.6046726,40.3642389 30.6996372,41.1670531 C30.8994513,41.205 34.7884159,41.9135398 37.013646,38.2261681 C37.266823,37.8057876 37.8134956,37.6700088 38.234469,37.9243717 C38.6548496,38.1781416 38.7906283,38.7248142 38.5362655,39.1451947 C36.6727168,42.2331239 33.6838053,43.0335664 31.6494956,43.0335664 Z" id="Shape"></path>
            <path d="M31.1579646,39.6313894 C31.1223894,39.6313894 31.0862212,39.6296106 31.0500531,39.6248673 C30.5626726,39.5661681 30.2146283,39.1232566 30.2733274,38.6352832 L30.4049558,37.5454956 C30.4642478,37.058115 30.909531,36.7118496 31.3945398,36.7687699 C31.8819204,36.827469 32.2299646,37.2703805 32.1712655,37.758354 L32.0396372,38.8481416 C31.9850885,39.2999469 31.601469,39.6313894 31.1579646,39.6313894 Z" id="Shape"></path>
            <path d="M6.03889381,64.2245398 C5.73176106,64.2245398 5.4329292,64.0650442 5.26809735,63.7798496 C5.0220354,63.3547257 5.16730088,62.8104248 5.59242478,62.5649558 C20.4480442,53.972354 33.9606991,56.8545398 34.5293097,56.9814248 C35.0083894,57.0887434 35.3095929,57.5630796 35.2028673,58.0427522 C35.0967345,58.5218319 34.624177,58.8236283 34.1421327,58.7180885 C34.0087257,58.6884425 20.7113009,55.8762212 6.48299115,64.1053628 C6.34306195,64.186 6.1900885,64.2245398 6.03889381,64.2245398 Z" id="Shape"></path>
            <path d="M35.5378673,55.803292 C35.3902301,55.803292 35.2408142,55.766531 35.1032566,55.6894513 C34.951469,55.6040708 19.6796195,47.1620708 0.907168142,47.5261239 C0.901238938,47.5261239 0.895309735,47.5261239 0.889380531,47.5261239 C0.406743363,47.5261239 0.010079646,47.1395398 0.000592920354,46.654531 C-0.00948672566,46.1635929 0.380654867,45.7574425 0.872185841,45.7479558 C20.1420973,45.3542566 35.8189115,54.0512124 35.9754425,54.1389646 C36.403531,54.3796903 36.5553186,54.9216195 36.3145929,55.349708 C36.1509469,55.639646 35.8485575,55.803292 35.5378673,55.803292 Z" id="Shape"></path>
            <path d="M60.1304248,63.9980442 C59.7817876,63.9980442 59.4503451,63.791115 59.3086372,63.449 C59.1206814,62.994823 59.3359115,62.4748319 59.7900885,62.2868761 C70.1857611,57.9810885 76.6438496,49.1637699 76.6438496,39.276823 C76.6438496,25.0947611 62.8430354,13.5571239 45.8795841,13.5571239 C45.3880531,13.5571239 44.9902035,13.1592743 44.9902035,12.6677434 C44.9902035,12.1762124 45.3880531,11.7783628 45.8795841,11.7783628 C54.6156726,11.7783628 62.793823,14.620823 68.9080177,19.7816018 C75.0435575,24.961354 78.4226106,31.884885 78.4226106,39.276823 C78.4226106,49.8972124 71.5441416,59.3436195 60.471354,63.9304513 C60.359292,63.9761062 60.2442655,63.9980442 60.1304248,63.9980442 Z" id="Shape"></path>
            <path d="M73.335354,26.2349469 C73.2547168,26.2349469 73.1734867,26.2236814 73.0922566,26.2005575 C72.6196991,26.0665575 72.345177,25.5750265 72.479177,25.102469 L78.2980973,4.58386726 C78.3052124,4.51983186 78.3200354,4.45638938 78.3419735,4.39413274 C78.4653009,4.04549558 78.7801416,2.8519469 77.6369912,2.12799115 C76.9966372,1.72184071 75.9264159,1.60977876 75.2439646,2.12502655 C75.2054248,2.15407965 75.1651062,2.17957522 75.1236018,2.20151327 L56.9031593,14.7577876 C56.4987876,15.0358673 55.945,14.9344779 55.6663274,14.5301062 C55.3876549,14.1257345 55.4896372,13.5719469 55.8940088,13.2932743 L74.198646,0.680079646 C74.2223628,0.664070796 74.2466726,0.648654867 74.2715752,0.635017699 C75.4746106,-0.20159292 77.2693805,-0.210486726 78.5898142,0.626716814 C80.0240885,1.5350708 80.5944779,3.17746018 80.0679646,4.84356637 C80.0626283,4.87676991 80.0555133,4.90938053 80.0460265,4.94258407 L74.1903451,25.5892566 C74.079469,25.9793982 73.7231239,26.2349469 73.335354,26.2349469 Z" id="Shape"></path>
            <path d="M46.2815841,54.8320885 L45.8760265,54.8320885 C45.3844956,54.8320885 44.986646,54.4342389 44.986646,53.942708 C44.986646,53.451177 45.3844956,53.0533274 45.8760265,53.0533274 L46.2815841,53.0533274 C46.594646,53.0533274 46.7754867,52.7224779 46.7837876,52.7082478 C48.0650885,50.2547434 49.6262478,50.0999912 50.4646372,50.0169823 C50.5523894,50.0080885 50.6318407,50.004531 50.6994336,49.9914867 C50.7166283,49.9464248 50.7308584,49.870531 50.7314513,49.8153894 C50.7314513,49.7560973 50.6045664,49.6671593 50.6033805,49.6671593 C50.5844071,49.6582655 50.5666195,49.6493717 50.5482389,49.639885 C49.6191327,49.133531 47.2047611,48.9876726 45.9033009,49.0119823 C45.4099912,49.0481504 45.0062124,48.6319204 44.9961327,48.1409823 C44.9860531,47.6494513 45.3761947,47.2438938 45.8671327,47.2338142 C46.259646,47.2243274 49.7228938,47.1834159 51.3759558,48.0650885 C51.8117522,48.2767611 52.5102124,48.8631593 52.5102124,49.8011593 C52.528,50.3146283 52.2985398,51.3243717 51.3208142,51.664708 C51.0955044,51.7423805 50.8636726,51.7655044 50.6401416,51.7880354 C49.9974159,51.8514779 49.1969735,51.9309292 48.3645133,53.525292 C48.1344602,53.9966637 47.4223628,54.8320885 46.2815841,54.8320885 Z" id="Shape"></path>
            <path d="M57.136177,64.5328584 C56.5284336,64.5328584 55.6651416,64.4664513 54.7223982,64.1877788 C54.4870088,64.1184071 54.2901593,63.9535752 54.1798761,63.7341947 C54.1484513,63.672531 51.0190177,57.5856106 45.8564602,57.4569469 C45.3744159,57.4444956 44.9896106,57.0502035 44.9896106,56.5675664 L44.9896106,54.4798938 C44.9896106,53.9883628 45.3874602,53.5905133 45.8789912,53.5905133 C46.3705221,53.5905133 46.7683717,53.9883628 46.7683717,54.4798938 L46.7683717,55.7434071 C51.7447522,56.3736814 54.7941416,61.1887876 55.5744248,62.5738496 C56.778646,62.8572655 57.746885,62.7220796 57.7569646,62.719708 C57.7996549,62.7137788 57.8459027,62.7096283 57.8891858,62.7096283 C60.1262743,62.7096283 61.9471327,60.8893628 61.9471327,58.6516814 C61.9471327,57.731469 61.6465221,56.8628407 61.0785044,56.1412566 L61.0150619,56.0570619 C60.7126726,55.6924159 56.5545221,51.470823 54.0061504,48.8975487 C48.4309204,43.7160177 48.2346637,36.3916726 48.6165044,32.4896637 C48.6639381,32.0005044 49.0949912,31.6441593 49.5883009,31.691 C50.0774602,31.7390265 50.4349912,32.1736372 50.3869646,32.6627965 C50.0371416,36.2381062 50.2031593,42.9351416 55.2435752,47.6203982 C57.8453097,50.2464425 62.2020885,54.6595487 62.4475575,55.0028496 L62.4866903,55.0538407 C63.2942478,56.079 63.7264867,57.3276903 63.7264867,58.6510885 C63.7264867,61.8493009 61.1407611,64.4551858 57.9502566,64.4877965 C57.8198142,64.5043982 57.5328407,64.5328584 57.136177,64.5328584 Z" id="Shape"></path>
            <path d="M45.8422301,66.8594779 C45.3506991,66.8594779 44.9528496,66.4616283 44.9528496,65.9700973 C44.9528496,65.4785664 45.3506991,65.0807168 45.8422301,65.0807168 C51.0812743,65.0807168 53.801,62.3141504 53.8276814,62.2862832 C54.1686106,61.9323097 54.731292,61.9216372 55.0852655,62.2613805 C55.4392389,62.6017168 55.4505044,63.1649912 55.1101681,63.5189646 C54.9791327,63.6547434 51.8307257,66.8594779 45.8422301,66.8594779 Z" id="Shape"></path>
            <path d="M62.2773894,16.8448673 C62.0680885,16.8448673 61.8587876,16.7713451 61.6898053,16.6225221 C61.3210088,16.2976018 61.2860265,15.7355133 61.610354,15.3673097 C69.6023274,6.30037168 75.2789469,1.87244248 78.4813097,2.21811504 C79.6143805,2.3390708 80.0454336,3.01440708 80.1201416,3.14840708 C80.3596814,3.5770885 80.206115,4.1190177 79.7774336,4.35855752 C79.3730619,4.58446018 78.8690796,4.46053982 78.6117522,4.087 C78.5779558,4.0609115 78.4326903,3.96604425 78.0710088,3.9790885 C76.8175752,4.01881416 72.8337434,5.32323894 62.9450177,16.5424779 C62.7695133,16.742885 62.5240442,16.8448673 62.2773894,16.8448673 Z" id="Shape"></path>
            <path d="M53.7221416,35.5912301 C53.570354,35.5912301 53.4161947,35.5520973 53.2756726,35.4702743 C52.8511416,35.2230265 52.7076549,34.6787257 52.9543097,34.2541947 L56.7080885,27.8055929 C56.9553363,27.3810619 57.4996372,27.2375752 57.9241681,27.4842301 C58.3486991,27.7314779 58.4921858,28.2757788 58.245531,28.7003097 L54.4917522,35.1489115 C54.3263274,35.4329204 54.0280885,35.5912301 53.7221416,35.5912301 Z" id="Shape"></path>
            <path d="M53.3663894,41.8862655 C53.0064867,41.8862655 52.669115,41.666885 52.5363009,41.309354 C52.4805664,41.1587522 52.0080088,39.7991858 52.6880885,38.5593894 C52.989292,38.0103451 53.6367611,37.2946903 55.0093717,37.0006018 C56.1875044,36.7480177 58.0646903,36.3970088 60.2383363,35.9908584 C62.6254336,35.5449823 65.3315221,35.0392212 67.8093363,34.5334602 C68.3595664,34.4213982 68.8979381,34.3087434 69.4185221,34.1972743 C69.9005664,34.0946991 70.3719381,34.4000531 70.4751062,34.8803186 C70.5782743,35.3605841 70.2723274,35.8337345 69.7920619,35.9369027 C69.2655487,36.0495575 68.7212478,36.1633982 68.1656814,36.276646 C65.6736372,36.7853717 62.9598407,37.2923186 60.5656283,37.7399735 C58.4038407,38.1437522 56.5379204,38.4929823 55.3823186,38.740823 C54.8119292,38.8629646 54.4318673,39.0876814 54.2516195,39.4090442 C54.0002212,39.8584779 54.1336283,40.4911239 54.2059646,40.6974602 C54.3684248,41.1581593 54.1306637,41.666885 53.6711504,41.8334956 C53.570354,41.8690708 53.4671858,41.8862655 53.3663894,41.8862655 Z" id="Shape"></path>
            <path d="M60.1084867,43.0371239 C58.0937434,43.0371239 55.0959381,42.2408319 53.227646,39.1451947 C52.9738761,38.7248142 53.1090619,38.1781416 53.5294425,37.9243717 C53.9492301,37.6700088 54.4964956,37.8051947 54.7502655,38.2261681 C56.994469,41.9443717 60.9866018,41.182469 61.0257345,41.1741681 C66.2896814,40.3434867 65.734115,36.0276195 65.7080265,35.8444071 C65.6386549,35.3582124 65.9766195,34.9075929 66.4622212,34.8382212 C66.9466372,34.7676637 67.3990354,35.1062212 67.4684071,35.5924159 C67.4773009,35.6546726 68.2783363,41.830531 61.3411681,42.924469 C61.0032035,42.9932478 60.5834159,43.0371239 60.1084867,43.0371239 Z" id="Shape"></path>
            <path d="M60.6065398,39.6313894 C60.1630354,39.6313894 59.778823,39.2999469 59.7248673,38.8487345 L59.5932389,37.7589469 C59.5345398,37.2709735 59.8819912,36.8280619 60.3699646,36.7693628 C60.8591239,36.7130354 61.3008496,37.058115 61.3595487,37.5460885 L61.491177,38.6358761 C61.5498761,39.1238496 61.2024248,39.5667611 60.7144513,39.6254602 C60.6776903,39.6290177 60.642115,39.6313894 60.6065398,39.6313894 Z" id="Shape"></path>
            <path d="M85.7250177,64.2245398 C85.573823,64.2245398 85.4208496,64.186 85.2803274,64.1047699 C71.0520177,55.8762212 57.754,58.6878496 57.6211858,58.7174956 C57.1415133,58.8236283 56.667177,58.5212389 56.5604513,58.0421593 C56.4537257,57.5630796 56.7555221,57.0881504 57.2340088,56.9808319 C57.8020265,56.8545398 71.3152743,53.972354 86.1708938,62.5643628 C86.5960177,62.8104248 86.7412832,63.3541327 86.4952212,63.7792566 C86.3309823,64.0650442 86.0321504,64.2245398 85.7250177,64.2245398 Z" id="Shape"></path>
            <path d="M56.2260442,55.803292 C55.915354,55.803292 55.6129646,55.6402389 55.4499115,55.349708 C55.2091858,54.9216195 55.3609735,54.3790973 55.7890619,54.1389646 C55.945,54.0512124 71.6164779,45.3554425 90.8923186,45.7479558 C91.3838496,45.7580354 91.7733982,46.1635929 91.7639115,46.654531 C91.7544248,47.1460619 91.3500531,47.5563628 90.8573363,47.5261239 C72.0534602,47.1596991 56.8136283,55.6040708 56.6618407,55.6894513 C56.5236903,55.766531 56.3736814,55.803292 56.2260442,55.803292 Z" id="Shape"></path>
        </g>
    </g>
</svg>