<?xml version="1.0" encoding="UTF-8"?>
<svg width="62px" height="67px" viewBox="0 0 62 67" version="1.1" xmlns="http://www.w3.org/2000/svg" xmlns:xlink="http://www.w3.org/1999/xlink">
    <!-- Generator: Sketch 48.2 (47327) - http://www.bohemiancoding.com/sketch -->
    <title>dove@3x</title>
    <desc>Created with Sketch.</desc>
    <defs></defs>
    <g id="Artboard" stroke="none" stroke-width="1" fill="none" fill-rule="evenodd" transform="translate(-1217.000000, -2838.000000)">
        <g id="dove" transform="translate(1217.000000, 2838.000000)" fill="#AFAFAF" fill-rule="nonzero">
            <path d="M11.0970826,35.2530744 C8.4508595,35.2530744 6.298,33.1002149 6.298,30.4539917 C6.298,27.8077686 8.4508595,25.6549091 11.0970826,25.6549091 C13.7433058,25.6549091 15.8961653,27.8077686 15.8961653,30.4539917 C15.8961653,33.1002149 13.7433058,35.2530744 11.0970826,35.2530744 Z M11.0970826,27.3160661 C9.36671074,27.3160661 7.95915702,28.7236198 7.95915702,30.4539917 C7.95915702,32.1843636 9.36671074,33.5919174 11.0970826,33.5919174 C12.8274545,33.5919174 14.2350083,32.1843636 14.2350083,30.4539917 C14.2350083,28.7236198 12.8274545,27.3160661 11.0970826,27.3160661 Z" id="Shape"></path>
            <circle id="Oval" cx="11.1197851" cy="30.5348347" r="1.4767686"></circle>
            <path d="M1.17609917,66.584157 C0.985619835,66.584157 0.794586777,66.5193719 0.637884298,66.3864793 C0.288487603,66.0891322 0.246404959,65.5647603 0.543752066,65.2153636 C5.49344628,59.3979917 4.64404132,52.9742975 3.82232231,46.7610165 C3.57370248,44.8811405 3.33892562,43.1048099 3.25642149,41.3417686 C3.0266281,39.9962314 0.160024793,21.8962645 9.60093388,9.96417355 C14.4077686,3.89042975 21.5706777,0.538214876 30.890876,0.00110743802 C31.3404959,-0.0210413223 31.7413884,0.324479339 31.7679669,0.782404959 C31.7939917,1.24033058 31.444595,1.63291736 30.9866694,1.65949587 C22.163157,2.16780992 15.4077851,5.30684298 10.9082645,10.9896612 C1.76913223,22.5324876 4.86940496,40.9237107 4.90207438,41.1080992 C4.90816529,41.1429835 4.91204132,41.1789752 4.91370248,41.2144132 C4.99066942,42.9231901 5.2232314,44.6818017 5.46908264,46.5439587 C6.298,52.8103967 7.23710744,59.9129504 1.809,66.2923471 C1.64454545,66.4850413 1.41087603,66.584157 1.17609917,66.584157 Z" id="Shape"></path>
            <path d="M8.79139669,27.6853967 C8.52727273,27.6853967 8.26813223,27.5597025 8.107,27.3265868 L6.26090083,24.6504628 C6.00065289,24.2728264 6.09533884,23.7556529 6.47297521,23.495405 C6.85005785,23.2346033 7.36778512,23.329843 7.62803306,23.7074793 L9.47413223,26.3836033 C9.73438017,26.7612397 9.63969421,27.2784132 9.26205785,27.5386612 C9.11809091,27.6383306 8.95363636,27.6853967 8.79139669,27.6853967 Z" id="Shape"></path>
            <path d="M21.6188512,40.2365455 C21.3469752,40.2365455 21.0806364,40.1036529 20.921719,39.8583554 L13.8618017,28.9916198 C13.6120744,28.6067851 13.721157,28.0923802 14.105438,27.8426529 C14.4902727,27.5923719 15.0052314,27.7020083 15.254405,28.0862893 L22.3143223,38.9530248 C22.5640496,39.3378595 22.4549669,39.8522645 22.070686,40.1019917 C21.930595,40.1933554 21.7733388,40.2365455 21.6188512,40.2365455 Z" id="Shape"></path>
            <path d="M31.0309669,46.2814959 L24.8481405,46.2814959 C23.2827769,46.2814959 22.6083471,45.778719 22.3348099,45.4492562 C21.122719,44.4891074 20.4305702,43.1092397 20.4305702,41.6440992 C20.4305702,38.8577851 22.9300579,36.5914132 26.0020909,36.5914132 C29.0746777,36.5914132 31.5741653,38.8577851 31.5741653,41.6440992 C31.5741653,42.1031322 31.2026198,42.4746777 30.7435868,42.4746777 C30.2845537,42.4746777 29.9130083,42.1031322 29.9130083,41.6440992 C29.9130083,39.7741901 28.1588264,38.2525702 26.0020909,38.2525702 C23.8459091,38.2525702 22.0917273,39.7741901 22.0917273,41.6440992 C22.0917273,42.6230744 22.5817686,43.5549835 23.4356033,44.2006198 C23.5048182,44.2526694 23.5646198,44.3152397 23.6144545,44.385562 C23.6759174,44.4309669 23.9854463,44.6203388 24.8486942,44.6203388 L31.0315207,44.6203388 C31.4905537,44.6203388 31.8620992,44.9918843 31.8620992,45.4509174 C31.8620992,45.9099504 31.49,46.2814959 31.0309669,46.2814959 Z" id="Shape"></path>
            <path d="M30.9567686,59.2529174 C30.8205537,59.2529174 30.7042727,59.2230165 30.6140165,59.1875785 C30.1300661,58.9970992 29.8282893,58.7191322 28.2679091,54.506438 C26.5026529,49.7389174 22.762281,45.7870248 22.7246281,45.7477107 C22.4079008,45.4160331 22.4200826,44.89 22.7517603,44.5732727 C23.083438,44.2565455 23.6089174,44.2681736 23.9261983,44.600405 C24.0889917,44.7715041 27.9423223,48.8435537 29.8260744,53.9294628 C30.6854463,56.2495455 31.101843,57.1836694 31.3000744,57.5590909 C31.6738347,57.6399339 31.9545702,57.972719 31.9545702,58.370843 C31.9545702,58.7523554 31.6970909,59.0740661 31.3465868,59.1709669 C31.204281,59.2307686 31.0736033,59.2529174 30.9567686,59.2529174 Z" id="Shape"></path>
            <path d="M29.6466694,50.2040413 C29.2989339,50.2040413 28.9750083,49.9842149 28.8587273,49.6364793 C28.8094463,49.5451157 28.4379008,49.0434463 28.0813058,48.6076694 C27.791157,48.2521818 27.8432066,47.7294711 28.1986942,47.4387686 C28.5536281,47.1480661 29.0768926,47.2012231 29.3670413,47.5556033 C30.2934132,48.6885124 30.3997273,49.0057934 30.4346116,49.1104463 C30.579686,49.5456694 30.3449091,50.0157769 29.909686,50.161405 C29.8227521,50.1901983 29.7336033,50.2040413 29.6466694,50.2040413 Z" id="Shape"></path>
            <path d="M51.0573223,35.2530744 C48.4110992,35.2530744 46.2582397,33.1002149 46.2582397,30.4539917 C46.2582397,27.8077686 48.4110992,25.6549091 51.0573223,25.6549091 C53.7035455,25.6549091 55.856405,27.8077686 55.856405,30.4539917 C55.856405,33.1002149 53.7035455,35.2530744 51.0573223,35.2530744 Z M51.0573223,27.3160661 C49.3269504,27.3160661 47.9193967,28.7236198 47.9193967,30.4539917 C47.9193967,32.1843636 49.3269504,33.5919174 51.0573223,33.5919174 C52.7876942,33.5919174 54.1952479,32.1843636 54.1952479,30.4539917 C54.1952479,28.7236198 52.7876942,27.3160661 51.0573223,27.3160661 Z" id="Shape"></path>
            <circle id="Oval" cx="51.0346198" cy="30.5348347" r="1.4767686"></circle>
            <path d="M60.9788595,66.584157 C60.7440826,66.584157 60.5104132,66.4850413 60.3459587,66.2917934 C54.9178512,59.9123967 55.8569587,52.809843 56.685876,46.543405 C56.9317273,44.6818017 57.1642893,42.9231901 57.2412562,41.2138595 C57.2429174,41.1784215 57.2467934,41.1424298 57.2528843,41.1075455 C57.2855537,40.923157 60.3858264,22.5319339 51.2461405,10.9891074 C46.7466198,5.30684298 39.9912479,2.16780992 31.1682893,1.65949587 C30.7103636,1.63291736 30.3609669,1.24033058 30.3869917,0.782404959 C30.4130165,0.324479339 30.8111405,-0.0215950413 31.2640826,0.00110743802 C40.584281,0.538214876 47.7471901,3.89042975 52.5534711,9.96472727 C61.9943802,21.8968182 59.1277769,39.9962314 58.8979835,41.3423223 C58.8154793,43.1059174 58.5807025,44.8822479 58.3320826,46.7615702 C57.5103636,52.9742975 56.6609587,59.3985455 61.6106529,65.2159174 C61.908,65.565314 61.8653636,66.089686 61.5165207,66.3870331 C61.3603719,66.5193719 61.1687851,66.584157 60.9788595,66.584157 Z" id="Shape"></path>
            <path d="M53.363562,27.6853967 C53.2013223,27.6853967 53.0368678,27.6377769 52.8929008,27.5386612 C52.5152645,27.2778595 52.4200248,26.760686 52.6808264,26.3836033 L54.5269256,23.7074793 C54.7877273,23.3303967 55.3049008,23.2346033 55.6819835,23.495405 C56.0596198,23.7562066 56.1548595,24.2733802 55.8940579,24.6504628 L54.0479587,27.3265868 C53.8868264,27.5602562 53.6271322,27.6853967 53.363562,27.6853967 Z" id="Shape"></path>
            <path d="M40.5361074,40.2365455 C40.3810661,40.2365455 40.2243636,40.1933554 40.0842727,40.1025455 C39.6999917,39.8528182 39.5903554,39.3384132 39.8406364,38.9535785 L46.9,28.086843 C47.1497273,27.702562 47.664686,27.5929256 48.0489669,27.8432066 C48.4332479,28.0934876 48.5428843,28.6073388 48.2926033,28.9921736 L41.232686,39.8589091 C41.0743223,40.1036529 40.8074298,40.2365455 40.5361074,40.2365455 Z" id="Shape"></path>
            <path d="M37.3062645,46.2814959 L31.123438,46.2814959 C30.664405,46.2814959 30.2928595,45.9099504 30.2928595,45.4509174 C30.2928595,44.9918843 30.664405,44.6203388 31.123438,44.6203388 L37.3062645,44.6203388 C38.1689587,44.6203388 38.4784876,44.4309669 38.5405041,44.385562 C38.5897851,44.3152397 38.6501405,44.2526694 38.7193554,44.2006198 C39.5731901,43.5544298 40.0632314,42.6230744 40.0632314,41.6440992 C40.0632314,39.7741901 38.3090496,38.2525702 36.1528678,38.2525702 C33.9961322,38.2525702 32.2419504,39.7741901 32.2419504,41.6440992 C32.2419504,42.1031322 31.870405,42.4746777 31.4113719,42.4746777 C30.9523388,42.4746777 30.5807934,42.1031322 30.5807934,41.6440992 C30.5807934,38.8577851 33.0808347,36.5914132 36.1528678,36.5914132 C39.2249008,36.5914132 41.7243884,38.8577851 41.7243884,41.6440992 C41.7243884,43.1092397 41.0322397,44.4891074 39.8201488,45.4492562 C39.5460579,45.778719 38.8716281,46.2814959 37.3062645,46.2814959 Z" id="Shape"></path>
            <path d="M31.1965289,59.2529174 C31.0796942,59.2529174 30.9479091,59.2307686 30.8067107,59.1709669 C30.457314,59.0729587 30.2003884,58.7523554 30.2003884,58.3713967 C30.2003884,57.9732727 30.4805702,57.6404876 30.8548843,57.5596446 C31.052562,57.1842231 31.4695124,56.2500992 32.3288843,53.9300165 C34.2126364,48.8441074 38.0654132,44.7720579 38.2287603,44.6009587 C38.5454876,44.269281 39.0709669,44.2570992 39.4026446,44.5732727 C39.7343223,44.89 39.7470579,45.4154793 39.4303306,45.7477107 C39.3926777,45.7870248 35.647876,49.7505455 33.8864959,54.5069917 C32.3266694,58.7191322 32.0243388,58.9976529 31.5403884,59.1881322 C31.4495785,59.2230165 31.3327438,59.2529174 31.1965289,59.2529174 Z" id="Shape"></path>
            <path d="M32.5121653,50.228405 C32.4208017,50.228405 32.3277769,50.2140083 32.2358595,50.183 C31.8006364,50.0379256 31.574719,49.5451157 31.7197934,49.1098926 C31.7546777,49.0057934 31.860438,48.6885124 32.7873636,47.5550496 C33.0775124,47.2001157 33.6007769,47.1475124 33.9557107,47.4382149 C34.3111983,47.7283636 34.3632479,48.2516281 34.0730992,48.6071157 C33.7165041,49.0434463 33.3449587,49.544562 33.2779587,49.6802231 C33.1638926,50.0235289 32.8521488,50.228405 32.5121653,50.228405 Z" id="Shape"></path>
        </g>
    </g>
</svg>