<?xml version="1.0" encoding="UTF-8"?>
<svg width="65px" height="67px" viewBox="0 0 65 67" version="1.1" xmlns="http://www.w3.org/2000/svg" xmlns:xlink="http://www.w3.org/1999/xlink">
    <!-- Generator: Sketch 48.2 (47327) - http://www.bohemiancoding.com/sketch -->
    <title>pig-1@3x</title>
    <desc>Created with Sketch.</desc>
    <defs></defs>
    <g id="Artboard" stroke="none" stroke-width="1" fill="none" fill-rule="evenodd" transform="translate(-1215.000000, -2728.000000)">
        <g id="pig-1" transform="translate(1215.000000, 2728.000000)" fill="#AFAFAF" fill-rule="nonzero">
            <path d="M19.4158051,38.4063305 C17.6942458,38.4063305 16.2929237,37.0055763 16.2929237,35.2834492 C16.2929237,33.561322 17.6942458,32.1605678 19.4158051,32.1605678 C21.1373644,32.1605678 22.5386864,33.561322 22.5386864,35.2834492 C22.5386864,37.0055763 21.1379322,38.4063305 19.4158051,38.4063305 Z M19.4158051,33.8639576 C18.6328136,33.8639576 17.9963136,34.5010254 17.9963136,35.2834492 C17.9963136,36.0658729 18.6328136,36.7029407 19.4158051,36.7029407 C20.1987966,36.7029407 20.8352966,36.0658729 20.8352966,35.2834492 C20.8352966,34.5010254 20.1987966,33.8639576 19.4158051,33.8639576 Z" id="Shape"></path>
            <path d="M26.7261864,52.6012458 C25.1215932,52.6012458 23.8162288,51.2958814 23.8162288,49.6912881 C23.8162288,48.0866949 25.1215932,46.7813305 26.7261864,46.7813305 C28.3307797,46.7813305 29.6361441,48.0866949 29.6361441,49.6912881 C29.6361441,51.2958814 28.3307797,52.6012458 26.7261864,52.6012458 Z M26.7261864,48.4847203 C26.0607288,48.4847203 25.5196186,49.0258305 25.5196186,49.6912881 C25.5196186,50.3567458 26.0607288,50.8978559 26.7261864,50.8978559 C27.3916441,50.8978559 27.9327542,50.3567458 27.9327542,49.6912881 C27.9327542,49.0258305 27.3916441,48.4847203 26.7261864,48.4847203 Z" id="Shape"></path>
            <path d="M25.3640424,58.2019915 C23.5209746,58.2019915 21.9657797,57.1737119 21.2123136,56.3816356 C18.3080339,53.0588898 18.7758983,49.2268305 22.707322,43.9309915 C26.9544407,38.2093051 32.165678,38.4648136 32.3871186,38.4784407 C32.8561186,38.5079661 33.2132627,38.9122373 33.1837373,39.3818051 C33.1542119,39.8496695 32.7550508,40.2017034 32.2837797,40.1789915 C32.0918644,40.1687712 27.7419746,40.0069492 24.0745763,44.9462119 C19.7985,50.7070763 20.7768136,53.295661 22.4711186,55.2341186 C22.5375508,55.3022542 24.7752373,57.5632203 27.3189661,55.8666441 C28.2052966,55.2755678 28.8383898,54.8247373 29.3465678,54.4624831 C30.6678305,53.5210763 31.1623814,53.1684746 32.4047203,53.1684746 C32.8748559,53.1684746 33.2564153,53.5494661 33.2564153,54.0201695 C33.2564153,54.4908729 32.8748559,54.8718644 32.4047203,54.8718644 C31.7239322,54.8718644 31.6109407,54.9411356 30.3351017,55.8496102 C29.8439576,56.1993729 29.1716864,56.6785932 28.2637797,57.2838644 C27.2678644,57.9476186 26.2798983,58.2019915 25.3640424,58.2019915 Z" id="Shape"></path>
            <path d="M32.1912288,66.9381102 C24.3953814,66.9381102 17.3115508,64.5982203 12.2451017,60.3493983 C6.72157627,55.716178 3.80139831,49.1098644 3.80139831,41.2453136 C3.80139831,33.0860763 6.71476271,24.7570678 11.794839,18.394339 C17.2405763,11.5728305 24.4845254,7.81628814 32.1912288,7.81628814 C32.6613644,7.81628814 33.0429237,8.19727966 33.0429237,8.66798305 C33.0429237,9.13868644 32.6613644,9.51967797 32.1912288,9.51967797 C16.4643983,9.51967797 5.50478814,26.2395847 5.50478814,41.2453136 C5.50478814,57.8170254 18.9076271,65.2347203 32.1912288,65.2347203 C32.6613644,65.2347203 33.0429237,65.6157119 33.0429237,66.0864153 C33.0429237,66.5571186 32.6613644,66.9381102 32.1912288,66.9381102 Z" id="Shape"></path>
            <path d="M10.2600847,22.3660763 C10.0323983,22.3660763 9.80471186,22.2752288 9.63721186,22.0952373 C4.25563559,16.3269915 2.0435,8.48799153 2.07927119,4.81434746 C1.05269492,4.51852542 0.3015,3.57257627 0.3015,2.45458475 C0.3015,1.10095763 1.40302542,0 2.75665254,0 C3.89224576,0 4.85011864,0.774474576 5.12947458,1.82319492 C8.74804237,1.93618644 15.884678,4.87680508 21.3718644,10.7552034 C21.6926695,11.0987203 21.6739322,11.6381271 21.3304153,11.9589322 C20.9874661,12.2791695 20.4486271,12.2615678 20.1266864,11.9174831 C14.4197627,5.80344915 6.90781356,3.21770339 4.46572034,3.54986441 C4.18125424,3.58847458 3.90133051,3.48286441 3.71395763,3.27050847 C3.54191525,3.07632203 3.46866949,2.81627119 3.51238983,2.56360169 C3.51011864,2.53350847 3.50898305,2.49773729 3.50898305,2.45458475 C3.50898305,2.04066102 3.17171186,1.70338983 2.75665254,1.70338983 C2.34159322,1.70338983 2.00488983,2.04066102 2.00488983,2.45458475 C2.00488983,2.86907627 2.34216102,3.20634746 2.75665254,3.20634746 C2.80605085,3.20634746 2.84466102,3.20805085 2.87759322,3.21032203 C3.13083051,3.18136441 3.38122881,3.26255932 3.56462712,3.43573729 C3.76733051,3.62708475 3.8689661,3.90530508 3.82751695,4.18125424 C3.48797458,6.43313559 5.08745763,14.7218305 10.8829576,20.9329576 C11.2037627,21.2770424 11.1850254,21.8158814 10.8415085,22.1366864 C10.6774153,22.2899915 10.4690339,22.3660763 10.2600847,22.3660763 Z" id="Shape"></path>
            <path d="M18.2796441,13.7781525 C18.0780763,13.7781525 17.8748051,13.7066102 17.7124153,13.5612542 C10.482661,7.09745763 3.36533051,7.73452542 3.29662712,7.74077119 C2.82819492,7.79244068 2.41086441,7.44722034 2.36316949,6.97935593 C2.31547458,6.51149153 2.65672034,6.09359322 3.12458475,6.0464661 C3.44595763,6.0135339 11.0623814,5.33104237 18.8480085,12.291661 C19.198339,12.6050847 19.2284322,13.1433559 18.9150085,13.4942542 C18.7475085,13.6821949 18.5135763,13.7781525 18.2796441,13.7781525 Z" id="Shape"></path>
            <path d="M45.2505508,38.4063305 C43.5289915,38.4063305 42.1276695,37.0055763 42.1276695,35.2834492 C42.1276695,33.561322 43.5289915,32.1605678 45.2505508,32.1605678 C46.9721102,32.1605678 48.3734322,33.561322 48.3734322,35.2834492 C48.3734322,37.0055763 46.972678,38.4063305 45.2505508,38.4063305 Z M45.2505508,33.8639576 C44.4675593,33.8639576 43.8310593,34.5010254 43.8310593,35.2834492 C43.8310593,36.0658729 44.4675593,36.7029407 45.2505508,36.7029407 C46.0335424,36.7029407 46.6700424,36.0658729 46.6700424,35.2834492 C46.6700424,34.5010254 46.0335424,33.8639576 45.2505508,33.8639576 Z" id="Shape"></path>
            <path d="M37.9401695,52.6012458 C36.3355763,52.6012458 35.0302119,51.2958814 35.0302119,49.6912881 C35.0302119,48.0866949 36.3355763,46.7813305 37.9401695,46.7813305 C39.5447627,46.7813305 40.8501271,48.0866949 40.8501271,49.6912881 C40.8501271,51.2958814 39.5447627,52.6012458 37.9401695,52.6012458 Z M37.9401695,48.4847203 C37.2747119,48.4847203 36.7336017,49.0258305 36.7336017,49.6912881 C36.7336017,50.3567458 37.2747119,50.8978559 37.9401695,50.8978559 C38.6056271,50.8978559 39.1467373,50.3567458 39.1467373,49.6912881 C39.1467373,49.0258305 38.6056271,48.4847203 37.9401695,48.4847203 Z" id="Shape"></path>
            <path d="M39.298339,58.2008559 C38.3824831,58.2008559 37.3967881,57.9464831 36.4031441,57.2838644 C35.4946695,56.6785932 34.8229661,56.1993729 34.331822,55.8496102 C33.0565508,54.9405678 32.9435593,54.8718644 32.2622034,54.8718644 C31.7920678,54.8718644 31.4105085,54.4908729 31.4105085,54.0201695 C31.4105085,53.5494661 31.7920678,53.1684746 32.2622034,53.1684746 C33.5045424,53.1684746 33.9990932,53.5210763 35.3203559,54.4624831 C35.8291017,54.8247373 36.4621949,55.2761356 37.3479576,55.8666441 C39.9189407,57.5796864 42.1276695,55.3050932 42.2202203,55.2074322 C43.8901102,53.2950932 44.8689915,50.7065085 40.5923475,44.9462119 C36.8880424,39.9552797 32.4325424,40.1738814 32.3865508,40.1784237 C31.9078983,40.2051102 31.5127119,39.8508051 31.4831864,39.3818051 C31.453661,38.9122373 31.8108051,38.5079661 32.2798051,38.4784407 C32.500678,38.4631102 37.7119153,38.2087373 41.9596017,43.9309915 C45.8915932,49.2262627 46.3594576,53.0577542 43.4790254,56.3549492 C42.7085254,57.1657627 41.1453814,58.2008559 39.298339,58.2008559 Z" id="Shape"></path>
            <path d="M32.4751271,66.9381102 C32.0049915,66.9381102 31.6234322,66.5571186 31.6234322,66.0864153 C31.6234322,65.6157119 32.0049915,65.2347203 32.4751271,65.2347203 C45.7587288,65.2347203 59.1615678,57.8170254 59.1615678,41.2453136 C59.1615678,26.2395847 48.2019576,9.51967797 32.4751271,9.51967797 C32.0049915,9.51967797 31.6234322,9.13868644 31.6234322,8.66798305 C31.6234322,8.19727966 32.0049915,7.81628814 32.4751271,7.81628814 C40.1818305,7.81628814 47.4257797,11.5728305 52.8715169,18.394339 C57.9515932,24.7570678 60.8649576,33.0860763 60.8649576,41.2453136 C60.8649576,49.1104322 57.9447797,55.716178 52.421822,60.3493983 C47.3553729,64.5982203 40.2721102,66.9381102 32.4751271,66.9381102 Z" id="Shape"></path>
            <path d="M54.4062712,22.3660763 C54.1978898,22.3660763 53.9895085,22.2905593 53.8254153,22.1372542 C53.4818983,21.8164492 53.4625932,21.2770424 53.7839661,20.9335254 C59.5817373,14.7212627 61.1800847,6.43313559 60.8394068,4.18238983 C60.7973898,3.90473729 60.8956186,3.62367797 61.1005932,3.43233051 C61.2879661,3.25744915 61.542339,3.17795763 61.7944407,3.21088983 C61.8268051,3.20861864 61.8637119,3.20691525 61.9102712,3.20691525 C62.3247627,3.20691525 62.6620339,2.86964407 62.6620339,2.45515254 C62.6620339,2.04122881 62.3247627,1.70395763 61.9102712,1.70395763 C61.4963475,1.70395763 61.1596441,2.04122881 61.1596441,2.45515254 C61.1596441,2.50682203 61.1579407,2.54770339 61.1551017,2.58120339 C61.1851949,2.82649153 61.1102458,3.082 60.9438814,3.2659661 C60.7548051,3.47377966 60.4720424,3.58677119 60.2012034,3.54986441 C57.7716017,3.21883898 50.2494322,5.80231356 44.5419407,11.9174831 C44.2205678,12.2615678 43.6817288,12.2797373 43.3382119,11.9589322 C42.9946949,11.6381271 42.9753898,11.0987203 43.2967627,10.7552034 C48.7845169,4.87623729 55.9211525,1.93505085 59.5385847,1.82319492 C59.8190763,0.773338983 60.7758136,0 61.9097034,0 C63.2638983,0 64.3648559,1.10095763 64.3648559,2.45458475 C64.3648559,3.57314407 63.6125254,4.51966102 62.5870847,4.81434746 C62.6239915,8.48799153 60.4124237,16.3264237 55.0285763,22.0952373 C54.8610763,22.274661 54.6345254,22.3660763 54.4062712,22.3660763 Z" id="Shape"></path>
            <path d="M46.3867119,13.7781525 C46.1527797,13.7781525 45.9194153,13.6821949 45.7513475,13.4942542 C45.4379237,13.1433559 45.4680169,12.6050847 45.8183475,12.291661 C53.6034068,5.33161017 61.2203983,6.01466949 61.5434746,6.04589831 C62.011339,6.09302542 62.3525847,6.51092373 62.3048898,6.97878814 C62.2571949,7.44608475 61.8324831,7.78619492 61.3731356,7.74077119 C61.2590085,7.73055085 54.1297542,7.14515254 46.9539407,13.5606864 C46.7915508,13.7066102 46.5888475,13.7781525 46.3867119,13.7781525 Z" id="Shape"></path>
        </g>
    </g>
</svg>