<?xml version="1.0" encoding="UTF-8"?>
<svg width="75px" height="67px" viewBox="0 0 75 67" version="1.1" xmlns="http://www.w3.org/2000/svg" xmlns:xlink="http://www.w3.org/1999/xlink">
    <!-- Generator: Sketch 48.2 (47327) - http://www.bohemiancoding.com/sketch -->
    <title>racoon@3x</title>
    <desc>Created with Sketch.</desc>
    <defs></defs>
    <g id="Artboard" stroke="none" stroke-width="1" fill="none" fill-rule="evenodd" transform="translate(-2235.000000, -2499.000000)">
        <g id="racoon" transform="translate(2235.000000, 2499.000000)" fill="#AFAFAF" fill-rule="nonzero">
            <g id="Group">
                <path d="M37.0419459,66.8159009 C33.2965856,66.8159009 30.7234234,65.1813423 30.6153784,65.1119279 C15.2144324,55.7114054 2.40656757,43.9815766 1.12753153,42.643991 C-0.134603604,41.3239099 -0.0205225225,39.6211441 0.0241441441,39.2348378 C0.0657927928,38.0801441 1.16012613,36.476973 1.49935135,36.0061622 L13.5756486,20.4923423 C12.3901712,17.4984685 7.39233333,4.86927027 7.17684685,4.15037838 C6.85935135,3.09165766 7.02292793,1.57540541 8.13235135,0.749675676 C9.27557658,-0.102009009 10.7513874,0.223936937 11.4431171,0.550486486 L27.773009,7.68206306 C32.8251712,5.72397297 36.917,5.70103604 37.0926486,5.70103604 C37.5924324,5.70103604 37.9974505,6.10545045 37.9974505,6.60583784 C37.9980541,7.10562162 37.5936396,7.51124324 37.0932523,7.51184685 C37.0528108,7.51184685 32.9646036,7.54323423 28.0929189,9.50253153 C27.8677748,9.59307207 27.6154685,9.58945045 27.3927387,9.49227027 L10.6934414,2.19892793 C10.6656757,2.18685586 9.76027027,1.79330631 9.21400901,2.20194595 C8.8446036,2.47718919 8.76915315,3.15745045 8.911,3.63007207 C9.0957027,4.22401802 12.9225495,13.9287568 15.4498378,20.3064324 C15.5681441,20.6046126 15.5198559,20.9432342 15.3224775,21.1961441 L2.9486036,37.0914414 C2.43191892,37.8103333 1.83374775,38.9125135 1.83374775,39.3018378 C1.83374775,39.3507297 1.83012613,39.399018 1.82167568,39.4467027 C1.82167568,39.4503243 1.66775676,40.5887207 2.43614414,41.3921171 C3.69526126,42.7085766 16.319027,54.2645676 31.5781261,63.5781712 C31.6173604,63.6035225 33.8537117,65.0044865 37.0419459,65.0044865 C37.5423333,65.0044865 37.9473514,65.4095045 37.9473514,65.9098919 C37.9473514,66.4102793 37.5423333,66.8159009 37.0419459,66.8159009 Z" id="Shape"></path>
                <path d="M18.051973,17.8932252 C18.0030811,17.8932252 17.9541892,17.8896036 17.9052973,17.8811532 C17.6040991,17.8316577 17.3487748,17.6342793 17.225036,17.3554144 C16.513991,15.7552613 14.1840811,10.5093423 14.0687928,10.1773604 C13.8563243,9.56228829 13.9263423,8.65869369 14.5812523,8.12631532 C15.205982,7.61928829 16.0220541,7.69111712 16.5308919,7.906 L23.8375135,10.7447477 C24.1278468,10.8576216 24.3397117,11.1117387 24.3988649,11.4171622 C24.4574144,11.7231892 24.3554054,12.0376667 24.1272432,12.2501351 C24.0928378,12.2821261 20.6698018,15.480018 18.7177477,17.6004775 C18.5451171,17.7888018 18.3030721,17.8932252 18.051973,17.8932252 Z M15.7745766,9.56289189 C15.7757838,9.57134234 15.7775946,9.57858559 15.780009,9.58522523 C15.8808108,9.85081081 17.2075315,12.8543423 18.3284234,15.3798198 C19.5283874,14.143036 20.9184865,12.7994144 21.8474324,11.9139279 L15.8506306,9.58401802 C15.8276937,9.57556757 15.8011351,9.56832432 15.7745766,9.56289189 Z" id="Shape"></path>
                <path d="M26.0768829,40.6098468 C23.9690991,40.6098468 22.2542613,38.895009 22.2542613,36.7866216 C22.2542613,34.6788378 23.9690991,32.964 26.0768829,32.964 C28.1846667,32.964 29.8995045,34.6788378 29.8995045,36.7866216 C29.8995045,38.895009 28.1852703,40.6098468 26.0768829,40.6098468 Z M26.0768829,34.7748108 C24.9674595,34.7748108 24.0650721,35.6771982 24.0650721,36.7866216 C24.0650721,37.896045 24.9674595,38.799036 26.0768829,38.799036 C27.1863063,38.799036 28.0886937,37.896045 28.0886937,36.7866216 C28.0886937,35.6771982 27.1863063,34.7748108 26.0768829,34.7748108 Z" id="Shape"></path>
                <path d="M33.7215225,52.2799189 C33.3068468,52.2799189 32.9332162,51.9932072 32.8390541,51.5724955 C32.8293964,51.5314505 32.0266036,48.1132432 29.0212613,44.7324595 C28.6892793,44.3588288 28.7224775,43.7866126 29.0967117,43.454027 C29.4697387,43.122045 30.041955,43.1552432 30.3751441,43.5294775 C33.7118649,47.2838919 34.5713964,51.0208018 34.6064054,51.1777387 C34.7150541,51.6660541 34.4072162,52.1495405 33.9189009,52.2581892 C33.8525045,52.2726757 33.7867117,52.2799189 33.7215225,52.2799189 Z" id="Shape"></path>
                <path d="M18.9084865,56.0264865 C18.689982,56.0264865 18.4708739,55.948018 18.297036,55.7886667 C17.9288378,55.4506486 17.9034865,54.8778288 18.2415045,54.509027 C18.3573964,54.3828739 29.8548378,41.836973 31.2521802,40.0726396 C32.4068739,38.6137297 32.2070811,37.0588468 32.198027,36.9930541 C32.1443063,36.5125856 30.9805586,25.954955 30.9805586,24.4881982 C30.9805586,24.3403153 30.9805586,23.947973 30.4536126,23.9087387 C30.4204144,23.9063243 30.3679009,23.9008919 30.3347027,23.8948559 C20.6824775,22.0804234 7.12252252,31.691 6.98671171,31.7881802 C6.58109009,32.0803243 6.01551351,31.9867658 5.72336937,31.5799369 C5.43243243,31.1737117 5.52538739,30.6081351 5.93161261,30.3165946 C6.51046847,29.9013153 20.1965766,20.1887297 30.6123604,22.103964 C31.5165586,22.1703604 32.791973,22.8427748 32.791973,24.4881982 C32.791973,25.6235766 33.6593514,33.7335946 33.9937477,36.7624775 C34.0034054,36.8204234 34.3317658,39.1002342 32.6724595,41.1965495 C31.2352793,43.0121892 20.0523153,55.214036 19.5772793,55.7331351 C19.3974054,55.9274955 19.1535495,56.0264865 18.9084865,56.0264865 Z" id="Shape"></path>
                <path d="M4.24574775,45.1368739 C4.04776577,45.1368739 3.84918018,45.0728919 3.68258559,44.9400991 C3.29145045,44.6286396 3.22686486,44.0588378 3.53772072,43.6677027 C11.6127297,33.5211261 21.9995405,28.0053964 27.3734234,28.542 C32.2843423,29.0279009 33.3509099,31.3578108 33.4565405,31.6215856 C33.6418468,32.0863604 33.4160991,32.6127027 32.9519279,32.7986126 C32.4937928,32.9815045 31.9777117,32.7654144 31.7845586,32.3163333 C31.7471351,32.2432973 30.912955,30.711955 27.1953604,30.3443604 C22.3967117,29.8705315 12.5440901,35.2607117 4.95498198,44.7952342 C4.77631532,45.0197748 4.51254054,45.1368739 4.24574775,45.1368739 Z" id="Shape"></path>
                <path d="M37.2224234,66.8159009 C36.722036,66.8159009 36.317018,66.4108829 36.317018,65.9104955 C36.317018,65.4101081 36.722036,65.0050901 37.2224234,65.0050901 C40.4106577,65.0050901 42.6464054,63.6035225 42.6687387,63.5896396 C57.9453423,54.2645676 70.5691081,42.7091802 71.8282252,41.3927207 C72.5966126,40.5887207 72.4426937,39.4509279 72.4414865,39.4394595 C72.4354505,39.3966036 72.4306216,39.3452973 72.4306216,39.3018378 C72.4306216,38.9107027 71.8324505,37.8091261 71.2958468,37.0648829 L58.9418919,21.1961441 C58.7445135,20.9432342 58.6962252,20.6046126 58.8145315,20.3064324 C61.3418198,13.9287568 65.1686667,4.22341441 65.3533694,3.62826126 C65.4946126,3.15684685 65.4191622,2.47658559 65.0503604,2.20194595 C64.4974595,1.79028829 63.6041261,2.18323423 63.5944685,2.18806306 L46.8722342,9.49227027 C46.6495045,9.58945045 46.3971982,9.59307207 46.1720541,9.50253153 C41.300973,7.54323423 37.2127658,7.51184685 37.1717207,7.51184685 C36.6719369,7.51063964 36.2669189,7.10501802 36.2675225,6.60583784 C36.2675225,6.10605405 36.6725405,5.70103604 37.1723243,5.70103604 C37.347973,5.70103604 41.4398018,5.72397297 46.491964,7.68206306 L62.846,0.539621622 C63.5135856,0.223936937 64.9893964,-0.102009009 66.1326216,0.750279279 C67.2414414,1.57600901 67.405018,3.09165766 67.0875225,4.15098198 C66.872036,4.86987387 61.8741982,17.4990721 60.6887207,20.4929459 L72.7444955,35.9796036 C73.1036396,36.476973 74.197973,38.0801441 74.2402252,39.2348378 C74.2848919,39.6211441 74.398973,41.3239099 73.1368378,42.643991 C71.8578018,43.9821802 59.0505405,55.7114054 43.6290721,65.1246036 C43.5409459,65.1819459 40.9677838,66.8159009 37.2224234,66.8159009 Z" id="Shape"></path>
                <path d="M56.2123964,17.8932252 C55.9612973,17.8932252 55.7192523,17.7888018 55.546018,17.6010811 C53.5933604,15.480018 50.1709279,12.2827297 50.1365225,12.2507387 C49.908964,12.0382703 49.8063514,11.7231892 49.8649009,11.4177658 C49.9240541,11.1123423 50.1359189,10.8576216 50.4262523,10.7453514 L57.7576216,7.89694595 C58.2423153,7.69232432 59.058991,7.6204955 59.6819099,8.12571171 C60.338027,8.6592973 60.408045,9.56289189 60.1961802,10.1767568 C60.0808919,10.5093423 57.750982,15.7558649 57.0399369,17.356018 C56.9161982,17.6342793 56.6602703,17.8322613 56.3596757,17.8817568 C56.3101802,17.8896036 56.2612883,17.8932252 56.2123964,17.8932252 Z M52.4175405,11.9139279 C53.3464865,12.7994144 54.7365856,14.143036 55.9365495,15.3798198 C57.0568378,12.8537387 58.3847658,9.849 58.4891892,9.57375676 C58.4903964,9.57013514 58.4916036,9.56530631 58.4922072,9.55987387 C58.4692703,9.56651351 58.4427117,9.57254955 58.4221892,9.581 L52.4175405,11.9139279 Z" id="Shape"></path>
                <path d="M48.1874865,40.6098468 C46.0797027,40.6098468 44.3648649,38.895009 44.3648649,36.7866216 C44.3648649,34.6788378 46.0797027,32.964 48.1874865,32.964 C50.2952703,32.964 52.0101081,34.6788378 52.0101081,36.7866216 C52.0101081,38.895009 50.2952703,40.6098468 48.1874865,40.6098468 Z M48.1874865,34.7748108 C47.0780631,34.7748108 46.1756757,35.6771982 46.1756757,36.7866216 C46.1756757,37.896045 47.0780631,38.799036 48.1874865,38.799036 C49.2969099,38.799036 50.1992973,37.896045 50.1992973,36.7866216 C50.1992973,35.6771982 49.2969099,34.7748108 48.1874865,34.7748108 Z" id="Shape"></path>
                <path d="M40.5428468,52.2787117 C40.4776577,52.2787117 40.4106577,52.2714685 40.3442613,52.2563784 C39.8571532,52.1471261 39.5505225,51.6648468 39.6585676,51.1771351 C39.6935766,51.0201982 40.5531081,47.2832883 43.8898288,43.5288739 C44.2218108,43.1546396 44.794027,43.1214414 45.1682613,43.4534234 C45.5418919,43.7854054 45.5756937,44.3582252 45.2437117,44.7318559 C42.235955,48.1156577 41.4337658,51.5374865 41.4259189,51.5718919 C41.3305495,51.9926036 40.9569189,52.2787117 40.5428468,52.2787117 Z" id="Shape"></path>
                <path d="M55.3564865,56.0264865 C55.1114234,56.0264865 54.866964,55.9274955 54.6889009,55.7331351 C54.2138649,55.2146396 43.0309009,43.0121892 41.5937207,41.1965495 C39.9344144,39.1002342 40.2621712,36.8204234 40.2772613,36.7244505 C40.6062252,33.7335946 41.4736036,25.622973 41.4736036,24.4881982 C41.4736036,22.8427748 42.749018,22.1703604 43.6532162,22.103964 C54.0714144,20.1911441 67.7551081,29.9019189 68.333964,30.3165946 C68.7401892,30.6081351 68.8331441,31.1731081 68.5416036,31.5799369 C68.2506667,31.9867658 67.6856937,32.0803243 67.2782613,31.7881802 C67.1424505,31.691 53.5891351,22.0798198 43.9296667,23.8942523 C43.885,23.9027027 43.8403333,23.9075315 43.7950631,23.9093423 C43.2844144,23.947973 43.2844144,24.3403153 43.2844144,24.4881982 C43.2844144,25.954955 42.1212703,36.5125856 42.0717748,36.9616667 C42.0590991,37.0588468 41.8587027,38.6143333 43.014,40.0726396 C44.4107387,41.8375766 55.9081802,54.3828739 56.0246757,54.509027 C56.3626937,54.8778288 56.3373423,55.4506486 55.9691441,55.7886667 C55.7940991,55.948018 55.5743874,56.0264865 55.3564865,56.0264865 Z" id="Shape"></path>
                <path d="M70.0186216,45.1368739 C69.7524324,45.1368739 69.4886577,45.0197748 69.3093874,44.7952342 C61.7202793,35.2601081 51.8513604,29.8753604 47.0696126,30.3443604 C43.2801892,30.7191982 42.4864505,32.3030541 42.4792072,32.3187477 C42.2691532,32.7605856 41.7403964,32.9706396 41.2931261,32.7738649 C40.8446486,32.5782973 40.6267477,32.0760991 40.8084324,31.6215856 C40.9140631,31.3572072 41.9806306,29.0279009 46.8921532,28.542 C52.2714685,28.0078108 62.6522432,33.5217297 70.7272523,43.6677027 C71.0387117,44.0588378 70.9741261,44.6286396 70.5823874,44.9400991 C70.4151892,45.0728919 70.216,45.1368739 70.0186216,45.1368739 Z" id="Shape"></path>
            </g>
            <path d="M37.1548198,60.5915405 C34.8387928,60.5915405 31.9427027,59.837036 30.6932432,58.149964 C30.1391351,57.4020991 29.9821982,56.5588649 30.2405405,55.7126126 C31.719973,50.8566216 35.4393784,50.859036 37.0377207,50.8584324 C38.6837477,50.8584324 42.4393694,50.8584324 43.9429459,55.7083874 C44.2091351,56.5679189 44.0552162,57.4226216 43.4962793,58.1807477 C42.4327297,59.6227568 39.8849189,60.5915405 37.1548198,60.5915405 Z M37.0328919,52.6692432 C35.407991,52.6692432 33.0503153,52.7024414 31.9728829,56.2407658 C31.9131261,56.4369369 31.8793243,56.7085586 32.1491351,57.0725315 C32.8704414,58.0461441 35.0228919,58.7807297 37.1554234,58.7807297 C39.236045,58.7807297 41.3353784,58.0612342 42.0385766,57.1069369 C42.2534595,56.8147928 42.3071802,56.5492072 42.2136216,56.244991 C41.1905135,52.9456937 39.0271982,52.6692432 37.079973,52.6692432 C37.0636757,52.6692432 37.0485856,52.6692432 37.0328919,52.6692432 Z" id="Shape"></path>
        </g>
    </g>
</svg>