<?xml version="1.0" encoding="UTF-8"?>
<svg width="64px" height="67px" viewBox="0 0 64 67" version="1.1" xmlns="http://www.w3.org/2000/svg" xmlns:xlink="http://www.w3.org/1999/xlink">
    <!-- Generator: Sketch 48.2 (47327) - http://www.bohemiancoding.com/sketch -->
    <title>rat@3x</title>
    <desc>Created with Sketch.</desc>
    <defs></defs>
    <g id="Artboard" stroke="none" stroke-width="1" fill="none" fill-rule="evenodd" transform="translate(-2119.000000, -2728.000000)">
        <g id="rat" transform="translate(2119.000000, 2728.000000)" fill="#AFAFAF" fill-rule="nonzero">
            <path d="M13.5186565,24.5393893 C13.4900153,24.5393893 13.4623969,24.5388779 13.4358015,24.5368321 C12.9361145,24.5056336 12.6092977,24.2110382 12.4885954,24.0816412 C11.2989618,22.9221832 11.1225115,21.1321069 11.6089008,19.8667786 C11.3833511,19.8821221 11.1567786,19.8897939 10.9307176,19.8897939 C5.44694656,19.8897939 0.986076336,15.4284122 0.986076336,9.94464122 C0.986076336,4.46138168 5.44745802,0 10.9307176,0 C16.4139771,0 20.8753588,4.46138168 20.8753588,9.94464122 C20.8753588,10.6228244 20.7740916,11.2554885 20.6764046,11.8671832 L20.6385573,12.1055191 C19.5460992,19.0591985 14.8279695,23.8468855 14.6274809,24.0478855 C14.2060458,24.4473282 13.8050687,24.5393893 13.5186565,24.5393893 Z M12.5724733,18.2107023 C12.8496794,18.2107023 13.1135878,18.3303817 13.2874809,18.5482595 C13.7421603,19.115458 13.3176565,19.883145 13.1366031,20.2109847 C12.7376718,20.9321298 12.8092748,22.228145 13.5401374,22.9636107 C13.5457634,22.9590076 13.5508779,22.9533817 13.5570153,22.9482672 C13.5871908,22.9175802 18.1094351,18.3140153 19.1226183,11.8671832 L19.1614885,11.6242443 C19.2540611,11.0463053 19.3415191,10.5005878 19.3415191,9.94412977 C19.3415191,5.30732061 15.5685496,1.53435115 10.9307176,1.53435115 C6.2928855,1.53435115 2.52042748,5.30732061 2.52042748,9.94464122 C2.52042748,14.5824733 6.29339695,18.3554427 10.9307176,18.3554427 C11.4084122,18.3554427 11.8866183,18.3150382 12.3525496,18.2357634 C12.425687,18.2193969 12.4993359,18.2107023 12.5724733,18.2107023 Z" id="Shape"></path>
            <path d="M1.93737405,9.24855725 C1.809,9.24855725 1.67858015,9.21633588 1.55890076,9.14780153 C1.19065649,8.93861832 1.06177099,8.47012977 1.27146565,8.1018855 C1.49138931,7.71471756 3.49576336,4.33965649 6.04585496,5.05722137 C6.33073282,5.13751908 6.62072519,5.2280458 6.91480916,5.32061832 C8.67419847,5.87349618 10.3359008,6.39517557 12.0584656,4.9518626 C15.8713282,1.75683206 18.296626,3.47837405 19.4028931,4.78973282 C19.6760076,5.11348092 19.6350916,5.59782443 19.3113435,5.87093893 C18.9875954,6.14405344 18.5032519,6.10262595 18.2301374,5.77938931 C17.3826641,4.77438931 15.9229847,3.71670992 13.0440305,6.12870992 C10.6775496,8.1110916 8.33612977,7.37562595 6.45501527,6.78490076 C6.17627481,6.69744275 5.9011145,6.61100763 5.63055725,6.53480153 C4.43734351,6.20031298 3.00937405,8.14996183 2.60532824,8.86036641 C2.46365649,9.10944275 2.20435115,9.24855725 1.93737405,9.24855725 Z" id="Shape"></path>
            <path d="M27.2551908,58.1774809 C26.9508779,58.1774809 26.6629313,57.9954046 26.5427405,57.6956947 C23.9563359,51.2503969 21.9642366,48.899771 21.9442901,48.8767557 C21.9330382,48.863458 21.9207634,48.8481145 21.9100229,48.8343053 C21.022145,47.6502977 20.0012901,46.7470763 18.920084,45.7911756 C16.8538244,43.9637634 14.5118931,41.8923893 12.6103206,37.3548015 C9.70477099,30.4220916 12.5540611,23.6167328 12.6762977,23.3308321 C12.8430305,22.9416183 13.2936183,22.7610763 13.6828321,22.9278092 C14.0720458,23.0940305 14.2530992,23.5446183 14.0873893,23.9343435 C14.059771,23.9987863 11.3777252,30.4425496 14.0255038,36.7620305 C15.791542,40.9758702 17.8987176,42.8395954 19.9368473,44.6419466 C21.0727786,45.6464351 22.1452901,46.5951756 23.1231832,47.8942595 C23.362542,48.1776031 25.3766336,50.6688779 27.9671298,57.1244046 C28.1251679,57.5177099 27.9343969,57.9642061 27.5410916,58.1222443 C27.4469847,58.1600916 27.3503206,58.1774809 27.2551908,58.1774809 Z" id="Shape"></path>
            <path d="M22.1821145,37.5916031 C20.9602595,37.5916031 19.966,36.5973435 19.966,35.3754885 C19.966,34.1536336 20.9602595,33.159374 22.1821145,33.159374 C23.4044809,33.159374 24.3987405,34.1531221 24.3987405,35.3754885 C24.3987405,36.5973435 23.4044809,37.5916031 22.1821145,37.5916031 Z M22.1821145,34.6937252 C21.8061985,34.6937252 21.5003511,34.9995725 21.5003511,35.3754885 C21.5003511,35.7514046 21.8061985,36.0572519 22.1821145,36.0572519 C22.5580305,36.0572519 22.8643893,35.7514046 22.8643893,35.3754885 C22.8643893,34.9995725 22.558542,34.6937252 22.1821145,34.6937252 Z" id="Shape"></path>
            <path d="M24.3787939,39.040542 C24.2995191,39.040542 24.2192214,39.0282672 24.140458,39.0021832 C23.7374351,38.8707405 23.5180229,38.437542 23.6494656,38.0345191 C24.2008092,36.3472443 22.7615878,34.736687 22.7467557,34.7208321 C21.1198321,32.937916 18.899626,33.7976641 18.8771221,33.8063588 C18.4838168,33.9638855 18.0373206,33.7726031 17.8797939,33.3792977 C17.7222672,32.9859924 17.9135496,32.5394962 18.306855,32.3819695 C18.4377863,32.3292901 21.5443359,31.1273817 23.8791069,33.685145 C23.9609389,33.7741374 25.9407634,35.9600763 25.1076107,38.5106794 C25.0022519,38.8354504 24.7015191,39.040542 24.3787939,39.040542 Z" id="Shape"></path>
            <path d="M31.8152824,62.681313 C28.3721985,62.681313 26.6711145,61.2824962 26.6153664,58.4055878 C26.5928626,57.2231145 27.1948397,56.0754198 28.268374,55.2565878 C28.2888321,55.2412443 29.3802672,54.4080916 29.3644122,53.0941756 C29.3449771,51.4938473 28.9240534,50.3088168 28.9199618,50.2970534 C28.7762443,49.8986336 28.9828702,49.4587863 29.3812901,49.3150687 C29.7791985,49.1718626 30.2195573,49.3779771 30.3632748,49.7763969 C30.3842443,49.8347023 30.8757481,51.2191985 30.8987634,53.0747405 C30.9248473,55.1941908 29.2570076,56.434458 29.185916,56.4861145 C28.5087557,57.0026794 28.1364198,57.6772824 28.1497176,58.3754122 C28.1829618,60.0862137 28.8079542,61.1464504 31.8152824,61.1464504 C32.2392748,61.1464504 32.582458,61.4896336 32.582458,61.913626 C32.582458,62.3376183 32.2392748,62.681313 31.8152824,62.681313 Z" id="Shape"></path>
            <path d="M30.0686794,59.7542824 C30.0282748,59.7542824 29.9873588,59.7512137 29.9464427,59.7445649 C29.5321679,59.6785878 29.2493359,59.2924427 29.3081527,58.8791908 C29.3316794,58.6674504 29.3081527,57.970855 28.0653282,57.7263817 C27.6500305,57.6445496 27.3789618,57.2410153 27.4607939,56.8252061 C27.542626,56.4099084 27.9461603,56.1383282 28.3619695,56.2206718 C30.6051908,56.6625649 30.954,58.3027863 30.8251145,59.1083206 C30.7652748,59.485771 30.4389695,59.7542824 30.0686794,59.7542824 Z" id="Shape"></path>
            <path d="M31.7938015,27.0853893 C31.7938015,27.0853893 31.7938015,27.0853893 31.7938015,27.0853893 C31.3698092,27.0853893 31.026626,26.7416947 31.026626,26.3182137 C31.026626,19.4964885 26.3483893,12.477855 25.5873511,11.3818168 C24.0601603,11.6002061 22.3017939,12.2088321 20.398687,13.5053588 C20.048855,13.7436947 19.5716718,13.6536794 19.3328244,13.3033359 C19.0944885,12.9529924 19.1845038,12.4758092 19.5348473,12.2374733 C26.5759847,7.43853435 32.0173053,11.0161298 32.2454122,11.1710992 C32.4566412,11.3137939 32.582458,11.5526412 32.582458,11.8073435 L32.5609771,26.3166794 C32.5609771,26.3171908 32.5609771,26.3182137 32.5609771,26.3187252 L32.5609771,26.3197481 C32.5604656,26.7427176 32.2172824,27.0853893 31.7938015,27.0853893 Z M27.3774275,11.2912901 C28.2607023,12.6507252 29.851313,15.3220305 31.0383893,18.5651374 L31.0475954,12.2446336 C30.464542,11.9341832 29.1680153,11.3680076 27.3774275,11.2912901 Z" id="Shape"></path>
            <path d="M25.5085878,54.1283282 C25.269229,54.1283282 25.0334504,54.0168321 24.8835954,53.8076489 C24.506145,53.280855 15.4816031,40.9564351 1.46683969,45.817771 C1.0658626,45.956374 0.629083969,45.7446336 0.490480916,45.3446794 C0.351877863,44.9442137 0.563618321,44.5074351 0.963572519,44.3683206 C16.0774427,39.1249313 26.0333359,52.7775878 26.1320458,52.9156794 C26.3780534,53.2603969 26.2977557,53.7386031 25.9530382,53.9851221 C25.8185267,54.0817863 25.6625344,54.1283282 25.5085878,54.1283282 Z" id="Shape"></path>
            <path d="M26.5304656,56.7709924 C26.3432748,56.7709924 26.1555725,56.7029695 26.0077634,56.5653893 C25.9760534,56.5362366 22.8326794,53.6398931 18.2536641,51.909145 C12.2113893,49.6255191 6.6340229,50.3497328 1.675,54.0613282 C1.33641985,54.3150076 0.855145038,54.2459618 0.600954198,53.9068702 C0.346763359,53.5677786 0.416320611,53.0865038 0.755412214,52.8328244 C13.6495878,43.1822672 26.9212137,55.3194962 27.0536794,55.4432672 C27.3631069,55.7322366 27.3799847,56.2170916 27.0910153,56.5270305 C26.9406489,56.6886489 26.7355573,56.7709924 26.5304656,56.7709924 Z" id="Shape"></path>
            <path d="M4.11206107,66.7442748 C4.01079389,66.7442748 3.90850382,66.7243282 3.80979389,66.6818779 C3.42058015,66.5146336 3.24054962,66.0635344 3.40728244,65.6743206 C5.6239084,60.511229 8.87366412,57.1888473 13.0660229,55.7997481 C20.2242824,53.4286641 27.4628397,57.5499313 27.7676641,57.7268931 C28.1338626,57.9396565 28.2586565,58.408145 28.0464046,58.774855 C27.8341527,59.1415649 27.3646412,59.2658473 26.9984427,59.0546183 C26.9293969,59.0147252 20.0350458,55.1016183 13.5391145,57.2594275 C9.7860916,58.5063435 6.85138931,61.5412901 4.81735115,66.2798779 C4.69255725,66.5703817 4.40921374,66.7442748 4.11206107,66.7442748 Z" id="Shape"></path>
            <path d="M50.1564046,24.5393893 C49.8699924,24.5393893 49.4710611,24.4483511 49.0629237,24.0616947 C48.8476031,23.8468855 44.1294733,19.058687 43.0370153,12.1055191 L42.9991679,11.8671832 C42.9014809,11.2554885 42.8002137,10.6228244 42.8002137,9.94464122 C42.8002137,4.46138168 47.261084,0 52.744855,0 C58.228626,0 62.6894962,4.46138168 62.6894962,9.94464122 C62.6894962,15.4284122 58.2281145,19.8897939 52.744855,19.8897939 C52.5187939,19.8897939 52.2922214,19.8821221 52.0666718,19.8667786 C52.5525496,21.1321069 52.3766107,22.9221832 51.1869771,24.0816412 C51.0667863,24.2110382 50.739458,24.5056336 50.239771,24.5368321 C50.2131756,24.5388779 50.1855573,24.5393893 50.1564046,24.5393893 Z M44.5529542,11.8676947 C45.565626,18.3140153 50.0883817,22.9175802 50.1339008,22.9636107 C50.1339008,22.9636107 50.1344122,22.9641221 50.1349237,22.9646336 C50.8662977,22.2291679 50.9379008,20.9326412 50.5394809,20.2120076 C50.3584275,19.8841679 49.9339237,19.1164809 50.3886031,18.5492824 C50.6090382,18.2741221 50.9721679,18.157 51.3235344,18.2367863 C51.7894656,18.3165725 52.2676718,18.3564656 52.7453664,18.3564656 C57.382687,18.3564656 61.1556565,14.5834962 61.1556565,9.94566412 C61.1556565,5.30834351 57.382687,1.53537405 52.7453664,1.53537405 C48.1080458,1.53537405 44.3350763,5.30834351 44.3350763,9.94566412 C44.3350763,10.5021221 44.4225344,11.0478397 44.5151069,11.6257786 L44.5529542,11.8676947 Z" id="Shape"></path>
            <path d="M61.7387099,9.24855725 C61.4717328,9.24855725 61.2124275,9.1089313 61.0712672,8.86036641 C60.6641527,8.14945038 59.2351603,6.20082443 58.0460382,6.53480153 C57.7754809,6.61100763 57.5008321,6.69744275 57.2215802,6.78490076 C55.3404656,7.3761374 52.9995573,8.1110916 50.6325649,6.12870992 C47.7541221,3.71722137 46.2939313,4.77490076 45.446458,5.77938931 C45.1733435,6.10262595 44.6895115,6.14405344 44.3652519,5.87093893 C44.0415038,5.59782443 44.0005878,5.11399237 44.2737023,4.78973282 C45.3799695,3.4788855 47.8047557,1.75683206 51.6181298,4.9518626 C53.3401832,6.39466412 55.0018855,5.87349618 56.7617863,5.32061832 C57.0558702,5.22855725 57.3458626,5.13751908 57.6307405,5.05722137 C60.1839008,4.33863359 62.1852061,7.71420611 62.4051298,8.1018855 C62.6148244,8.47012977 62.4859389,8.93861832 62.1176947,9.14780153 C61.9975038,9.21633588 61.867084,9.24855725 61.7387099,9.24855725 Z" id="Shape"></path>
            <path d="M36.4208931,58.1774809 C36.3257634,58.1774809 36.2290992,58.1595802 36.1355038,58.1222443 C35.7421985,57.9642061 35.5514275,57.5177099 35.7094656,57.1244046 C38.2994504,50.6688779 40.3140534,48.1776031 40.5534122,47.8942595 C41.5313053,46.5951756 42.6043282,45.6464351 43.7397481,44.6419466 C45.7773664,42.8395954 47.8850534,40.9758702 49.6510916,36.7620305 C52.3075649,30.4220916 49.6168244,23.9992977 49.5892061,23.934855 C49.4224733,23.5456412 49.6025038,23.094542 49.992229,22.9272977 C50.3814427,22.7610763 50.832542,22.9411069 50.9997863,23.3303206 C51.1225344,23.6167328 53.971313,30.4215802 51.0657634,37.3542901 C49.1641908,41.8918779 46.8222595,43.9632519 44.756,45.7906641 C43.6747939,46.7470763 42.6539389,47.6497863 41.7660611,48.8337939 C41.7548092,48.8491374 41.7425344,48.8639695 41.7302595,48.8777786 C41.7118473,48.8992595 39.7192366,51.249374 37.1333435,57.6946718 C37.0126412,57.995916 36.7246947,58.1774809 36.4208931,58.1774809 Z" id="Shape"></path>
            <path d="M41.493458,37.5916031 C40.2710916,37.5916031 39.2768321,36.5973435 39.2768321,35.3754885 C39.2768321,34.1536336 40.2710916,33.159374 41.493458,33.159374 C42.715313,33.159374 43.7095725,34.1531221 43.7095725,35.3754885 C43.7095725,36.5973435 42.715313,37.5916031 41.493458,37.5916031 Z M41.493458,34.6937252 C41.117542,34.6937252 40.8111832,34.9995725 40.8111832,35.3754885 C40.8111832,35.7514046 41.117542,36.0572519 41.493458,36.0572519 C41.869374,36.0572519 42.1752214,35.7514046 42.1752214,35.3754885 C42.1752214,34.9995725 41.869374,34.6937252 41.493458,34.6937252 Z" id="Shape"></path>
            <path d="M39.2972901,39.040542 C38.9745649,39.040542 38.6738321,38.8349389 38.5684733,38.5111908 C37.7353206,35.9605878 39.715145,33.7746489 39.7995344,33.6825878 C42.1312366,31.1273817 45.2372748,32.3292901 45.3687176,32.3824809 C45.7620229,32.5400076 45.9533053,32.9865038 45.7957786,33.3798092 C45.6387634,33.7720916 45.194313,33.9623511 44.8015191,33.8084046 C44.6956489,33.7674885 42.5322137,32.9645115 40.9298397,34.7203206 C40.9144962,34.7371985 39.4752748,36.3477557 40.0266183,38.0350305 C40.1580611,38.4380534 39.9386489,38.8707405 39.535626,39.0026947 C39.4563511,39.0287786 39.3765649,39.040542 39.2972901,39.040542 Z" id="Shape"></path>
            <path d="M31.8602901,62.681313 C31.4362977,62.681313 31.0931145,62.3381298 31.0931145,61.9141374 C31.0931145,61.490145 31.4362977,61.1469618 31.8602901,61.1469618 C34.8681298,61.1469618 35.4931221,60.0867252 35.525855,58.3759237 C35.5391527,57.6772824 35.1663053,57.0031908 34.4758473,56.4769084 C34.4180534,56.4349695 32.7502137,55.1941908 32.7762977,53.0752519 C32.799313,51.2197099 33.2908168,49.8352137 33.3117863,49.7769084 C33.4555038,49.3779771 33.8958626,49.1718626 34.293771,49.3155802 C34.6921908,49.4592977 34.8988168,49.899145 34.7550992,50.2975649 C34.7515191,50.3083053 34.330084,51.5102137 34.3106489,53.094687 C34.2942824,54.4086031 35.3857176,55.2417557 35.3969695,55.2499389 C36.4797099,56.0754198 37.0821985,57.2231145 37.0591832,58.4055878 C37.004458,61.2824962 35.3038855,62.681313 31.8602901,62.681313 Z" id="Shape"></path>
            <path d="M33.6028015,59.7450763 C33.2330229,59.7450763 32.9102977,59.4837252 32.850458,59.1078092 C32.7215725,58.3022748 33.0703817,56.6620534 35.3136031,56.2201603 C35.7324809,56.1383282 36.133458,56.4088855 36.2147786,56.8246947 C36.2966107,57.2405038 36.0260534,57.6440382 35.6102443,57.7258702 C34.3628168,57.9713664 34.3438931,58.6725649 34.3674198,58.8812366 C34.4149847,59.2955115 34.1239695,59.681145 33.7107176,59.7374046 C33.674916,59.7430305 33.6386031,59.7450763 33.6028015,59.7450763 Z" id="Shape"></path>
            <path d="M31.881771,27.0853893 C31.4582901,27.0853893 31.1151069,26.7427176 31.1145954,26.3192366 L31.1145954,26.3182137 C31.1145954,26.3177023 31.1145954,26.3166794 31.1145954,26.3161679 L31.0931145,11.8068321 C31.0931145,11.5516183 31.2189313,11.3132824 31.4301603,11.1705878 C31.6582672,11.0156183 37.0995878,7.4390458 44.1407252,12.2369618 C44.4910687,12.4758092 44.581084,12.9529924 44.3427481,13.3028244 C44.1039008,13.6531679 43.6262061,13.7431832 43.2768855,13.5048473 C41.3742901,12.2078092 39.6154122,11.5991832 38.0882214,11.3813053 C37.3276947,12.4773435 32.649458,19.4959771 32.649458,26.3177023 C32.6489466,26.7416947 32.3057634,27.0853893 31.881771,27.0853893 C31.8822824,27.0853893 31.8822824,27.0853893 31.881771,27.0853893 Z M32.6284885,12.2446336 L32.6376947,18.564626 C33.824771,15.3220305 35.4158931,12.6507252 36.2986565,11.2912901 C34.5085802,11.3680076 33.2125649,11.9336718 32.6284885,12.2446336 Z" id="Shape"></path>
            <path d="M38.1674962,54.1283282 C38.0135496,54.1283282 37.8580687,54.0822977 37.7225344,53.9856336 C37.3778168,53.739626 37.2975191,53.2603969 37.5435267,52.9156794 C37.6422366,52.7770763 47.5991527,39.1254427 62.712,44.3683206 C63.1124656,44.5069237 63.3242061,44.9442137 63.1850916,45.3446794 C63.0459771,45.7446336 62.6091985,45.956374 62.2087328,45.817771 C48.1689084,40.9482519 38.8845496,53.6777405 38.7924885,53.8071374 C38.6426336,54.0163206 38.406855,54.1283282 38.1674962,54.1283282 Z" id="Shape"></path>
            <path d="M37.1456183,56.7709924 C36.9405267,56.7709924 36.7354351,56.6891603 36.5845573,56.5270305 C36.2955878,56.2176031 36.3124656,55.7317252 36.6218931,55.4427557 C36.7548702,55.3194962 50.0270076,43.1827786 62.9201603,52.832313 C63.2592519,53.0859924 63.3282977,53.5667557 63.0746183,53.9063588 C62.8209389,54.2454504 62.3391527,54.3144962 62.0005725,54.0608168 C50.1236718,45.1718092 37.7920916,56.4492901 37.6683206,56.5648779 C37.5210229,56.702458 37.3328092,56.7709924 37.1456183,56.7709924 Z" id="Shape"></path>
            <path d="M59.5640229,66.7442748 C59.2663588,66.7442748 58.9835267,66.5703817 58.8587328,66.2793664 C56.8226489,61.536687 53.8848779,58.501229 50.1272519,57.2558473 C43.6175115,55.100084 36.7461756,59.0142137 36.6781527,59.0541069 C36.3114427,59.2663588 35.8419313,59.1415649 35.6296794,58.7753664 C35.416916,58.4086565 35.5422214,57.939145 35.9084198,57.7268931 C36.2132443,57.5504427 43.452313,53.4286641 50.6100611,55.7997481 C54.8024198,57.1888473 58.0521756,60.511229 60.2688015,65.6743206 C60.4360458,66.0635344 60.2560153,66.515145 59.8662901,66.6818779 C59.7675802,66.7243282 59.6647786,66.7442748 59.5640229,66.7442748 Z" id="Shape"></path>
        </g>
    </g>
</svg>