<?xml version="1.0" encoding="UTF-8"?>
<svg width="76px" height="67px" viewBox="0 0 76 67" version="1.1" xmlns="http://www.w3.org/2000/svg" xmlns:xlink="http://www.w3.org/1999/xlink">
    <!-- Generator: Sketch 48.2 (47327) - http://www.bohemiancoding.com/sketch -->
    <title>reindeer@3x</title>
    <desc>Created with Sketch.</desc>
    <defs></defs>
    <g id="Artboard" stroke="none" stroke-width="1" fill="none" fill-rule="evenodd" transform="translate(-2474.000000, -2499.000000)">
        <g id="reindeer" transform="translate(2474.000000, 2499.000000)" fill="#AFAFAF" fill-rule="nonzero">
            <path d="M33.0328741,63.5295874 C32.8834126,63.5295874 32.7325455,63.4817972 32.6046364,63.3838741 C32.442993,63.2597133 32.2715105,63.1435175 32.0939371,63.0395035 C29.2223077,61.3466993 29.2546364,58.6938741 29.2705664,57.4185315 L29.2715035,57.3365385 C29.2738462,57.1266364 29.2991469,56.9148601 29.3258531,56.6904336 C29.4617273,55.5528392 29.6899021,53.6487273 26.770951,48.843 C23.8510629,44.0344615 24.246972,38.837979 24.5702587,36.7572308 C21.514965,36.8991958 11.9770699,36.8167343 9.51962238,30.5032727 C9.41607692,30.2385524 9.48307692,29.9372867 9.68782517,29.740972 C9.7224965,29.7072378 13.2116503,26.4481329 17.8758811,29.2724406 C17.8899371,29.2813427 17.9044615,29.2902448 17.9175804,29.3000839 C17.9972308,29.3563077 19.8755734,30.6911538 21.2071399,32.1033077 C21.6138252,32.5338881 21.9638182,33.008042 22.3020979,33.4662657 C23.0217622,34.4412797 23.643035,35.2827622 24.5004476,35.2921329 C24.5847832,35.2930699 24.6653706,35.309 24.7398671,35.3366434 C25.1221888,35.316965 25.3461469,35.2968182 25.3620769,35.2954126 C25.5879091,35.271986 25.8123357,35.3628811 25.9608601,35.5348322 C26.1098531,35.7067832 26.1665455,35.941049 26.1126643,36.1621958 C26.0972028,36.2254476 24.6030559,42.5642098 27.9727343,48.1125594 C31.1437552,53.3334056 30.8795035,55.5387832 30.7216084,56.8567622 C30.6995874,57.039958 30.6785035,57.2011329 30.6770979,57.3505944 L30.6761608,57.4349301 C30.6621049,58.5992308 30.6382098,60.5487902 32.8075105,61.8274126 C33.0342797,61.9609441 33.2544895,62.1094685 33.462049,62.2687692 C33.7694056,62.5053776 33.827035,62.9467343 33.589958,63.2545594 C33.4517413,63.4354126 33.2432448,63.5295874 33.0328741,63.5295874 Z M11.0339161,30.4615734 C12.9071049,34.2880699 18.3692448,35.1857762 21.9825594,35.3432028 C21.6976923,35.0152308 21.4325035,34.6568042 21.1710629,34.3016573 C20.8576154,33.8771678 20.5333916,33.4376853 20.1843357,33.0684825 C19.0176923,31.8301538 17.3272308,30.6063497 17.1257622,30.4615734 C14.1758881,28.6886503 11.8992937,29.8557622 11.0339161,30.4615734 Z" id="Shape"></path>
            <path d="M26.0456643,32.2897832 C25.1198462,32.2897832 23.8473147,31.7982937 21.8054545,30.1092378 C18.6644196,27.5116993 16.6291189,27.1893497 16.608972,27.1865385 C14.4012517,26.8932378 12.7838811,27.1860699 11.8083986,28.0584755 C10.846972,28.9182308 10.8441608,30.0919021 10.8446294,30.1036154 C10.8530629,30.492028 10.5447692,30.812972 10.1563566,30.8209371 C9.7581049,30.827028 9.447,30.5210769 9.43903497,30.1331329 C9.43762937,30.0591049 9.41795105,28.3100769 10.8713357,27.0103706 C12.1668252,25.8516923 14.1608951,25.4421958 16.7977902,25.7931259 C16.8924336,25.8053077 19.2055734,26.1346853 22.7012867,29.0255245 C25.4047133,31.2613566 26.2185524,30.9123007 26.5652657,30.7647133 L26.5994685,30.7506573 C26.6458531,30.7117692 26.7166014,30.6349301 26.7269091,30.5702727 C26.7372168,30.507021 26.6884895,30.3983217 26.5957203,30.2793147 C25.9617972,29.4612587 25.3756643,28.7172308 25.2271399,28.5288811 C24.8710559,28.1854476 24.7075385,27.5899441 25.0631538,27.045042 C25.2585315,26.7451818 25.5124755,26.6022797 25.7959371,26.6205524 C26.1435874,26.2555664 26.7325315,25.5602657 27.1415594,25.0687762 C27.0066224,24.7019161 27.1663916,24.2577483 27.5416853,23.9592937 C27.7398741,23.8013986 28.467035,23.3408322 29.4832797,24.0276993 L31.9552517,25.7472098 C32.0948741,25.8081189 32.3356993,25.8685594 32.4551748,25.8296713 C32.4809441,25.8198322 32.502028,25.8053077 32.5263916,25.7912517 C32.9780559,25.5382448 33.596986,25.192 37.8966993,25.1788811 C37.8976364,25.1788811 37.8985734,25.1788811 37.899042,25.1788811 C38.286049,25.1788811 38.6004336,25.4918601 38.6018392,25.8793357 C38.6032448,26.2677483 38.2893287,26.5830699 37.9013846,26.5844755 C33.9657203,26.5966573 33.4381538,26.8918322 33.2127902,27.0178671 C33.1298601,27.0642517 33.0267832,27.1223497 32.8857552,27.1673287 C32.1562517,27.4020629 31.4206573,27.0539441 31.2800979,26.9822587 C31.2524545,26.9677343 31.2257483,26.9518042 31.199979,26.934 L28.7111399,25.2023077 C28.7055175,25.2374476 28.6998951,25.2655594 28.6947413,25.2852378 C28.6699091,25.3864406 28.6230559,25.4810839 28.5565245,25.5616713 C28.5021748,25.6286713 27.2104336,27.2066853 26.6636573,27.7412797 C26.6252378,27.7792308 26.5732308,27.8298322 26.5085734,27.8832448 C26.7657972,28.2098112 27.2221469,28.7917273 27.7061399,29.4158112 C28.1489021,29.9855455 28.1695175,30.4981189 28.1086084,30.827028 C27.976014,31.5452867 27.3716084,31.929014 27.3027343,31.9707133 C27.2680629,31.9913287 27.2315175,32.0096014 27.194035,32.0241259 L27.1162587,32.0564545 C26.8042168,32.1918601 26.4598462,32.2897832 26.0456643,32.2897832 Z" id="Shape"></path>
            <path d="M26.7765734,44.2584196 C26.7686084,44.2584196 26.7606434,44.2584196 26.7526783,44.2584196 C26.1604545,44.2518601 25.6075874,44.0152517 25.1938741,43.5921678 C24.7810979,43.1695524 24.5580769,42.612 24.5646364,42.0216503 C24.5707273,41.4327063 24.8063986,40.8803077 25.2280769,40.4670629 C25.6506923,40.0533497 26.2274545,39.8439161 26.8004685,39.8354825 C28.0186503,39.8481329 28.9997552,40.8507902 28.988042,42.0699091 C28.988042,42.0699091 28.988042,42.0703776 28.988042,42.0708462 C28.9753916,43.2815315 27.9849161,44.2584196 26.7765734,44.2584196 Z M26.7765734,41.2406084 C26.5638601,41.2406084 26.3637972,41.3221329 26.211993,41.4711259 C26.0583147,41.6215245 25.9725734,41.8225245 25.9702308,42.0371119 C25.9674196,42.2531049 26.0489441,42.4564476 26.1988741,42.6101259 C26.3497413,42.7642727 26.5516783,42.850951 26.7676713,42.8532937 C26.7704825,42.8532937 26.7737622,42.8532937 26.7765734,42.8532937 C27.2165245,42.8532937 27.5777622,42.4976783 27.5829161,42.0563217 C27.5876014,41.6116853 27.2296434,41.2462308 26.7859441,41.2415455 C26.7826643,41.2406084 26.7798531,41.2406084 26.7765734,41.2406084 Z" id="Shape"></path>
            <path d="M30.2914965,44.8314336 C30.0070979,44.8314336 29.7386294,44.6566713 29.6332098,44.3741469 C28.5480909,41.4678462 26.8028112,41.2457622 26.7287832,41.2377972 C26.3478671,41.1960979 26.0639371,40.8559441 26.0990769,40.4736224 C26.1346853,40.0917692 26.4598462,39.805965 26.8468531,39.8373566 C26.9555524,39.8457902 29.5315385,40.0842727 30.9502517,43.8826573 C31.0861259,44.2462378 30.9015245,44.651049 30.5374755,44.7869231 C30.4564196,44.8169091 30.3734895,44.8314336 30.2914965,44.8314336 Z" id="Shape"></path>
            <path d="M42.6293357,63.657965 C42.4264615,63.657965 42.2259301,63.5708182 42.0867762,63.4021469 C41.8398601,63.1027552 41.882028,62.659993 42.1818881,62.4130769 C42.448014,62.1933357 42.7216364,62.0021748 43.0172797,61.8278811 C45.1861119,60.5487902 45.1622168,58.5992308 45.1481608,57.4344615 L45.1472238,57.352 C45.1458182,57.2020699 45.1247343,57.0404266 45.1027133,56.8576993 C44.9448182,55.5397203 44.681035,53.3338741 47.8515874,48.1134965 C51.2207972,42.5651469 49.7271189,36.2263846 49.7116573,36.1631329 C49.6577762,35.941986 49.7144685,35.7077203 49.8634615,35.5357692 C50.011986,35.3638182 50.235007,35.2729231 50.4622448,35.2963497 C50.4781748,35.2977552 50.7026014,35.3179021 51.0844545,35.3375804 C51.158951,35.3094685 51.2395385,35.294007 51.3238741,35.2930699 C52.1808182,35.2836993 52.8025594,34.4417483 53.5222238,33.4662657 C53.8605035,33.008042 54.210028,32.5348252 54.6167133,32.1037762 C55.9487483,30.6916224 57.8270909,29.3567762 57.9062727,29.301021 C57.9193916,29.2911818 57.9339161,29.2818112 57.947972,29.2733776 C62.6103287,26.4495385 66.1004196,29.7081748 66.1350909,29.7419091 C66.3403077,29.9382238 66.4068392,30.2394895 66.3032937,30.5042098 C63.8467832,36.8172028 54.307014,36.8996643 51.2535944,36.7581678 C51.5764126,38.8393846 51.9727902,44.0353986 49.0529021,48.8439371 C46.133951,53.6496643 46.3621259,55.5537762 46.498,56.6913706 C46.5251748,56.9157972 46.550007,57.1275734 46.5523497,57.3379441 L46.5532867,57.4180629 C46.5687483,58.6934056 46.6015455,61.3466993 43.7303846,63.0395035 C43.4989301,63.1763147 43.2848112,63.3257762 43.0758462,63.4981958 C42.9451259,63.6054895 42.7867622,63.657965 42.6293357,63.657965 Z M58.699028,30.4615734 C58.4970909,30.6063497 56.8047552,31.832965 55.6395175,33.068014 C55.2909301,33.4376853 54.9671748,33.8762308 54.6537273,34.3002517 C54.3913497,34.6558671 54.1266294,35.0147622 53.8412937,35.3432028 C57.4546084,35.1857762 62.9167483,34.2885385 64.7894685,30.4611049 C63.925965,29.8566993 61.6489021,28.6886503 58.699028,30.4615734 Z" id="Shape"></path>
            <path d="M49.7786573,32.2897832 C49.3644755,32.2897832 49.0201049,32.1918601 48.7075944,32.0578601 L48.6298182,32.0255315 C48.5918671,32.011007 48.5557902,31.9927343 48.5206503,31.9716503 C48.4522448,31.9304196 47.8483077,31.5462238 47.7157133,30.8284336 C47.6548042,30.4995245 47.674951,29.9874196 48.1181818,29.4167483 C48.6012378,28.7931329 49.0580559,28.2112168 49.3152797,27.8846503 C49.2506224,27.8317063 49.1986154,27.7806364 49.1601958,27.7431538 C48.6134196,27.2085594 47.3216783,25.6305455 47.2673287,25.5635455 C47.2012657,25.4834266 47.1548811,25.3897203 47.1295804,25.288986 C47.1244266,25.2693077 47.1183357,25.2402587 47.1127133,25.2046503 L44.6238741,26.9354056 C44.5981049,26.9532098 44.5713986,26.9691399 44.5437552,26.9836643 C44.4027273,27.0558182 43.6676014,27.4020629 42.9376294,27.1692028 C42.7961329,27.1237552 42.6930559,27.0656573 42.6096573,27.0192727 C42.3842937,26.8927692 41.8553217,26.5971259 37.8981049,26.5858811 C37.5096923,26.5849441 37.1962448,26.2691538 37.1971818,25.8812098 C37.1981189,25.4937343 37.512972,25.1802867 37.899979,25.1802867 C37.9004476,25.1802867 37.9013846,25.1802867 37.9018531,25.1802867 C42.2235874,25.192 42.8434545,25.5391818 43.2965245,25.7926573 C43.3213566,25.8067133 43.341972,25.8212378 43.3677413,25.8310769 C43.4881538,25.8694965 43.7256993,25.8104615 43.870007,25.7476783 L46.334014,24.0342587 C47.3568182,23.3413007 48.083042,23.8028042 48.2816993,23.9597622 C48.6574615,24.2577483 48.8172308,24.7023846 48.6818252,25.0697133 C49.0908531,25.5616713 49.6802657,26.256972 50.0274476,26.6214895 C50.3179371,26.6004056 50.5648531,26.7456503 50.7611678,27.045979 C51.1163147,27.5913497 50.9518601,28.1863846 50.5962448,28.5293497 C50.4481888,28.7172308 49.8615874,29.4617273 49.2281329,30.2788462 C49.1344266,30.3997273 49.0852308,30.5098322 49.0969441,30.5730839 C49.1100629,30.6424266 49.185965,30.7183287 49.2253217,30.7520629 L49.2581189,30.7656503 C49.6057692,30.9141748 50.4205455,31.2618252 53.1220979,29.0264615 C56.6178112,26.1356224 58.9304825,25.8062448 59.0274685,25.7935944 C61.6624895,25.4431329 63.657028,25.8521608 64.952049,27.0108392 C66.4054336,28.3105455 66.3857552,30.0595734 66.3843497,30.1336014 C66.3759161,30.5215455 66.0334196,30.827028 65.667028,30.8214056 C65.2804895,30.8134406 64.9736014,30.4943706 64.9787552,30.1087692 C64.9792238,30.0492657 64.9693846,28.8994895 63.9985874,28.043951 C63.0202937,27.1827902 61.4104196,26.8951119 59.2111329,27.187007 C59.1942657,27.1893497 57.158965,27.5116993 54.0179301,30.1092378 C51.977007,31.7982937 50.7044755,32.2897832 49.7786573,32.2897832 Z" id="Shape"></path>
            <path d="M49.0472797,44.2584196 C47.8384685,44.2584196 46.8489301,43.282 46.8353427,42.0703776 C46.8287832,41.4795594 47.0532098,40.922007 47.4669231,40.4993916 C47.8806364,40.0767762 48.4335035,39.8411049 49.0243217,39.835014 C49.0327552,39.835014 49.0407203,39.835014 49.0491538,39.835014 C50.2556224,39.835014 51.2456294,40.810965 51.2601538,42.0216503 C51.2718671,43.2421748 50.2907622,44.2448322 49.0716434,44.2584196 C49.0636783,44.2584196 49.0557133,44.2584196 49.0472797,44.2584196 Z M49.0482168,41.2406084 C49.0454056,41.2406084 49.0421259,41.2406084 49.0393147,41.2406084 C48.8233217,41.242951 48.6213846,41.3286923 48.470986,41.4828392 C48.3201189,41.6365175 48.2385944,41.8398601 48.2409371,42.0544476 C48.2460909,42.4995524 48.6256014,42.8448601 49.0561818,42.8523566 C49.5003497,42.8476713 49.8587762,42.4812797 49.8540909,42.0366434 C49.8489371,41.5966923 49.4886364,41.2406084 49.0482168,41.2406084 Z" id="Shape"></path>
            <path d="M45.5328252,44.8314336 C45.4508322,44.8314336 45.3679021,44.8169091 45.2873147,44.7869231 C44.9237343,44.651049 44.7386643,44.2462378 44.8745385,43.8826573 C46.2927832,40.0847413 48.8697063,39.8457902 48.9788741,39.8373566 C49.3621329,39.8097133 49.7036923,40.0973916 49.7332098,40.4848671 C49.7622587,40.8685944 49.4773916,41.2040629 49.0950699,41.2382657 C49.0018322,41.2485734 47.2696713,41.4861189 46.1915804,44.3746154 C46.0852238,44.6571399 45.8172238,44.8314336 45.5328252,44.8314336 Z" id="Shape"></path>
            <path d="M26.0817413,27.8040629 C25.9575804,27.8040629 25.8324825,27.7717343 25.7190979,27.7028601 C10.8357273,18.7098671 2.09855245,11.4391958 0.45306993,6.6761049 C-0.454475524,4.0527972 0.170545455,2.51554545 0.854132867,1.68765035 C1.62205594,0.758552448 2.85382517,0.290020979 4.07153846,0.465251748 C5.226,0.63158042 6.10637063,1.30673427 6.42684615,2.2705035 C6.69297203,3.07122378 6.50040559,3.92676224 5.92411189,4.50352448 C5.6443986,4.78370629 6.0136014,6.09793706 6.50602797,6.99939161 C6.51633566,7.0186014 6.52617483,7.03827972 6.53507692,7.05842657 C7.06826573,8.29769231 8.576,9.96004196 9.87711189,11.248972 C9.73420979,10.2149231 9.86446154,9.23522378 10.2861399,8.47058042 C10.7551399,7.6201958 11.5567972,7.13339161 12.4858951,7.13339161 C12.491049,7.13339161 12.4957343,7.13339161 12.499951,7.13339161 C14.6856503,7.14416783 15.3013007,9.12652448 15.320979,10.1732238 C15.209,13.2781818 16.616,15.6906503 17.9873916,17.2888112 C17.9564685,16.757965 18.0454895,16.2505455 18.2600769,15.7885734 C18.6939371,14.8561958 19.6094476,14.2827133 20.5727483,14.3126993 C22.3316154,14.375951 22.9955245,16.1662098 23.1107832,17.2138462 C23.4331329,21.4531189 28.1118881,24.5627622 28.1587413,24.5936853 C28.482965,24.8063986 28.5747972,25.2416643 28.3625524,25.5663566 C28.1517133,25.891049 27.7164476,25.9833497 27.3908182,25.7706364 C27.1748252,25.6296084 22.0851678,22.2571189 21.7117483,17.3440979 C21.7112797,17.3440979 21.5102797,15.752965 20.5226154,15.7178252 C20.1,15.6990839 19.7322028,15.9572448 19.5358881,16.3817343 C19.1357622,17.241958 19.5415105,18.4666993 20.621007,19.6572378 C20.8566783,19.9172727 20.8646434,20.3113077 20.6388112,20.5807133 C20.4139161,20.8491818 20.0245664,20.9114965 19.7265804,20.7245524 C19.4796643,20.569 13.6740909,16.8465175 13.9167902,10.161979 C13.9078881,9.92771329 13.8005944,8.54601399 12.4933916,8.53945455 C12.491049,8.53945455 12.4887063,8.53945455 12.4863636,8.53945455 C12.0665594,8.53945455 11.7404615,8.74467133 11.5174406,9.14995105 C11.055,9.98862238 11.0582797,11.6758042 12.1579231,13.4 C12.3448671,13.6933007 12.2891119,14.0798392 12.0267343,14.3084825 C11.7634196,14.5371259 11.3731329,14.5380629 11.1084126,14.3117622 C10.9167832,14.1473077 6.40904196,10.2711469 5.25786014,7.64455944 C4.96221678,7.09637762 3.76418182,4.67781818 4.93082517,3.51023776 C5.13229371,3.30923776 5.1932028,3.01172028 5.09434266,2.71467133 C4.94534965,2.26628671 4.48806294,1.94581119 3.87241259,1.85679021 C3.14853147,1.75230769 2.38997902,2.03764336 1.93925175,2.58301399 C1.29642657,3.36077622 1.24113986,4.65158042 1.78276224,6.21741259 C2.65985315,8.75685315 7.03125175,14.7685804 26.4467273,26.5006084 C26.7789161,26.7011399 26.8857413,27.1335944 26.6852098,27.4657832 C26.5516783,27.6831818 26.3197552,27.8040629 26.0817413,27.8040629 Z" id="Shape"></path>
            <path d="M49.7341469,27.8040629 C49.4961329,27.8040629 49.2642098,27.6831818 49.1320839,27.4648462 C48.9315524,27.1326573 49.0383776,26.7006713 49.3705664,26.4996713 C68.786042,14.7676434 73.1583776,8.75591608 74.0364056,6.21647552 C74.5775594,4.65111189 74.5218042,3.36077622 73.878979,2.58301399 C73.4282517,2.03717483 72.6668881,1.7509021 71.9439441,1.85632168 C71.3292308,1.94487413 70.8724126,2.26534965 70.7238881,2.71326573 C70.625028,3.01031469 70.6859371,3.3083007 70.8869371,3.5093007 C72.0535804,4.67734965 70.8555455,7.09544056 70.5594336,7.64409091 C69.4077832,10.2711469 64.9005105,14.1473077 64.7088811,14.3112937 C64.4441608,14.5371259 64.0538741,14.5361888 63.7905594,14.308014 C63.5277133,14.0793706 63.471958,13.6928322 63.6593706,13.3995315 C64.759951,11.6762727 64.7627622,9.98862238 64.3003217,9.14995105 C64.0758951,8.7427972 63.7586993,8.54460839 63.3248392,8.53945455 C63.1819371,8.53992308 61.9314266,8.59286713 61.900972,10.2008671 C62.1441399,16.8465175 56.3376294,20.5694685 56.0907133,20.7245524 C55.7922587,20.911965 55.4033776,20.8496503 55.1784825,20.5807133 C54.9531189,20.3113077 54.9606154,19.9172727 55.1962867,19.6572378 C56.2762517,18.4666993 56.682,17.2424266 56.2814056,16.3817343 C56.0841538,15.9572448 55.7121399,15.6990839 55.2951469,15.7178252 C54.3046713,15.7534336 54.1046084,17.3544056 54.1027343,17.3703357 C53.7321259,22.2575874 48.6434056,25.6300769 48.4269441,25.7711049 C48.1017832,25.9838182 47.6674545,25.8915175 47.4552098,25.5668252 C47.242965,25.2421329 47.3343287,24.8063986 47.659021,24.5941538 C47.7063427,24.5632308 52.3836923,21.4535874 52.7041678,17.2377413 C52.8222378,16.1662098 53.4866154,14.3768881 55.245014,14.3131678 C56.2326783,14.2742797 57.1228881,14.8571329 57.5572168,15.789042 C57.7713357,16.2500769 57.8603566,16.7556224 57.8303706,17.2855315 C59.2022308,15.6892448 60.6092308,13.2856783 60.4967832,10.213049 C60.5164615,9.12746154 61.1321119,7.1451049 63.3182797,7.13386014 C63.322965,7.13386014 63.3281189,7.13386014 63.3323357,7.13386014 C64.2614336,7.13386014 65.0626224,7.62066434 65.5316224,8.47104895 C65.9533007,9.23522378 66.0835524,10.2149231 65.9411189,11.2485035 C67.2412937,9.95957343 68.749028,8.29769231 69.2822168,7.05842657 C69.2911189,7.03874825 69.3004895,7.0186014 69.3107972,6.99986014 C69.8125944,6.07779021 70.1766434,4.78604895 69.8936503,4.50305594 C69.3178252,3.92629371 69.1243217,3.07075524 69.3913846,2.26956643 C69.7118601,1.30626573 70.5917622,0.63158042 71.7448182,0.465251748 C72.9606573,0.289552448 74.1957063,0.758552448 74.9640979,1.68811888 C75.6476853,2.51601399 76.2727063,4.05326573 75.3660979,6.6761049 C73.7192098,11.4387273 64.982035,18.7093986 50.0981958,27.7023916 C49.9838741,27.7712657 49.8583077,27.8040629 49.7341469,27.8040629 Z" id="Shape"></path>
            <path d="M38.4092727,64.9014476 C38.0723986,64.9014476 37.7748811,64.6587483 37.7172517,64.3157832 C37.6525944,63.9353357 37.907007,63.5740979 38.2865175,63.5066294 C38.4233287,63.4799231 39.5787273,63.2114545 39.8153357,61.7168392 C39.8757762,61.3335804 40.2393566,61.0712028 40.6193357,61.1325804 C41.0025944,61.193021 41.2645035,61.5528531 41.2035944,61.9365804 C40.8020629,64.4783636 38.6201119,64.8756783 38.5273427,64.8916084 C38.487986,64.8981678 38.4481608,64.9014476 38.4092727,64.9014476 Z" id="Shape"></path>
            <path d="M37.8367273,66.9545524 C34.8835734,66.9545524 32.4814126,64.5519231 32.4814126,61.5987692 C32.4814126,58.6456154 34.8835734,56.242986 37.8367273,56.242986 C40.7903497,56.242986 43.192979,58.6456154 43.192979,61.5987692 C43.1925105,64.5519231 40.7898811,66.9545524 37.8367273,66.9545524 Z M37.8367273,57.649049 C35.658993,57.649049 33.887007,59.421035 33.887007,61.5992378 C33.887007,63.7774406 35.6585245,65.5494266 37.8367273,65.5494266 C40.0149301,65.5494266 41.7873846,63.7774406 41.7873846,61.5992378 C41.7873846,59.421035 40.0149301,57.649049 37.8367273,57.649049 Z" id="Shape"></path>
        </g>
    </g>
</svg>