<?xml version="1.0" encoding="UTF-8"?>
<svg width="58px" height="67px" viewBox="0 0 58 67" version="1.1" xmlns="http://www.w3.org/2000/svg" xmlns:xlink="http://www.w3.org/1999/xlink">
    <!-- Generator: Sketch 48.2 (47327) - http://www.bohemiancoding.com/sketch -->
    <title>computer-security-shield@3x</title>
    <desc>Created with Sketch.</desc>
    <defs></defs>
    <g id="Artboard" stroke="none" stroke-width="1" fill="none" fill-rule="evenodd" transform="translate(-2614.000000, -3642.000000)">
        <g id="computer-security-shield" transform="translate(2614.000000, 3642.000000)" fill="#ACAAAC" fill-rule="nonzero">
            <path d="M57.2890507,11.7086879 C40.8275229,2.05740359 28.7139886,0 28.7139886,0 C28.7139886,0 28.7011797,0.00197058824 28.6830065,0.00536437908 C28.6648333,0.00197058824 28.6520245,0 28.6520245,0 C28.6520245,0 16.5378333,2.05740359 0.0769624183,11.7086879 C0.0769624183,11.7086879 -2.10579248,60.4329052 28.6520245,67 C28.6627533,66.9980294 28.6722778,66.9946356 28.6830065,66.9925556 C28.6937353,66.9945261 28.7032598,66.9979199 28.7139886,67 C59.4711487,60.4329052 57.2890507,11.7086879 57.2890507,11.7086879 Z M28.7160686,4.13714052 C31.410848,4.71988725 40.8733938,7.14239706 53.2146405,14.065183 C53.1607778,23.0635458 51.6214199,57.1130114 28.7160686,62.8352712 L28.7160686,4.13714052 Z" id="Shape"></path>
        </g>
    </g>
</svg>