<?xml version="1.0" encoding="UTF-8"?>
<svg width="49px" height="67px" viewBox="0 0 49 67" version="1.1" xmlns="http://www.w3.org/2000/svg" xmlns:xlink="http://www.w3.org/1999/xlink">
    <!-- Generator: Sketch 48.2 (47327) - http://www.bohemiancoding.com/sketch -->
    <title>money-lock@3x</title>
    <desc>Created with Sketch.</desc>
    <defs></defs>
    <g id="Artboard" stroke="none" stroke-width="1" fill="none" fill-rule="evenodd" transform="translate(-2229.000000, -3642.000000)">
        <g id="money-lock" transform="translate(2229.000000, 3642.000000)" fill="#ACAAAC" fill-rule="nonzero">
            <path d="M13.4744444,18.601915 C13.4744444,18.5905294 13.4744444,18.5804575 13.4744444,18.5690719 C13.4744444,12.7091993 18.3353382,7.95833007 24.1944444,7.95833007 C30.054317,7.95833007 34.9144444,12.7093088 34.9144444,18.5690719 C34.9144444,18.5744363 34.9144444,18.5804575 34.9144444,18.585165 C34.9144444,18.5939232 34.9144444,18.601915 34.9144444,18.6106732 C34.9144444,18.6113301 34.9144444,18.6126438 34.9144444,18.614067 C34.9144444,19.4984232 34.9144444,27.4701095 34.9144444,27.4701095 L42.2844444,27.4701095 C42.2844444,27.4701095 42.2844444,19.5325801 42.2844444,18.6187745 C42.2844444,18.6073889 42.2844444,18.5966601 42.2844444,18.5852745 C42.2844444,18.5799101 42.2844444,18.5738889 42.2844444,18.5691814 C42.2844444,8.31336438 34.450152,0 24.1944444,0 C13.9387369,0 6.10444444,8.31336438 6.10444444,18.5690719 C6.10444444,18.5744363 6.10444444,18.5804575 6.10444444,18.585165 C6.10444444,18.5892157 6.10444444,18.5925 6.10444444,18.5965507 C6.10444444,19.3777794 6.10444444,27.4701095 6.10444444,27.4701095 L13.4744444,27.47 C13.4744444,27.47 13.4744444,19.4119363 13.4744444,18.601915 Z" id="Shape"></path>
            <path d="M0.0744444444,30.82 L0.0744444444,60.6410212 C0.0744444444,64.1565507 3.21271569,67 6.7282451,67 L42.3186013,67 C45.8354444,67 48.3144444,64.1565507 48.3144444,60.6410212 L48.3144444,30.82 L0.0744444444,30.82 Z M31.2884526,57.9724069 C30.028152,58.9995212 28.2373252,59.6400719 25.9157533,59.8932925 L25.9157533,62.068165 L22.5590752,62.068165 L22.5590752,59.9991569 C21.1788971,59.9562418 19.8810458,59.8336275 18.664317,59.6293431 C17.4469314,59.4249493 16.436567,59.1409657 15.6345376,58.7744363 L15.6345376,54.6365294 C16.1832369,54.8334788 16.7185801,55.0063431 17.2391438,55.1538088 C17.7590507,55.301165 18.2943938,55.4278301 18.84375,55.5330376 C19.3924493,55.638902 19.9700507,55.7233088 20.5750212,55.7862582 C21.179335,55.8498644 21.842,55.8887288 22.5595131,55.9028513 L22.5595131,51.2798513 C21.6724199,51.1531863 20.7927712,50.9810882 19.920348,50.7625719 C19.0473775,50.5448219 18.2634118,50.2178137 17.5665899,49.781 C16.869768,49.3448431 16.3030049,48.7672418 15.866848,48.0497288 C15.4306912,47.3321062 15.2122843,46.4028644 15.2122843,45.2632075 C15.2122843,44.3339657 15.381098,43.5078513 15.718835,42.7828938 C16.0572288,42.0579363 16.5422124,41.4315082 17.176085,40.9035 C17.8091912,40.3754918 18.5796912,39.9500637 19.487585,39.6264493 C20.3947124,39.302835 21.4191993,39.07775 22.5595131,38.9504281 L22.5595131,36.7763219 L25.9161912,36.7763219 L25.9161912,38.8874788 C26.9433056,38.94375 27.9884837,39.0596863 29.0510686,39.235835 C30.1136536,39.4120931 31.0885474,39.654585 31.9749837,39.9640768 L31.9749837,44.1442418 C29.8075556,43.440085 27.7881405,43.0460768 25.9161912,42.9616699 L25.9161912,47.6482761 C26.8026275,47.7889542 27.6789918,47.9752843 28.5446275,48.2077042 C29.4102631,48.4402337 30.1841569,48.7778611 30.8668562,49.2214624 C31.5495556,49.6642974 32.1056993,50.245183 32.5345212,50.9634624 C32.964,51.681085 33.1783562,52.6029918 33.1783562,53.729183 C33.177152,55.5309575 32.5473301,56.9452925 31.2884526,57.9724069 Z" id="Shape"></path>
            <path d="M19.8347369,45.0521356 C19.8347369,45.64375 20.0598219,46.0940294 20.5107582,46.4035212 C20.9610376,46.7137794 21.6430801,46.9522206 22.5589657,47.1211438 L22.5589657,43.0676438 C21.5311944,43.1808431 20.8203595,43.4093219 20.4263513,43.7537369 C20.0316863,44.0986993 19.8347369,44.5322288 19.8347369,45.0521356 Z" id="Shape"></path>
            <path d="M27.8895163,52.4730425 C27.4593807,52.1702288 26.8020801,51.94175 25.9156438,51.7869493 L25.9156438,55.7560425 C27.6602712,55.5309575 28.5333513,54.8837288 28.5333513,53.8143562 C28.5333513,53.2227418 28.3183382,52.7766225 27.8895163,52.4730425 Z" id="Shape"></path>
        </g>
    </g>
</svg>