<?xml version="1.0" encoding="UTF-8"?>
<svg width="79px" height="67px" viewBox="0 0 79 67" version="1.1" xmlns="http://www.w3.org/2000/svg" xmlns:xlink="http://www.w3.org/1999/xlink">
    <!-- Generator: Sketch 48.2 (47327) - http://www.bohemiancoding.com/sketch -->
    <title>piggy-bank-savings@3x</title>
    <desc>Created with Sketch.</desc>
    <defs></defs>
    <g id="Artboard" stroke="none" stroke-width="1" fill="none" fill-rule="evenodd" transform="translate(-1673.000000, -3533.000000)">
        <g id="piggy-bank-savings" transform="translate(1673.000000, 3533.000000)" fill="#ACAAAC" fill-rule="nonzero">
            <path d="M78.5143736,29.5985977 C78.5143736,29.5985977 76.2869444,0.026697318 43.3083123,0.026697318 C43.3083123,0.026697318 40.21091,0.0186111111 36.1314828,0.965724138 C34.4369732,1.31253257 32.8423218,1.76510345 31.3493257,2.29224713 C26.0683908,0.163264368 16.2481418,4.303659 16.2481418,4.303659 C8.17849234,7.94206705 15.1222337,10.5975517 15.1222337,10.5975517 C15.8623142,10.8347471 16.5486149,11.0922222 17.1863985,11.3659981 C15.9338065,12.5625 15.322977,13.4512126 15.3188697,13.4496724 C12.9111054,16.5827567 10.9720843,20.5234349 9.88609387,25.2868525 C9.88609387,25.2868525 9.44096743,28.7952395 6.32161686,28.7952395 L2.30957471,28.7952395 C2.30957471,28.7952395 -0.511613027,28.6263276 0.0821455939,32.5359444 L1.34449234,43.8174866 C1.34449234,43.8174866 1.93914943,46.8092548 4.38991188,46.8092548 C4.38991188,46.8092548 9.96657088,46.7272375 15.1109387,48.9415747 C18.5089425,47.3405057 19.4292299,44.1601877 19.4690192,44.0156628 C19.7581973,42.9734406 20.8361015,42.3472088 21.882431,42.6281724 C22.9278621,42.9100345 23.5533238,43.9717663 23.2804464,45.019636 C23.2325709,45.2048487 22.163523,48.6597126 18.8345728,51.1859464 C21.2716015,53.1193199 23.3210057,55.895841 23.3210057,59.9037759 L23.3210057,66.973431 L34.5449176,66.973431 L38.7040517,59.2831916 C38.7040517,59.2831916 44.8688218,60.4813621 51.7028218,58.7697816 L56.7529789,66.973431 L68.8110536,66.973431 L68.8110536,56.5650709 C68.8110536,56.5650709 68.5868218,51.4019636 72.4746188,46.4629598 C72.473977,46.4632165 79.1090307,38.3156571 78.5143736,29.5985977 Z M16.2473716,28.2786207 C15.0726897,28.2786207 14.1190307,27.2347299 14.1190307,25.9456858 C14.1190307,24.6557433 15.0726897,23.6110824 16.2473716,23.6110824 C17.4228238,23.6110824 18.3764828,24.6557433 18.3764828,25.9456858 C18.3764828,27.2347299 17.4228238,28.2786207 16.2473716,28.2786207 Z M53.4444368,12.5495364 L38.8226494,12.5495364 C37.9258506,12.5495364 37.1979636,11.8225479 37.1979636,10.9248506 C37.1979636,10.0280517 37.9258506,9.30016475 38.8226494,9.30016475 L53.4444368,9.30016475 C54.3420057,9.30016475 55.0691226,10.0280517 55.0691226,10.9248506 C55.0691226,11.8225479 54.341364,12.5495364 53.4444368,12.5495364 Z" id="Shape"></path>
        </g>
    </g>
</svg>