 [
  {
  "height" : "500",
  "width" : "500",
  "thumb" : "clasic0.jpg",
  "name" : "clasic1",
  "category" : "clasic",
  "layers" : [
              {
              "type" : "svg",
              "name" : "bg@3x",
              "x" : "0",
              "y" : "0",
              "z" : "1",
              "height" : "500",
              "width" : "500"
              },
              {
              "type" : "svg",
              "name" : "element1",
              "x" : "121",
              "y" : "85",
              "z" : "2",
              "height" : "292",
              "width" : "242"
              },
              {
              "type" : "text",
              "name" : "ArialHebrew-Bold",
              "x" : "130",
              "y" : "378",
              "z" : "3",
              "height" : "39",
              "width" : "240",
              "font_size" : "30.1",
              "value" : "YOUR TAG LINE",
              "color" : "#000000ff"
              }
              ]
  },
  {
  "height" : "500",
  "width" : "500",
  "thumb" : "abstract1.jpg",
  "name" : "abstract1",
  "category" : "abstract",
  "layers" : [
              {
              "type" : "image",
              "name" : "abstract1_bg_1.jpg",
              "x" : "0",
              "y" : "0",
              "z" : "0",
              "height" : "500",
              "width" : "500"
              },
              {
              "type" : "svg",
              "name" : "abstract1_element_1",
              "x" : "173",
              "y" : "161",
              "z" : "1",
              "height" : "178",
              "width" : "154"
              },
              {
              "type" : "text",
              "name" : "Helvetica-Bold",
              "x" : "174",
              "y" : "237",
              "z" : "3",
              "height" : "42",
              "width" : "153",
              "font_size" : "35.1",
              "value" : "BURGER",
              "color" : "#ffffffff"
              },
              {
              "type" : "text",
              "name" : "Helvetica-Bold",
              "x" : "175",
              "y" : "267",
              "z" : "3",
              "height" : "40",
              "width" : "150",
              "font_size" : "42.1",
              "value" : "HOUSE",
              "color" : "#ffffffff"
              }
              ]
  },
  {
  "height" : "500",
  "width" : "500",
  "thumb" : "abstract2.jpg",
  "name" : "abstract2",
  "category" : "abstract",
  "layers" : [
              {
              "type" : "image",
              "name" : "abstract2_bg_1.jpg",
              "x" : "0",
              "y" : "0",
              "z" : "0",
              "height" : "500",
              "width" : "500"
              },
              {
              "type" : "svg",
              "name" : "abstract2_element_1",
              "x" : "120",
              "y" : "147",
              "z" : "1",
              "height" : "205",
              "width" : "259"
              },
              {
              "type" : "text",
              "name" : "LucidaGrande",
              "x" : "111",
              "y" : "250",
              "z" : "2",
              "height" : "58",
              "width" : "280",
              "font_size" : "42.1",
              "value" : "RESTURANT",
              "color" : "#000000ff"
              },
              {
              "type" : "text",
              "name" : "LucidaGrande",
              "x" : "141",
              "y" : "301",
              "z" : "3",
              "height" : "18",
              "width" : "219",
              "font_size" : "15",
              "value" : "GREEN FOOD & GOOD TASTE",
              "color" : "#000000ff"
              }
              ]
  },
  {
  "height" : "500",
  "width" : "500",
  "thumb" : "abstract3.jpg",
  "name" : "abstract3",
  "category" : "abstract",
  "layers" : [
              {
              "type" : "image",
              "name" : "abstract3_bg_1.jpg",
              "x" : "0",
              "y" : "0",
              "z" : "0",
              "height" : "500",
              "width" : "500"
              },
              {
              "type" : "svg",
              "name" : "abstract3_element_1",
              "x" : "147",
              "y" : "150",
              "z" : "1",
              "height" : "200",
              "width" : "206"
              },
              {
              "type" : "svg",
              "name" : "abstract3_element_2",
              "x" : "212",
              "y" : "181",
              "z" : "2",
              "height" : "135",
              "width" : "78"
              },
              {
              "type" : "text",
              "name" : "Helvetica",
              "x" : "201",
              "y" : "197",
              "z" : "3",
              "height" : "12",
              "width" : "98",
              "font_size" : "10.26",
              "value" : "ESTABLISHED 1997",
              "color" : "#000000ff"
              },
              {
              "type" : "text",
              "name" : "LucidaGrande",
              "x" : "173",
              "y" : "221",
              "z" : "4",
              "height" : "35",
              "width" : "155",
              "font_size" : "29.88",
              "value" : "CREATIVES",
              "color" : "#000000ff"
              }
              ]
  },
  {
  "height" : "500",
  "width" : "500",
  "thumb" : "clasic1.jpg",
  "name" : "clasic1",
  "category" : "clasic",
  "layers" : [
              {
              "type" : "image",
              "name" : "clasic1_bg_1.jpg",
              "x" : "0",
              "y" : "0",
              "z" : "0",
              "height" : "500",
              "width" : "500"
              },
              {
              "type" : "svg",
              "name" : "clasic1_elemnet_1",
              "x" : "148",
              "y" : "187",
              "z" : "1",
              "height" : "154",
              "width" : "205"
              },
              {
              "type" : "text",
              "name" : "LucidaGrande",
              "x" : "192",
              "y" : "147",
              "z" : "2",
              "height" : "31",
              "width" : "116",
              "font_size" : "26.18",
              "value" : "PREMIUM QUALITY",
              "color" : "#000000ff"
              },
              {
              "type" : "text",
              "name" : "LucidaGrande",
              "x" : "174",
              "y" : "208",
              "z" : "3",
              "height" : "22",
              "width" : "82",
              "font_size" : "18.49",
              "value" : "QUALITY",
              "color" : "#000000ff"
              },
              {
              "type" : "text",
              "name" : "LucidaGrande",
              "x" : "200",
              "y" : "216",
              "z" : "4",
              "height" : "38",
              "width" : "100",
              "font_size" : "32.02",
              "value" : "CRABS",
              "color" : "#000000ff"
              }
              
              
              ]
  },
  {
  "height" : "500",
  "width" : "500",
  "thumb" : "clasic2.jpg",
  "name" : "clasic2",
  "category" : "clasic",
  "layers" : [
              {
              "type" : "image",
              "name" : "clasic2_bg_1.jpg",
              "x" : "0",
              "y" : "0",
              "z" : "0",
              "height" : "500",
              "width" : "500"
              },
              {
              "type" : "svg",
              "name" : "clasic2_element_1",
              "x" : "190",
              "y" : "151",
              "z" : "1",
              "height" : "149",
              "width" : "106"
              },
              {
              "type" : "text",
              "name" : "Helvetica-Bold",
              "x" : "146",
              "y" : "290",
              "z" : "2",
              "height" : "41",
              "width" : "209",
              "font_size" : "34.77",
              "value" : "WOLFSHIELD",
              "color" : "#ffffffff"
              },
              {
              "type" : "text",
              "name" : "LucidaGrande",
              "x" : "170",
              "y" : "330",
              "z" : "3",
              "height" : "19",
              "width" : "161",
              "font_size" : "16.19",
              "value" : "YOUR TAG LINE",
              "color" : "#ffffffff"
              }
              
              
              ]
  },
  {
  "height" : "500",
  "width" : "500",
  "thumb" : "clasic3.jpg",
  "name" : "clasic3",
  "category" : "clasic",
  "layers" : [
              {
              "type" : "image",
              "name" : "clasic3_bg_1.jpg",
              "x" : "0",
              "y" : "0",
              "z" : "0",
              "height" : "500",
              "width" : "500"
              },
              {
              "type" : "svg",
              "name" : "clasic3_element_1",
              "x" : "192",
              "y" : "153",
              "z" : "1",
              "height" : "145",
              "width" : "106"
              },
              {
              "type" : "text",
              "name" : "Helvetica-Bold",
              "x" : "162",
              "y" : "290",
              "z" : "2",
              "height" : "41",
              "width" : "178",
              "font_size" : "34.77",
              "value" : "WOLFKING",
              "color" : "#000000ff"
              },
              {
              "type" : "text",
              "name" : "LucidaGrande",
              "x" : "172",
              "y" : "330",
              "z" : "3",
              "height" : "19",
              "width" : "161",
              "font_size" : "16.19",
              "value" : "YOUR TAG LINE",
              "color" : "#000000ff"
              }
              
              
              ]
  }]
