<?xml version="1.0" encoding="UTF-8"?>
<svg width="70px" height="67px" viewBox="0 0 70 67" version="1.1" xmlns="http://www.w3.org/2000/svg" xmlns:xlink="http://www.w3.org/1999/xlink">
    <!-- Generator: Sketch 48.2 (47327) - http://www.bohemiancoding.com/sketch -->
    <title>ehime-abstract-flag-symbol@3x</title>
    <desc>Created with Sketch.</desc>
    <defs></defs>
    <g id="Artboard" stroke="none" stroke-width="1" fill="none" fill-rule="evenodd" transform="translate(-58.000000, -745.000000)">
        <g id="ehime-abstract-flag-symbol" transform="translate(58.000000, 745.000000)" fill="#AFAFAF" fill-rule="nonzero">
            <path d="M35.0006559,30.4979677 C31.9222581,30.4979677 29.4173226,33.0029032 29.4173226,36.0813011 C29.4173226,39.1589785 31.9222581,41.6646344 35.0006559,41.6646344 C38.0783333,41.6646344 40.5839892,39.1589785 40.5839892,36.0813011 C40.5839892,33.0029032 38.0783333,30.4979677 35.0006559,30.4979677 Z" id="Shape"></path>
            <path d="M69.6144409,25.3468925 C69.1454409,25.130043 68.6966129,24.8663656 68.2196882,24.6696882 C65.2018065,23.4197419 62.0196667,23.063129 58.7921398,23.0696129 C54.6900108,23.0796989 50.6656882,23.7309677 46.6925161,24.7266022 C45.5758495,25.006129 44.4663871,25.3137527 43.3252258,25.6163333 C43.3057742,25.4693656 43.282,25.3670645 43.2805591,25.264043 C43.1840215,21.8189462 42.8605484,18.3969032 42.1984731,15.013043 C41.555129,11.730043 40.6149677,8.54213978 39.0912581,5.54803226 C38.1388495,3.67563441 36.9962473,1.93723656 35.4415591,0.494935484 C35.1324946,0.208204301 34.8846667,0.164258065 34.5914516,0.485569892 C34.0756237,1.05254839 33.5072043,1.57774194 33.0389247,2.18146237 C30.7933441,5.08047312 29.4792796,8.4203871 28.5333548,11.9223978 C27.4973763,15.7586882 26.985871,19.6742258 26.810086,23.6387527 C26.7812688,24.2885806 26.7250753,24.9376882 26.6789677,25.6264194 C26.5283978,25.5853548 26.4462688,25.5630215 26.3634194,25.5392473 C23.1575054,24.6243011 19.919172,23.8728925 16.6073548,23.4442366 C12.8330215,22.9565054 9.06877419,22.8606882 5.31533333,23.5919247 C3.57549462,23.9305269 1.89833333,24.4593226 0.343645161,25.3382473 C-0.00864516129,25.5378065 -0.0929354839,25.7517742 0.104462366,26.1069462 C0.347247312,26.542086 0.539602151,27.0074839 0.798236559,27.4325376 C2.49124731,30.2141183 4.83552688,32.3689247 7.43988172,34.2614946 C11.5578602,37.2556022 16.1261075,39.3779892 20.8859892,41.1171075 C21.1114839,41.1992366 21.3340968,41.2914516 21.5804839,41.3879892 C20.9501075,42.3569677 20.3399032,43.2575054 19.7671613,44.1818172 C16.6577849,49.2024946 14.0865699,54.4479462 13.1536129,60.3554731 C12.8459892,62.3027957 12.7825914,64.2537204 13.1593763,66.2104086 C13.2667204,66.7665806 13.5145484,66.9243548 14.0195699,66.8343011 C14.1247527,66.8162903 14.2313763,66.8054839 14.3372796,66.7896344 C16.2593871,66.4884946 18.0532581,65.809129 19.7736452,64.9237204 C24.0256237,62.7357742 27.5643763,59.6436882 30.7695699,56.1488817 C32.2284409,54.558172 33.5914946,52.8802903 35.0453226,51.1858387 C35.169957,51.3385699 35.2967527,51.4855376 35.4149032,51.6375484 C37.5480968,54.3751828 39.8361828,56.9744946 42.4001935,59.3187742 C45.2502151,61.923129 48.3250108,64.1968065 51.9134731,65.6974624 C53.2671613,66.2637204 54.6611935,66.6822903 56.1279892,66.8429462 C56.5299892,66.8868925 56.7713333,66.7881935 56.8145591,66.3364839 C56.8923656,65.5396882 57.0681505,64.7472151 57.0904839,63.9504194 C57.1697312,61.1025591 56.6013118,58.351957 55.7418387,55.6517849 C54.2001183,50.8162581 51.7801935,46.4216344 48.9748387,42.2215269 C48.7990538,41.9585699 48.626871,41.694172 48.4265914,41.3923118 C48.6902688,41.287129 48.9035161,41.2086022 49.1117204,41.1171075 C51.8054086,39.9413656 54.5495269,38.8672043 57.1798172,37.5632258 C60.7826882,35.7794409 64.067129,33.5007204 66.8415054,30.552 C68.0698387,29.2451398 69.1353548,27.8222903 69.8968495,26.181871 C70.0978495,25.7539355 70.015,25.5306022 69.6144409,25.3468925 Z M35.0006559,44.5463548 C30.3329892,44.5463548 26.5356022,40.7489677 26.5356022,36.0813011 C26.5356022,31.4136344 30.3329892,27.6162473 35.0006559,27.6162473 C39.6683226,27.6162473 43.4657097,31.4136344 43.4657097,36.0813011 C43.4657097,40.7482473 39.6683226,44.5463548 35.0006559,44.5463548 Z" id="Shape"></path>
        </g>
    </g>
</svg>