<?xml version="1.0" encoding="UTF-8"?>
<svg width="67px" height="67px" viewBox="0 0 67 67" version="1.1" xmlns="http://www.w3.org/2000/svg" xmlns:xlink="http://www.w3.org/1999/xlink">
    <!-- Generator: Sketch 48.2 (47327) - http://www.bohemiancoding.com/sketch -->
    <title>fukui-abstract-symbol@3x</title>
    <desc>Created with Sketch.</desc>
    <defs></defs>
    <g id="Artboard" stroke="none" stroke-width="1" fill="none" fill-rule="evenodd" transform="translate(-59.000000, -917.000000)">
        <g id="fukui-abstract-symbol" transform="translate(59.000000, 917.000000)" fill="#AFAFAF" fill-rule="nonzero">
            <path d="M8.39384375,33.71775 C8.39384375,32.0392604 8.58088542,30.3858958 8.91169792,28.7632396 C18.7153333,31.5709583 23.8827083,39.0135417 23.8827083,50.5166042 L23.8827083,54.15275 C27.6493646,55.8842812 32.2765521,56.2325417 32.2765521,56.2325417 L32.2765521,50.5159062 C32.2765521,41.9098958 29.93225,34.8085938 25.3064583,29.4074167 C20.8914375,24.2526042 14.42175,20.8760833 6.59740625,19.64775 L3.19366667,19.1124479 L2.00720833,22.3535729 C0.67628125,25.9911146 0,29.8156979 0,33.71775 C0,51.6472292 14.3617292,66.3083646 32.2779479,67 L32.2779479,58.5838229 C18.9910104,57.9005625 8.39384375,47.0109687 8.39384375,33.71775 Z" id="Shape"></path>
            <path d="M37.6449271,8.42455208 C44.4810208,9.51679167 50.4035417,13.3343958 54.2316146,18.7083542 C56.0796979,18.1235 58.0192083,17.6684583 60.0431667,17.3509062 C60.0431667,17.3509062 61.4055,17.13525 62.7468958,16.9251771 C56.9695417,6.82771875 46.0241146,0 33.5,0 C20.9758854,0 10.0304583,6.82771875 4.25310417,16.9244792 C5.5945,17.13525 6.95683333,17.3502083 6.95683333,17.3502083 C8.98148958,17.6677604 10.9203021,18.1228021 12.7683854,18.7076562 C16.5957604,13.3336979 22.5189792,9.51679167 29.354375,8.42385417 L29.354375,30.9512083 C31.247125,33.8608229 32.6310938,37.1319583 33.5,40.7408854 C34.3703021,37.1319583 35.7535729,33.8615208 37.6449271,30.9512083 L37.6449271,8.42455208 Z" id="Shape"></path>
            <path d="M64.9927917,22.3535729 L63.8063333,19.1124479 L60.4025937,19.64775 C52.57825,20.8760833 46.1092604,24.2526042 41.6935417,29.4074167 C37.0670521,34.8085938 34.7234479,41.9098958 34.7234479,50.5159063 L34.7234479,56.2325417 C34.7234479,56.2325417 39.3506354,55.8835833 43.1165937,54.15275 L43.1165937,50.5166042 C43.1165937,39.0142396 48.2839687,31.5709583 58.0876042,28.7639375 C58.4191146,30.3858958 58.6054583,32.0392604 58.6054583,33.7184479 C58.6054583,47.0102708 48.0075937,57.9005625 34.7206562,58.5845208 L34.7206562,67 C52.6382708,66.3083646 67,51.6472292 67,33.71775 C67,29.8156979 66.3237188,25.9911146 64.9927917,22.3535729 Z" id="Shape"></path>
        </g>
    </g>
</svg>