<?xml version="1.0" encoding="UTF-8"?>
<svg width="67px" height="67px" viewBox="0 0 67 67" version="1.1" xmlns="http://www.w3.org/2000/svg" xmlns:xlink="http://www.w3.org/1999/xlink">
    <!-- Generator: Sketch 48.2 (47327) - http://www.bohemiancoding.com/sketch -->
    <title>hiroshima-abstract-flag-symbol@3x</title>
    <desc>Created with Sketch.</desc>
    <defs></defs>
    <g id="Artboard" stroke="none" stroke-width="1" fill="none" fill-rule="evenodd" transform="translate(-873.000000, -1097.000000)">
        <g id="hiroshima-abstract-flag-symbol" transform="translate(873.000000, 1097.000000)" fill="#AFAFAF" fill-rule="nonzero">
            <path d="M41.5707083,54.5477708 C32.6492396,54.5477708 24.6636771,49.99875 19.2904167,42.8311458 C23.3208854,45.5935 28.0436875,47.1840521 33.0938125,47.1840521 C47.8728958,47.1840521 59.8533333,35.3096979 59.8533333,16.791875 C59.8533333,26.774875 51.7602917,34.8672187 41.7786875,34.8672187 C31.7963854,34.8672187 23.7033437,26.774875 23.7033437,16.7925729 C23.7033437,9.20691667 28.3779896,2.71698958 35.0012187,0.03559375 C34.5315208,0.0160520833 34.061125,0 33.5865417,0 C27.2787708,0 21.3820729,1.75246875 16.3514896,4.79398958 C16.3528854,4.79189583 16.3535833,4.78980208 16.3549792,4.78770833 C6.674875,10.6327604 0.20309375,21.2515625 0.20309375,33.38275 C0.20309375,51.8203125 15.1496771,66.7661979 33.5865417,66.7661979 C50.2520938,66.7661979 64.0638646,54.5526562 66.5638021,38.5892083 C61.4124792,48.1611354 52.1469375,54.5477708 41.5707083,54.5477708 Z" id="Shape"></path>
        </g>
    </g>
</svg>