<?xml version="1.0" encoding="UTF-8"?>
<svg width="99px" height="67px" viewBox="0 0 99 67" version="1.1" xmlns="http://www.w3.org/2000/svg" xmlns:xlink="http://www.w3.org/1999/xlink">
    <!-- Generator: Sketch 48.2 (47327) - http://www.bohemiancoding.com/sketch -->
    <title>mie-abstract-flag-symbol@3x</title>
    <desc>Created with Sketch.</desc>
    <defs></defs>
    <g id="Artboard" stroke="none" stroke-width="1" fill="none" fill-rule="evenodd" transform="translate(-857.000000, -1434.000000)">
        <g id="mie-abstract-flag-symbol" transform="translate(857.000000, 1434.000000)" fill="#AFAFAF" fill-rule="nonzero">
            <path d="M98.3958116,0.436956522 L84.1694783,3.5577971 L57.8287681,41.6409855 L55.9071304,39.7008986 L80.536913,4.68611594 L30.3238116,16.215942 C35.5352464,18.2793478 40.5146087,19.4882609 46.297,27.5535072 L43.4771739,27.5535072 L43.4927101,27.7030435 C39.0474058,21.9808551 32.1017391,18.2968261 24.2947826,18.2968261 C10.8773043,18.2958551 0,29.1741304 0,42.5925797 C0,56.011029 10.8773043,66.8873623 24.2947826,66.8873623 C33.9971594,66.8873623 42.3692464,61.2001304 46.2639855,52.9785507 L48.3788551,54.8283333 C45.8144058,59.9727681 41.8526667,63.5004638 36.9772029,66.8873623 L52.0463768,66.8873623 L55.5031884,62.0924928 L60.298058,66.8873623 L69.677087,53.4174493 L64.9521304,48.6924928 L98.3958116,0.436956522 Z M24.3287681,51.1627536 C19.5377826,51.1627536 15.6537246,47.2767536 15.6546957,42.4857681 C15.6537246,37.6947826 19.5377826,33.8087826 24.3287681,33.8087826 C29.1207246,33.8087826 33.0047826,37.6947826 33.0028406,42.4857681 C33.0047826,47.2767536 29.1207246,51.1627536 24.3287681,51.1627536 Z" id="Shape"></path>
        </g>
    </g>
</svg>