<?xml version="1.0" encoding="UTF-8"?>
<svg width="118px" height="67px" viewBox="0 0 118 67" version="1.1" xmlns="http://www.w3.org/2000/svg" xmlns:xlink="http://www.w3.org/1999/xlink">
    <!-- Generator: Sketch 48.2 (47327) - http://www.bohemiancoding.com/sketch -->
    <title>miyazaki-abstract-flag-symbol@3x</title>
    <desc>Created with Sketch.</desc>
    <defs></defs>
    <g id="Artboard" stroke="none" stroke-width="1" fill="none" fill-rule="evenodd" transform="translate(-424.000000, -1434.000000)">
        <g id="miyazaki-abstract-flag-symbol" transform="translate(424.000000, 1434.000000)" fill="#AFAFAF" fill-rule="nonzero">
            <polygon id="path3161" points="0 21.7780455 15.9368636 0.149227273 60.3335 0.149227273 44.5103333 23.4855303 87.7679697 23.4855303 71.8757727 46.8218333 117.64997 46.8218333 103.022652 66.7431667 57.0890758 66.7431667 71.8300909 45.1143485 28.5724545 45.1143485 44.5103333 21.7780455"></polygon>
        </g>
    </g>
</svg>