<?xml version="1.0" encoding="UTF-8"?>
<svg width="106px" height="67px" viewBox="0 0 106 67" version="1.1" xmlns="http://www.w3.org/2000/svg" xmlns:xlink="http://www.w3.org/1999/xlink">
    <!-- Generator: Sketch 48.2 (47327) - http://www.bohemiancoding.com/sketch -->
    <title>nagasaki-abstract-flag-symbol@3x</title>
    <desc>Created with Sketch.</desc>
    <defs></defs>
    <g id="Artboard" stroke="none" stroke-width="1" fill="none" fill-rule="evenodd" transform="translate(-51.000000, -1434.000000)">
        <g id="nagasaki-abstract-flag-symbol" transform="translate(51.000000, 1434.000000)" fill="#AFAFAF" fill-rule="nonzero">
            <path d="M105.241901,15.6968732 C104.834239,12.0071549 103.478197,8.86287324 101.306831,6.40274648 C97.9134225,2.50825352 92.9601408,0.662450704 86.4479296,0.79928169 C80.1367183,0.937056338 73.4876761,2.98669014 66.4281408,6.8811831 C72.9431831,5.03632394 77.6246901,5.65159155 80.4066056,8.86287324 C83.9340141,13.0310282 83.0526338,19.6593099 77.6926338,28.7477183 C75.8619296,31.8231127 73.6226197,34.965507 71.1105915,38.1088451 C69.0751127,40.5689718 67.5822394,42.2090563 66.6319718,42.9602113 C67.9889577,35.1712254 68.8712817,27.5860704 69.2100563,20.0698028 C69.4799437,14.2615634 68.1239014,9.68291549 65.2730986,6.40369014 C61.4059718,2.03076056 55.7062535,0.25384507 48.1739437,0.937056338 C40.7794085,1.68821127 33.1782113,4.62677465 25.4439577,9.95752113 C29.1761408,10.2302394 32.3647746,11.8023803 34.9419155,14.5352254 C37.589831,17.3379014 38.9458732,20.6171268 39.0827042,24.4436761 C39.1497042,27.3142958 38.7429859,31.2078451 37.927662,36.1280986 C36.8433944,41.8683944 36.2998451,45.6958873 36.1649014,47.5407465 C35.7562958,53.2800986 37.115169,57.7889155 40.1669718,61.2059155 C42.338338,63.6660423 45.2570845,65.3740704 48.8524366,66.196 C52.3128451,67.0141549 56.2488592,67.0141549 60.5897042,66.196 C69.6818873,64.4181408 78.5013521,59.7706056 86.9848732,52.1863944 C95.3985634,44.6002958 101.031282,36.3328732 103.812254,27.3812958 C105.175845,23.1442535 105.582563,19.2488169 105.241901,15.6968732 Z" id="Shape"></path>
            <path d="M25.0410141,58.7457887 C22.3940423,55.738338 22.1911549,51.3663521 24.3606338,45.627 C25.990338,41.3899577 28.7052535,36.6754225 32.6393803,31.618338 C34.6069155,29.0223239 35.3533521,26.2196479 34.8107465,23.2131408 C34.4030845,20.7530141 33.3178732,18.7033803 31.5532254,16.9264648 C29.6536338,15.1495493 27.3463803,14.1247324 24.4965211,14.0558451 C21.5107746,13.9180704 19.0006338,14.8749437 16.8972113,16.7886901 C8.9581831,24.3068451 3.80107042,32.3006056 1.29092958,40.9115211 C0.0707746479,45.0107887 -0.268943662,48.7693944 0.20571831,52.254338 C0.613380282,55.8091127 1.90242254,58.8146761 4.07378873,61.2059155 C7.46625352,65.1004085 12.4195352,66.9462113 18.9326901,66.8093803 C25.2439014,66.6716056 31.8929437,64.6219718 38.9496479,60.7274789 C36.1686761,61.4786338 33.8604789,61.8891268 32.028831,61.8211831 C29.0430845,61.7522958 26.7367746,60.7274789 25.0410141,58.7457887 Z" id="Shape"></path>
        </g>
    </g>
</svg>