<?xml version="1.0" encoding="UTF-8"?>
<svg width="63px" height="67px" viewBox="0 0 63 67" version="1.1" xmlns="http://www.w3.org/2000/svg" xmlns:xlink="http://www.w3.org/1999/xlink">
    <!-- Generator: Sketch 48.2 (47327) - http://www.bohemiancoding.com/sketch -->
    <title>019-syrup</title>
    <desc>Created with Sketch.</desc>
    <defs></defs>
    <g id="Artboard" stroke="none" stroke-width="1" fill="none" fill-rule="evenodd" transform="translate(-480.000000, -1791.000000)">
        <g id="019-syrup" transform="translate(480.000000, 1791.000000)" fill="#AFAFAF" fill-rule="nonzero">
            <path d="M62.4973125,41.7797344 C62.1397875,41.3675273 61.62135,41.1311953 61.0746938,41.1311953 L40.4420625,41.1311953 C39.8955375,41.1311953 39.3769687,41.3675273 39.0194437,41.7797344 C38.6619187,42.1919414 38.5020562,42.737625 38.580675,43.2767656 L41.6279062,64.141377 C41.866125,65.7710996 43.2912375,67 44.9430188,67 L56.574,67 C58.2257812,67 59.6507625,65.7710996 59.88885,64.141377 L62.9362125,43.2767656 C63.0148313,42.737625 62.8549687,42.1919414 62.4973125,41.7797344 Z M60.4922062,46.3400527 L48.6437437,46.3400527 C48.0982687,46.3400527 47.6559562,46.7810488 47.6559562,47.3249004 C47.6559562,47.868752 48.0982687,48.309748 48.6437437,48.309748 L60.2045062,48.309748 L57.93375,63.8576738 C57.8361,64.5261035 57.2515125,65.0303047 56.5738687,65.0303047 L44.9428875,65.0303047 C44.2652437,65.0303047 43.6806562,64.5261035 43.5830062,63.8576738 L41.31225,48.309748 L43.9680937,48.309748 C44.5135687,48.309748 44.9558812,47.868752 44.9558812,47.3249004 C44.9558812,46.7810488 44.5135687,46.3400527 43.9680937,46.3400527 L41.02455,46.3400527 L40.551525,43.1008906 L60.9652312,43.1008906 L60.4922062,46.3400527 Z" id="Shape"></path>
            <path d="M33.9022688,22.4467012 L25.9329,16.3546738 L25.9329,14.1653965 C27.5090813,14.0614941 28.7596313,12.7506758 28.7596313,11.1534062 L28.7596313,3.01944922 C28.7596313,1.35452539 27.4010625,0 25.7313,0 L10.2777938,0 C8.60776875,0 7.24933125,1.35452539 7.24933125,3.01944922 L7.24933125,11.1534062 C7.24933125,12.7506758 8.5000125,14.0614941 10.0760625,14.1653965 L10.0760625,16.3546738 L2.10669375,22.4467012 C0.81519375,23.4339043 0.04423125,24.9920469 0.04423125,26.6144414 L0.04423125,61.6526934 C0.04423125,64.4563555 2.33191875,66.7372344 5.14395,66.7372344 L30.8648812,66.7372344 C33.6769125,66.7372344 35.9646,64.4563555 35.9646,61.6526934 L35.9646,26.6145723 C35.9647312,24.9920469 35.1936375,23.4339043 33.9022688,22.4467012 Z M9.22490625,11.1534062 L9.22490625,3.01944922 C9.22490625,2.44052734 9.69714375,1.96969531 10.2777938,1.96969531 L25.7313,1.96969531 C26.3118188,1.96969531 26.7840563,2.44052734 26.7840563,3.01944922 L26.7840563,11.1534062 C26.7840563,11.7321973 26.3118188,12.2031602 25.7313,12.2031602 L10.2777938,12.2031602 C9.69714375,12.2031602 9.22490625,11.7323281 9.22490625,11.1534062 Z M23.957325,14.1728555 L23.957325,15.855707 L12.0516375,15.855707 L12.0516375,14.1728555 L23.957325,14.1728555 Z M30.8650125,64.7676699 L5.14395,64.7676699 C3.42129375,64.7676699 2.01980625,63.3703535 2.01980625,61.6528242 L2.01980625,26.6145723 C2.01980625,25.6006738 2.501625,24.6269492 3.3088125,24.0099473 L11.3989313,17.8255332 L24.6099,17.8255332 L32.70015,24.0099473 C33.5072062,24.6268184 33.989025,25.600543 33.989025,26.6145723 L33.989025,61.6528242 L33.9891562,61.6528242 C33.9891562,63.3703535 32.5876687,64.7676699 30.8650125,64.7676699 Z" id="Shape"></path>
            <path d="M27.5122312,33.703748 L15.5417062,33.703748 C14.9962312,33.703748 14.5539187,34.1447441 14.5539187,34.6885957 C14.5539187,35.2324473 14.9962312,35.6734434 15.5417062,35.6734434 L27.5122312,35.6734434 C27.54045,35.6734434 27.5634187,35.6963438 27.5634187,35.7246094 L27.5634187,49.8035078 C27.5634187,49.8316426 27.54045,49.8546738 27.5122312,49.8546738 L8.49673125,49.8546738 C8.4685125,49.8546738 8.4454125,49.8317734 8.4454125,49.8035078 L8.4454125,35.7244785 C8.4454125,35.6963438 8.46838125,35.6733125 8.49673125,35.6733125 L10.932075,35.6733125 C11.47755,35.6733125 11.9198625,35.2323164 11.9198625,34.6884648 C11.9198625,34.1446133 11.47755,33.7036172 10.932075,33.7036172 L8.49673125,33.7036172 C7.3791375,33.7036172 6.4698375,34.6100801 6.4698375,35.7244785 L6.4698375,49.803377 C6.4698375,50.9176445 7.37900625,51.8242383 8.49673125,51.8242383 L27.5122312,51.8242383 C28.629825,51.8242383 29.5389937,50.9177754 29.5389937,49.803377 L29.5389937,35.7244785 C29.5389937,34.6102109 28.629825,33.703748 27.5122312,33.703748 Z" id="Shape"></path>
        </g>
    </g>
</svg>