<?xml version="1.0" encoding="UTF-8"?>
<svg width="78px" height="67px" viewBox="0 0 78 67" version="1.1" xmlns="http://www.w3.org/2000/svg" xmlns:xlink="http://www.w3.org/1999/xlink">
    <!-- Generator: Sketch 48.2 (47327) - http://www.bohemiancoding.com/sketch -->
    <title>022-heart</title>
    <desc>Created with Sketch.</desc>
    <defs></defs>
    <g id="Artboard" stroke="none" stroke-width="1" fill="none" fill-rule="evenodd" transform="translate(-60.000000, -1922.000000)">
        <g id="022-heart" transform="translate(60.000000, 1922.000000)" fill="#AFAFAF" fill-rule="nonzero">
            <path d="M63.8596491,28.2844018 L55.552269,28.2844018 L49.8596374,22.9935434 C49.3746082,22.5428995 48.6700234,22.4235845 48.0654854,22.6900548 C47.4604912,22.9563721 47.069731,23.5576895 47.069731,24.2218767 L47.069731,33.0713836 L42.7912865,28.767016 C42.4773099,28.451137 42.0597895,28.2772123 41.616117,28.2772123 L36.2547953,28.2772123 L31.0560117,23.0938904 C30.5779766,22.617242 29.8679181,22.4777352 29.2465029,22.7382397 C28.6253918,22.9987443 28.2239883,23.6046507 28.2239883,24.2815342 L28.2239883,33.0568516 L23.816,28.6221553 C23.5021754,28.3064292 23.084655,28.1323516 22.6408304,28.1323516 L13.9883041,28.1323516 C13.3585263,28.1323516 12.8479532,28.6460183 12.8479532,29.2796119 C12.8479532,29.9132055 13.3585263,30.4270251 13.9883041,30.4270251 L22.3846316,30.4270251 L27.6674971,35.7418995 C28.1446199,36.2219132 28.8557427,36.3640205 29.4788304,36.1042808 C30.1020702,35.8445411 30.5048421,35.2381758 30.5048421,34.5594566 L30.5048421,25.7748082 L34.830117,30.0871301 C35.1434854,30.3996438 35.5588772,30.5717329 36.000269,30.5717329 L41.3599181,30.5717329 L46.5133918,35.7562785 C46.8322339,36.0768995 47.2552281,36.246847 47.6868889,36.246847 C47.9014269,36.246847 48.1179415,36.2049338 48.3247251,36.1186598 C48.948117,35.8589201 49.3507368,35.2525548 49.3507368,34.5738356 L49.3507368,25.6441735 L54.1827836,30.1351621 C54.4906784,30.4213653 54.8911696,30.5789224 55.3105146,30.5789224 L63.8596491,30.5789224 C64.4895789,30.5789224 65,30.0652557 65,29.4316621 C65,28.7980685 64.4895789,28.2844018 63.8596491,28.2844018 Z" id="Shape"></path>
            <path d="M45.6014152,53.6484909 L25.3918129,53.6484909 C24.7620351,53.6484909 24.251462,54.1621575 24.251462,54.7957511 C24.251462,55.4293447 24.7620351,55.9430114 25.3918129,55.9430114 L45.6014152,55.9430114 C46.231345,55.9430114 46.7417661,55.4293447 46.7417661,54.7957511 C46.7417661,54.1623105 46.231345,53.6484909 45.6014152,53.6484909 Z" id="Shape"></path>
            <path d="M53.875193,53.6484909 L50.9230526,53.6484909 C50.2931228,53.6484909 49.7827018,54.1621575 49.7827018,54.7957511 C49.7827018,55.4293447 50.2931228,55.9430114 50.9230526,55.9430114 L53.875193,55.9430114 C54.5051228,55.9430114 55.0155439,55.4293447 55.0155439,54.7957511 C55.0155439,54.1623105 54.5051228,53.6484909 53.875193,53.6484909 Z" id="Shape"></path>
            <path d="M74.5269474,0.00596575342 L3.32100585,0.00596575342 C1.48975439,0.00596575342 0,1.50474658 0,3.34709361 L0,58.4916119 C0,60.3338059 1.48975439,61.8327397 3.32100585,61.8327397 L6.90049123,61.8327397 L6.90049123,64.6286895 C6.90049123,65.9330479 7.95539181,66.9943402 9.25189474,66.9943402 L13.4185848,66.9943402 C14.7150877,66.9943402 15.7699883,65.9330479 15.7699883,64.6286895 L15.7699883,61.8327397 L62.078269,61.8327397 L62.078269,64.6286895 C62.078269,65.9330479 63.1331696,66.9943402 64.4296725,66.9943402 L68.5962105,66.9943402 C69.8927135,66.9943402 70.947614,65.9330479 70.947614,64.6286895 L70.947614,61.8327397 L74.5270994,61.8327397 C76.3583509,61.8327397 77.8481053,60.3339589 77.8481053,58.4916119 L77.8481053,3.34709361 C77.8479532,1.50474658 76.3581988,0.00596575342 74.5269474,0.00596575342 Z M13.4891345,64.6286895 C13.4891345,64.6678493 13.4575088,64.6998196 13.4184327,64.6998196 L9.25189474,64.6998196 C9.21297076,64.6998196 9.18119298,64.6680023 9.18119298,64.6286895 L9.18119298,61.8327397 L13.4891345,61.8327397 L13.4891345,64.6286895 Z M68.6667602,64.6286895 C68.6667602,64.6678493 68.6349825,64.6998196 68.5960585,64.6998196 L64.4295205,64.6998196 C64.3905965,64.6998196 64.3588187,64.6680023 64.3588187,64.6286895 L64.3588187,61.8327397 L68.6667602,61.8327397 L68.6667602,64.6286895 Z M75.5672515,58.4916119 C75.5672515,59.0686073 75.1006199,59.5382192 74.5269474,59.5382192 L3.32100585,59.5382192 C2.74748538,59.5382192 2.28070175,59.0687603 2.28070175,58.4916119 L2.28070175,3.34709361 C2.28070175,2.77009817 2.74733333,2.3004863 3.32100585,2.3004863 L74.5269474,2.3004863 C75.1004678,2.3004863 75.5672515,2.76994521 75.5672515,3.34709361 L75.5672515,58.4916119 Z" id="Shape"></path>
            <path d="M70.9856257,5.1369726 L16.8518012,5.1369726 C16.2220234,5.1369726 15.7114503,5.65063927 15.7114503,6.28423288 C15.7114503,6.91782648 16.2220234,7.43149315 16.8518012,7.43149315 L70.4669942,7.43149315 L70.4669942,47.6483196 L7.38095906,47.6483196 L7.38095906,7.43149315 L11.5301637,7.43149315 C12.1599415,7.43149315 12.6705146,6.91782648 12.6705146,6.28423288 C12.6705146,5.65063927 12.1599415,5.1369726 11.5301637,5.1369726 L6.86232749,5.1369726 C5.89074854,5.1369726 5.10040936,5.93225342 5.10040936,6.90971918 L5.10040936,48.1700936 C5.10040936,49.1475594 5.89090058,49.9428402 6.86232749,49.9428402 L70.9856257,49.9428402 C71.9572047,49.9428402 72.7476959,49.1475594 72.7476959,48.1700936 L72.7476959,6.90987215 C72.7476959,5.93240639 71.9572047,5.1369726 70.9856257,5.1369726 Z" id="Shape"></path>
            <path d="M66.9092515,13.3785845 C66.6959298,11.8843927 65.724655,10.7366735 64.3112281,10.308363 C62.5479415,9.77389269 61.2453567,10.4305845 60.4118363,11.1008904 C59.5784678,10.4305845 58.2754269,9.77404566 56.5124444,10.308363 C55.0990175,10.7366735 54.1277427,11.8843927 53.9144211,13.3785845 C53.6440819,15.2724817 54.5961988,18.1108037 58.0797427,20.396758 C58.6024795,20.7397123 59.3893216,21.1944863 59.725345,21.3887557 L59.7983275,21.4308219 C59.9713567,21.531016 60.1674971,21.58379 60.3669825,21.58379 L60.4566901,21.58379 C60.6563275,21.58379 60.8524678,21.531016 61.025345,21.4308219 L61.0983275,21.3887557 C61.4343509,21.1944863 62.221345,20.7397123 62.7439298,20.396758 C66.2274737,18.1109566 67.1795906,15.2726347 66.9092515,13.3785845 Z M61.4979064,18.4750205 C61.1897076,18.6773973 60.7601754,18.9337717 60.4116842,19.1378311 C60.063193,18.9336187 59.6338129,18.6772443 59.325462,18.4750205 C56.7376257,16.7767694 56.0093216,14.8440183 56.1720117,13.7050183 C56.2329825,13.2773196 56.455731,12.7218927 57.1701988,12.5054429 C57.3859532,12.4401256 57.5851345,12.4104498 57.7704795,12.4104498 C58.5294971,12.4104498 59.0609006,12.9051484 59.575883,13.4636347 C59.7916374,13.6976758 60.0945146,13.830605 60.4118363,13.830605 C60.7291579,13.830605 61.0320351,13.6976758 61.2477895,13.4636347 C61.8888187,12.7687009 62.5549357,12.1724315 63.6534737,12.50529 C64.3677895,12.7218927 64.5906901,13.2771667 64.6516608,13.7048653 C64.8141988,14.8438653 64.0858947,16.7767694 61.4979064,18.4750205 Z" id="Shape"></path>
            <path d="M67.9215789,51.3313311 C66.0226667,51.3313311 64.4778713,52.8854863 64.4778713,54.7959041 C64.4778713,56.7063219 66.0226667,58.2604772 67.9215789,58.2604772 C69.8203392,58.2604772 71.3651345,56.7063219 71.3651345,54.7959041 C71.3651345,52.8853333 69.8203392,51.3313311 67.9215789,51.3313311 Z M67.9215789,55.9658037 C67.2802456,55.9658037 66.7585731,55.4409703 66.7585731,54.7957511 C66.7585731,54.150532 67.2803977,53.6256986 67.9215789,53.6256986 C68.5627602,53.6256986 69.0844327,54.150532 69.0844327,54.7957511 C69.0844327,55.4411233 68.5629123,55.9658037 67.9215789,55.9658037 Z" id="Shape"></path>
        </g>
    </g>
</svg>