<?xml version="1.0" encoding="UTF-8"?>
<svg width="30px" height="67px" viewBox="0 0 30 67" version="1.1" xmlns="http://www.w3.org/2000/svg" xmlns:xlink="http://www.w3.org/1999/xlink">
    <!-- Generator: Sketch 48.2 (47327) - http://www.bohemiancoding.com/sketch -->
    <title>030-spray</title>
    <desc>Created with Sketch.</desc>
    <defs></defs>
    <g id="Artboard" stroke="none" stroke-width="1" fill="none" fill-rule="evenodd" transform="translate(-888.000000, -2180.000000)">
        <g id="030-spray" transform="translate(888.000000, 2180.000000)" fill="#AFAFAF" fill-rule="nonzero">
            <path d="M27.5253982,5.42739258 L25.1522124,5.42739258 C24.6059735,5.42739258 24.1634071,5.86380859 24.1634071,6.40216406 C24.1634071,6.94051953 24.6061062,7.37693555 25.1522124,7.37693555 L27.5253982,7.37693555 C28.0716372,7.37693555 28.5142035,6.94051953 28.5142035,6.40216406 C28.5142035,5.86380859 28.0715044,5.42739258 27.5253982,5.42739258 Z" id="Shape"></path>
            <path d="M28.0056637,9.95970703 L25.6324779,8.66001172 C25.1546018,8.39829297 24.5530088,8.56814844 24.2877876,9.03871875 C24.0225664,9.50928906 24.194469,10.1027363 24.6719469,10.3641934 L27.0451327,11.6638887 C27.1972566,11.7472461 27.3619912,11.7867656 27.524469,11.7867656 C27.8719912,11.7867656 28.2090265,11.6057871 28.389823,11.2851816 C28.6549115,10.8146113 28.4830088,10.2211641 28.0056637,9.95970703 Z" id="Shape"></path>
            <path d="M28.3896903,1.51927734 C28.124469,1.04870703 27.5227434,0.879113281 27.045,1.14057031 L24.6718142,2.44026562 C24.1943363,2.70172266 24.0224336,3.29516992 24.2876549,3.76574023 C24.4684513,4.0863457 24.8054867,4.26732422 25.1530088,4.26732422 C25.3154867,4.26732422 25.4802212,4.22780469 25.6323451,4.14444727 L28.005531,2.84475195 C28.4830088,2.58329492 28.6549115,1.98984766 28.3896903,1.51927734 Z" id="Shape"></path>
            <path d="M11.7054425,44.4941504 L9.57384956,44.4941504 L9.57384956,42.3929414 C9.57384956,41.8545859 9.13115044,41.4181699 8.58504425,41.4181699 C8.03880531,41.4181699 7.59623894,41.8545859 7.59623894,42.3929414 L7.59623894,44.4941504 L5.46464602,44.4941504 C4.91840708,44.4941504 4.47584071,44.9305664 4.47584071,45.4689219 C4.47584071,46.0072773 4.91853982,46.4436934 5.46464602,46.4436934 L7.59623894,46.4436934 L7.59623894,48.5450332 C7.59623894,49.0833887 8.03893805,49.5198047 8.58504425,49.5198047 C9.13128319,49.5198047 9.57384956,49.0833887 9.57384956,48.5450332 L9.57384956,46.4436934 L11.7054425,46.4436934 C12.2516814,46.4436934 12.6942478,46.0072773 12.6942478,45.4689219 C12.6942478,44.9305664 12.2515487,44.4941504 11.7054425,44.4941504 Z" id="Shape"></path>
            <path d="M28.9235841,55.2718594 C29.469823,55.2718594 29.9123894,54.8354434 29.9123894,54.2970879 L29.9123894,25.1195039 C29.9123894,23.1740176 28.6461504,21.4787344 26.7618584,20.9009902 L24.1671239,20.1054961 C24.2893805,19.8357949 24.3589381,19.537959 24.3589381,19.2238965 L24.3589381,15.0828516 C24.3589381,13.8869277 23.3718584,12.9138574 22.1587168,12.9138574 L20.645177,12.9138574 L20.645177,8.19114258 L20.645177,4.16198242 L20.645177,2.53553125 C20.645177,1.13742969 19.4913717,0 18.0731416,0 L11.9268584,0 C10.5086283,0 9.35482301,1.13742969 9.35482301,2.53553125 L9.35482301,12.9137266 L7.84128319,12.9137266 C6.62814159,12.9137266 5.64106195,13.8867969 5.64106195,15.0827207 L5.64106195,19.2238965 C5.64106195,19.537959 5.71061947,19.8357949 5.83287611,20.1054961 L3.23814159,20.9009902 C1.35384956,21.4786035 0.0876106195,23.1740176 0.0876106195,25.1195039 L0.0876106195,61.9432012 C0.0876106195,64.7315527 2.38871681,67 5.21721239,67 L24.7826549,67 C27.6111504,67 29.9122566,64.7315527 29.9122566,61.9432012 L29.9122566,58.894832 C29.9122566,58.3564766 29.4695575,57.9200605 28.9234513,57.9200605 C28.3772124,57.9200605 27.934646,58.3564766 27.934646,58.894832 L27.934646,61.9432012 C27.934646,63.656543 26.5206637,65.050457 24.7826549,65.050457 L5.21721239,65.050457 C3.47920354,65.050457 2.06522124,63.656543 2.06522124,61.9432012 L2.06522124,58.2934023 L15.5934956,58.2934023 C16.89,58.2934023 17.944646,57.2535937 17.944646,55.9754902 L17.944646,35.3845059 C17.944646,34.1064023 16.8898673,33.0665938 15.5934956,33.0665938 L9.74814159,33.0665938 C9.20190265,33.0665938 8.75933628,33.5030098 8.75933628,34.0413652 C8.75933628,34.5797207 9.2020354,35.0161367 9.74814159,35.0161367 L15.5934956,35.0161367 C15.7995133,35.0161367 15.9670354,35.1812813 15.9670354,35.384375 L15.9670354,55.9752285 C15.9670354,56.1783223 15.7995133,56.3435977 15.5934956,56.3435977 L2.06535398,56.3435977 L2.06535398,35.0161367 L5.11154867,35.0161367 C5.65778761,35.0161367 6.10035398,34.5797207 6.10035398,34.0413652 C6.10035398,33.5030098 5.65765487,33.0665937 5.11154867,33.0665937 L2.06535398,33.0665937 L2.06535398,25.119373 C2.06535398,24.0324551 2.77274336,23.0852949 3.82553097,22.7625957 L8.29327434,21.3930215 L21.7068584,21.3930215 L26.1746018,22.7625957 C27.2273894,23.0854258 27.9347788,24.0324551 27.9347788,25.119373 L27.9347788,54.2968262 C27.934646,54.8353125 28.3773451,55.2718594 28.9235841,55.2718594 Z M11.3324336,2.53553125 L11.3325664,2.53553125 C11.3325664,2.21243945 11.5992478,1.94967383 11.9268584,1.94967383 L18.0731416,1.94967383 C18.400885,1.94967383 18.6674336,2.21243945 18.6674336,2.53553125 L18.6674336,3.18708008 L16.6961947,3.18708008 C15.8300442,3.18708008 15.1254425,3.88168164 15.1254425,4.73553906 L15.1254425,7.61745508 C15.1254425,8.4713125 15.8300442,9.16591406 16.6961947,9.16591406 L18.6674336,9.16591406 L18.6674336,12.9137266 L11.3324336,12.9137266 L11.3324336,2.53553125 Z M18.6674336,5.13675391 L18.6674336,7.21637109 L17.1031858,7.21637109 L17.1031858,5.13675391 L18.6674336,5.13675391 Z M22.3811947,19.2240273 C22.3811947,19.3449414 22.2813717,19.4434785 22.1587168,19.4434785 L7.84128319,19.4434785 C7.71862832,19.4434785 7.61880531,19.3450723 7.61880531,19.2240273 L7.61880531,15.0828516 C7.61880531,14.9619375 7.71862832,14.8634004 7.84128319,14.8634004 L22.1587168,14.8634004 C22.2813717,14.8634004 22.3811947,14.9618066 22.3811947,15.0828516 L22.3811947,19.2240273 Z" id="Shape"></path>
        </g>
    </g>
</svg>