<?xml version="1.0" encoding="UTF-8"?>
<svg width="58px" height="67px" viewBox="0 0 58 67" version="1.1" xmlns="http://www.w3.org/2000/svg" xmlns:xlink="http://www.w3.org/1999/xlink">
    <!-- Generator: Sketch 48.2 (47327) - http://www.bohemiancoding.com/sketch -->
    <title>034-aids</title>
    <desc>Created with Sketch.</desc>
    <defs></defs>
    <g id="Artboard" stroke="none" stroke-width="1" fill="none" fill-rule="evenodd" transform="translate(-70.000000, -2050.000000)">
        <g id="034-aids" transform="translate(70.000000, 2050.000000)" fill="#AFAFAF" fill-rule="nonzero">
            <path d="M57.1634215,48.0633398 C57.1634215,48.0633398 57.1632915,48.0633398 57.1634215,48.0633398 C45.1077444,41.5521699 36.0931659,34.870752 29.6044484,27.6372383 C25.5444484,23.1112051 22.3846188,18.2671836 20.0646188,12.9921113 C27.7293318,10.8854062 30.281852,10.8822656 37.9509865,12.9693418 C36.2078655,16.941709 33.9893004,20.6607324 31.2623901,24.1955059 C30.9293453,24.6272109 31.0071121,25.2489238 31.43613,25.5840547 C31.865148,25.9191855 32.482991,25.8408008 32.8160359,25.4092266 C37.5362735,19.2906348 40.7872646,12.6408848 42.7266233,5.12602344 C43.0590179,5.55563477 43.4456413,6.1681875 43.8611345,6.99888281 C45.7478251,10.7699883 46.855157,16.0535664 46.1843857,18.0841113 C44.5863946,22.9217207 42.4117848,27.4731406 39.5364933,31.9983887 C39.2438924,32.4588828 39.3777085,33.0707812 39.8353363,33.3652148 C39.9994529,33.4708184 40.1828161,33.5211992 40.3640987,33.5211992 C40.6884305,33.5211992 41.006,33.3598496 41.1936547,33.0645 C44.1577668,28.3994941 46.4009103,23.7036055 48.0509193,18.7084414 C48.6154439,16.9991562 48.2706951,14.4871797 47.881991,12.6807969 C47.3909417,10.3986094 46.5656771,8.00335937 45.6179103,6.1089082 C44.5974484,4.06894141 43.5563094,2.84462109 42.5223229,2.46316602 C42.5098386,2.45793164 42.4968341,2.45335156 42.4839596,2.44850977 C42.4721256,2.44445312 42.4602915,2.43882617 42.4485874,2.43503125 C42.4432556,2.43319922 42.4376637,2.4322832 42.4322018,2.43058203 C42.4267399,2.42888086 42.4215381,2.42652539 42.4159462,2.42495508 C31.3661659,-0.802037109 26.5974215,-0.808318359 15.6566188,2.40663477 C15.6212466,2.41409375 15.5861345,2.42325391 15.5514126,2.43476953 C14.4932377,2.78416406 13.42687,4.02026172 12.3820897,6.10877734 C10.4717309,9.92712305 8.99832287,15.8300586 9.94921076,18.7083105 C12.9008386,27.6437812 17.919139,35.9540059 25.290861,44.113873 C31.8053274,51.324748 40.1820359,58.5034316 51.6531614,66.7055664 C51.9249552,66.8998926 52.2455157,67 52.5694574,67 C52.7560717,67 52.9438565,66.9666309 53.1239686,66.8991074 C53.6165785,66.7139414 53.9847354,66.2966309 54.1087982,65.7827461 L57.9539641,49.8425039 C58.1238027,49.1382188 57.7986906,48.406584 57.1634215,48.0633398 Z M40.9642556,4.06475391 C40.3587668,6.50986133 39.6113991,8.8600957 38.7168206,11.127627 C30.4813408,8.87697656 27.526722,8.88024805 19.2972242,11.1515742 C18.3953632,8.87226563 17.6421435,6.51365625 17.0353543,4.06593164 C26.7549058,1.27614062 31.1712287,1.27614062 40.9642556,4.06475391 Z M52.3310852,64.7615195 C41.2149821,56.7818457 33.0758655,49.7887207 26.7463229,42.7823789 C19.5629058,34.8309707 14.6790717,26.7519746 11.8157444,18.0838496 C11.1449731,16.0533047 12.2523049,10.7697266 14.1389955,6.99849023 C14.5546188,6.16766406 14.9412422,5.55511133 15.2736368,5.12536914 C15.952991,7.75551172 16.7977623,10.2856777 17.8104215,12.7275137 C17.8171839,12.7437402 17.8230359,12.7604902 17.8307085,12.7760625 C20.268139,18.6377773 23.6805157,23.9870469 28.144435,28.9632363 C34.7401794,36.3159629 43.8444888,43.0895059 55.9726009,49.6658437 L52.3310852,64.7615195 Z" id="Shape"></path>
            <path d="M26.3176951,49.2569082 C25.9469372,48.8577871 25.3248027,48.836457 24.9277758,49.2095371 C19.7028341,54.1214746 13.3986502,59.2124277 5.66904484,64.7615195 L2.02752915,49.6661055 C7.80880269,46.5316309 12.7810673,43.4317031 17.2207982,40.1946348 C17.6606099,39.8740293 17.7589238,39.2551953 17.4401839,38.8126289 C17.121704,38.3700625 16.5065919,38.2711328 16.0667803,38.5918691 C11.6326413,41.8248809 6.65088341,44.9229766 0.836578475,48.063209 C0.201179372,48.4064531 -0.123932735,49.1380879 0.0459058296,49.8422422 L3.89120179,65.7826152 C4.01513453,66.2965 4.38342152,66.7138105 4.87603139,66.8989766 C5.0561435,66.9666309 5.24379821,66.9998691 5.43041256,66.9998691 C5.75435426,66.9998691 6.07504484,66.8996309 6.34670852,66.7054355 C14.3598117,60.9758887 20.8768789,55.7259414 26.2703587,50.6556641 C26.6672556,50.282584 26.6883229,49.656291 26.3176951,49.2569082 Z" id="Shape"></path>
        </g>
    </g>
</svg>