<?xml version="1.0" encoding="UTF-8"?>
<svg width="53px" height="67px" viewBox="0 0 53 67" version="1.1" xmlns="http://www.w3.org/2000/svg" xmlns:xlink="http://www.w3.org/1999/xlink">
    <!-- Generator: Sketch 48.2 (47327) - http://www.bohemiancoding.com/sketch -->
    <title>036-urine</title>
    <desc>Created with Sketch.</desc>
    <defs></defs>
    <g id="Artboard" stroke="none" stroke-width="1" fill="none" fill-rule="evenodd" transform="translate(-364.000000, -2050.000000)">
        <g id="036-urine" transform="translate(364.000000, 2050.000000)" fill="#AFAFAF" fill-rule="nonzero">
            <path d="M9.52918905,4.95538281 C8.98323632,4.95538281 8.54077861,5.39467773 8.54077861,5.93643555 L8.54077861,10.9177285 C8.54077861,11.4596172 8.98323632,11.8987813 9.52918905,11.8987813 C10.0751418,11.8987813 10.5175995,11.4594863 10.5175995,10.9177285 L10.5175995,5.93656641 C10.5175995,5.39467773 10.0751418,4.95538281 9.52918905,4.95538281 Z" id="Shape"></path>
            <path d="M18.0145945,4.95538281 C17.4686418,4.95538281 17.0261841,5.39467773 17.0261841,5.93643555 L17.0261841,10.9177285 C17.0261841,11.4596172 17.4686418,11.8987813 18.0145945,11.8987813 C18.5605473,11.8987813 19.003005,11.4594863 19.003005,10.9177285 L19.003005,5.93656641 C19.003005,5.39467773 18.5605473,4.95538281 18.0145945,4.95538281 Z" id="Shape"></path>
            <path d="M26.4998682,4.95538281 C25.9539154,4.95538281 25.5114577,5.39467773 25.5114577,5.93643555 L25.5114577,10.9177285 C25.5114577,11.4596172 25.9539154,11.8987813 26.4998682,11.8987813 C27.0458209,11.8987813 27.4882786,11.4594863 27.4882786,10.9177285 L27.4882786,5.93656641 C27.4882786,5.39467773 27.0458209,4.95538281 26.4998682,4.95538281 Z" id="Shape"></path>
            <path d="M34.9851418,4.95538281 C34.4391891,4.95538281 33.9967313,5.39467773 33.9967313,5.93643555 L33.9967313,10.9177285 C33.9967313,11.4596172 34.4391891,11.8987813 34.9851418,11.8987813 C35.5310945,11.8987813 35.9735522,11.4594863 35.9735522,10.9177285 L35.9735522,5.93656641 C35.9735522,5.39467773 35.5312264,4.95538281 34.9851418,4.95538281 Z" id="Shape"></path>
            <path d="M43.4705473,4.95538281 C42.9245945,4.95538281 42.4821368,5.39467773 42.4821368,5.93643555 L42.4821368,10.9177285 C42.4821368,11.4596172 42.9245945,11.8987813 43.4705473,11.8987813 C44.0165,11.8987813 44.4589577,11.4594863 44.4589577,10.9177285 L44.4589577,5.93656641 C44.4589577,5.39467773 44.0165,4.95538281 43.4705473,4.95538281 Z" id="Shape"></path>
            <path d="M49.8683856,0 L3.13135075,0 C1.43113184,0 0.0479900498,1.37297656 0.0479900498,3.0604082 L0.0479900498,13.7938867 C0.0479900498,15.4813184 1.43113184,16.8542949 3.13135075,16.8542949 L3.90314677,16.8542949 L3.90314677,63.2694609 C3.90314677,65.3264395 5.58912687,66.9998691 7.66153234,66.9998691 L45.338204,66.9998691 C47.4106095,66.9998691 49.0965896,65.3264395 49.0965896,63.2694609 L49.0965896,56.4888516 C49.0965896,55.9469629 48.6541318,55.5077988 48.1081791,55.5077988 C47.5622264,55.5077988 47.1197687,55.9470937 47.1197687,56.4888516 L47.1197687,63.2694609 C47.1197687,64.2444941 46.3205498,65.0377637 45.3383358,65.0377637 L7.66153234,65.0377637 C6.67931841,65.0377637 5.8800995,64.2444941 5.8800995,63.2694609 L5.8800995,58.298375 L11.5637562,58.298375 C12.109709,58.298375 12.5521667,57.8590801 12.5521667,57.3173223 C12.5521667,56.7754336 12.109709,56.3362695 11.5637562,56.3362695 L5.87996766,56.3362695 L5.87996766,49.6306426 L14.3312264,49.6306426 C14.8771791,49.6306426 15.3196368,49.1913477 15.3196368,48.6495898 C15.3196368,48.1077012 14.8771791,47.6685371 14.3312264,47.6685371 L5.87996766,47.6685371 L5.87996766,40.9629102 L11.5636244,40.9629102 C12.1095771,40.9629102 12.5520348,40.5236152 12.5520348,39.9818574 C12.5520348,39.4399687 12.1095771,39.0008047 11.5636244,39.0008047 L5.87996766,39.0008047 L5.87996766,32.2951777 L14.3312264,32.2951777 C14.8771791,32.2951777 15.3196368,31.8558828 15.3196368,31.314125 C15.3196368,30.7723672 14.8771791,30.3330723 14.3312264,30.3330723 L5.87996766,30.3330723 L5.87996766,24.2443164 L10.7837861,24.2443164 C11.3297388,24.2443164 11.7721965,23.8050215 11.7721965,23.2632637 C11.7721965,22.7215059 11.3297388,22.2822109 10.7837861,22.2822109 L5.87996766,22.2822109 L5.87996766,16.8544258 L47.1197687,16.8544258 L47.1197687,22.2822109 L15.4294602,22.2822109 C14.8835075,22.2822109 14.4410498,22.7215059 14.4410498,23.2632637 C14.4410498,23.8050215 14.8835075,24.2443164 15.4294602,24.2443164 L47.1199005,24.2443164 L47.1199005,51.8670293 C47.1199005,52.408918 47.5623582,52.848082 48.1083109,52.848082 C48.6542637,52.848082 49.0967214,52.4087871 49.0967214,51.8670293 L49.0967214,16.8542949 L49.8685174,16.8542949 C51.5687363,16.8542949 52.9518781,15.4813184 52.9518781,13.7938867 L52.9518781,3.0604082 C52.9517463,1.37297656 51.5687363,0 49.8683856,0 Z M50.9747935,13.7938867 C50.9747935,14.3995039 50.4784129,14.8921895 49.8683856,14.8921895 L3.13135075,14.8921895 C2.52132338,14.8921895 2.02494279,14.3995039 2.02494279,13.7938867 L2.02494279,3.0604082 C2.02494279,2.45479102 2.52132338,1.96210547 3.13135075,1.96210547 L49.8683856,1.96210547 C50.4784129,1.96210547 50.9747935,2.45479102 50.9747935,3.0604082 L50.9747935,13.7938867 Z" id="Shape"></path>
        </g>
    </g>
</svg>