<?xml version="1.0" encoding="UTF-8"?>
<svg width="44px" height="67px" viewBox="0 0 44 67" version="1.1" xmlns="http://www.w3.org/2000/svg" xmlns:xlink="http://www.w3.org/1999/xlink">
    <!-- Generator: Sketch 48.2 (47327) - http://www.bohemiancoding.com/sketch -->
    <title>038-medicine</title>
    <desc>Created with Sketch.</desc>
    <defs></defs>
    <g id="Artboard" stroke="none" stroke-width="1" fill="none" fill-rule="evenodd" transform="translate(-77.000000, -2180.000000)">
        <g id="038-medicine" transform="translate(77.000000, 2180.000000)" fill="#AFAFAF" fill-rule="nonzero">
            <path d="M10.587006,3.89201953 C10.0412216,3.89201953 9.59871856,4.33157617 9.59871856,4.87372656 L9.59871856,7.11299219 C9.59871856,7.65514258 10.0412216,8.09469922 10.587006,8.09469922 C11.1327904,8.09469922 11.5752934,7.65514258 11.5752934,7.11299219 L11.5752934,4.87372656 C11.5752934,4.33157617 11.1327904,3.89201953 10.587006,3.89201953 Z" id="Shape"></path>
            <path d="M16.2934371,3.89201953 C15.7476527,3.89201953 15.3051497,4.33157617 15.3051497,4.87372656 L15.3051497,7.11299219 C15.3051497,7.65514258 15.7476527,8.09469922 16.2934371,8.09469922 C16.8392216,8.09469922 17.2817246,7.65514258 17.2817246,7.11299219 L17.2817246,4.87372656 C17.2817246,4.33157617 16.8392216,3.89201953 16.2934371,3.89201953 Z" id="Shape"></path>
            <path d="M22,3.89201953 C21.4542156,3.89201953 21.0117126,4.33157617 21.0117126,4.87372656 L21.0117126,7.11299219 C21.0117126,7.65514258 21.4542156,8.09469922 22,8.09469922 C22.5457844,8.09469922 22.9882874,7.65514258 22.9882874,7.11299219 L22.9882874,4.87372656 C22.9882874,4.33157617 22.5457844,3.89201953 22,3.89201953 Z" id="Shape"></path>
            <path d="M27.7065629,3.89201953 C27.1607784,3.89201953 26.7182754,4.33157617 26.7182754,4.87372656 L26.7182754,7.11299219 C26.7181437,7.65514258 27.1606467,8.09469922 27.7065629,8.09469922 C28.2523473,8.09469922 28.6948503,7.65514258 28.6948503,7.11299219 L28.6948503,4.87372656 C28.6948503,4.33157617 28.2523473,3.89201953 27.7065629,3.89201953 Z" id="Shape"></path>
            <path d="M33.412994,3.89201953 C32.8672096,3.89201953 32.4247066,4.33157617 32.4247066,4.87372656 L32.4247066,7.11299219 C32.4245749,7.65514258 32.8670778,8.09469922 33.412994,8.09469922 C33.9587784,8.09469922 34.4012814,7.65514258 34.4012814,7.11299219 L34.4012814,4.87372656 C34.4012814,4.33157617 33.9587784,3.89201953 33.412994,3.89201953 Z" id="Shape"></path>
            <path d="M31.8279401,38.9983184 L25.5609701,38.9983184 L25.5609701,32.773207 C25.5609701,32.0025762 24.9298204,31.3756289 24.154024,31.3756289 L19.845976,31.3756289 C19.0701796,31.3756289 18.4390299,32.0025762 18.4390299,32.773207 L18.4390299,38.9983184 L12.1720599,38.9983184 C11.3963952,38.9983184 10.7652455,39.6252656 10.7652455,40.3958965 L10.7652455,44.6752598 C10.7652455,45.4458906 11.3963952,46.0728379 12.1720599,46.0728379 L18.4390299,46.0728379 L18.4390299,52.2979492 C18.4390299,53.0685801 19.0701796,53.6955273 19.845976,53.6955273 L24.154024,53.6955273 C24.9298204,53.6955273 25.5609701,53.0685801 25.5609701,52.2979492 L25.5609701,46.0728379 L31.8279401,46.0728379 C32.6036048,46.0728379 33.2347545,45.4458906 33.2347545,44.6752598 L33.2347545,40.3958965 C33.2347545,39.6252656 32.6036048,38.9983184 31.8279401,38.9983184 Z M31.2581796,44.109293 L24.5726826,44.109293 C24.0268982,44.109293 23.5843952,44.5488496 23.5843952,45.091 L23.5843952,51.7319824 L20.4157365,51.7319824 L20.4157365,45.091 C20.4157365,44.5488496 19.9732335,44.109293 19.4274491,44.109293 L12.7419521,44.109293 L12.7419521,40.9617324 L19.4274491,40.9617324 C19.9732335,40.9617324 20.4157365,40.5221758 20.4157365,39.9800254 L20.4157365,33.339043 L23.5843952,33.339043 L23.5843952,39.9800254 C23.5843952,40.5221758 24.0268982,40.9617324 24.5726826,40.9617324 L31.2581796,40.9617324 L31.2581796,44.109293 Z" id="Shape"></path>
            <path d="M41.1641078,19.3263594 L36.3355689,15.0086543 L36.3355689,11.9865879 L37.1881677,11.9865879 C38.8007545,11.9865879 40.1128503,10.6833594 40.1128503,9.08137891 L40.1128503,2.90520898 C40.1128503,1.30322852 38.8007545,0 37.1881677,0 L6.81183234,0 C5.19924551,0 3.8871497,1.30322852 3.8871497,2.90520898 L3.8871497,9.08137891 C3.8871497,10.6832285 5.19911377,11.9865879 6.81183234,11.9865879 L7.66443114,11.9865879 L7.66443114,15.0086543 L2.83589222,19.3263594 C1.11383234,20.8663125 0.126203593,23.0695918 0.126203593,25.3712773 L0.126203593,61.9725137 C0.126203593,64.7446387 2.39668263,67 5.18738922,67 L38.8126108,67 C41.6033174,67 43.8737964,64.7447695 43.8737964,61.9725137 L43.8737964,25.3712773 C43.8737964,23.0695918 42.8861677,20.8663125 41.1641078,19.3263594 Z M6.81183234,10.023043 C6.2891018,10.0231738 5.86385629,9.60075977 5.86385629,9.08150977 L5.86385629,2.90520898 C5.86385629,2.38595898 6.2891018,1.96341406 6.81183234,1.96341406 L37.1881677,1.96341406 C37.7108982,1.96341406 38.1361437,2.38582813 38.1361437,2.90520898 L38.1361437,9.08137891 C38.1361437,9.60062891 37.7108982,10.023043 37.1881677,10.023043 L6.81183234,10.023043 Z M34.358994,11.9865879 L34.358994,14.4641484 L9.64100599,14.4641484 L9.64100599,11.9865879 L34.358994,11.9865879 Z M41.8972216,56.7186406 L35.9350898,56.7186406 C35.3893054,56.7186406 34.9468024,57.1581973 34.9468024,57.7003477 C34.9468024,58.242498 35.3893054,58.6820547 35.9350898,58.6820547 L41.8972216,58.6820547 L41.8972216,61.9725137 C41.8972216,63.6620391 40.5134611,65.0364551 38.8126108,65.0364551 L5.18738922,65.0364551 C3.48653892,65.0364551 2.10277844,63.6620391 2.10277844,61.9725137 L2.10277844,58.6820547 L31.2680599,58.6820547 C31.8138443,58.6820547 32.2563473,58.242498 32.2563473,57.7003477 C32.2563473,57.1581973 31.8138443,56.7186406 31.2680599,56.7186406 L2.10277844,56.7186406 L2.10277844,27.7200723 L8.06491018,27.7200723 C8.61069461,27.7200723 9.0531976,27.2805156 9.0531976,26.7383652 C9.0531976,26.1962148 8.61069461,25.7566582 8.06491018,25.7566582 L2.10277844,25.7566582 L2.10277844,25.3712773 C2.10277844,23.6252207 2.85196407,21.9538848 4.15839521,20.7857031 L9.03198802,16.4275625 L34.9678802,16.4275625 L39.8414731,20.7857031 C41.1479042,21.9538848 41.8970898,23.6253516 41.8970898,25.3712773 L41.8970898,25.7566582 L12.7099401,25.7566582 C12.1641557,25.7566582 11.7216527,26.1962148 11.7216527,26.7383652 C11.7216527,27.2805156 12.1641557,27.7200723 12.7099401,27.7200723 L41.8972216,27.7200723 L41.8972216,56.7186406 Z" id="Shape"></path>
        </g>
    </g>
</svg>