<?xml version="1.0" encoding="UTF-8"?>
<svg width="67px" height="67px" viewBox="0 0 67 67" version="1.1" xmlns="http://www.w3.org/2000/svg" xmlns:xlink="http://www.w3.org/1999/xlink">
    <!-- Generator: Sketch 48.2 (47327) - http://www.bohemiancoding.com/sketch -->
    <title>007-badminton</title>
    <desc>Created with Sketch.</desc>
    <defs></defs>
    <g id="Artboard" stroke="none" stroke-width="1" fill="none" fill-rule="evenodd" transform="translate(-599.000000, -2880.000000)">
        <g id="007-badminton" transform="translate(599.000000, 2880.000000)" fill="#ACAAAC" fill-rule="nonzero">
            <polygon id="Shape" points="6.45856445 48.3179922 4.91638672 50.1394238 16.2482852 61.4723691 16.8652871 62.0906797 18.6890742 60.548502"></polygon>
            <polygon id="Shape" points="9.55482813 44.6586406 8.03424219 46.4559941 8.01147266 46.4822969 20.5247695 58.994416 21.4354199 58.2227383 22.347248 57.4522383"></polygon>
            <path d="M9.19535742,57.8105313 L3.28797266,51.9031465 L2.44680859,52.7454883 C0.868775391,54.3224746 0,56.420543 0,58.652873 C0,59.8834746 0.273234375,61.0697148 0.775210938,62.1541465 L1.20652344,58.4790918 C1.28320703,57.820084 1.87992578,57.3455879 2.53657813,57.428291 C3.19323047,57.5049746 3.66419336,58.1016934 3.58620117,58.757168 L3.19192188,62.1194688 L6.34209961,58.969291 C6.81057617,58.5008145 7.56785938,58.5008145 8.0364668,58.969291 C8.50494336,59.4377676 8.50494336,60.1950508 8.0364668,60.6636582 L4.88628906,63.8138359 L8.24741211,63.4195566 C8.89922266,63.334498 9.49960547,63.8113496 9.5774668,64.4703574 C9.65532813,65.125832 9.18567383,65.721373 8.52784375,65.7992344 L4.85998633,66.2293691 C7.94669727,67.6481465 11.7223828,67.0981445 14.2614473,64.5589492 L15.1026113,63.7177852 L9.19535742,57.8105313 Z" id="Shape"></path>
            <polygon id="Shape" points="12.6499141 41.0003359 11.1077363 42.824123 24.1830742 55.8993301 26.0055527 54.3559746"></polygon>
            <path d="M55.428498,13.2704492 L51.1747832,17.5266504 C50.9410684,17.7603652 50.634334,17.8777461 50.3275996,17.8777461 C50.0208652,17.8777461 49.7141309,17.7603652 49.480416,17.5266504 C49.0119395,17.0581738 49.0119395,16.3008906 49.480416,15.8322832 L53.7354395,11.5772598 L41.9387285,10.1249824 L25.3812227,39.9242793 L23.2578984,43.7455039 L56.4494629,25.3068945 L56.8807754,25.067291 L55.428498,13.2704492 Z" id="Shape"></path>
            <path d="M57.9628516,27.2097207 L35.1541934,39.8800488 L22.1459863,47.106627 L28.1047988,53.0655703 L66.0664492,40.9154082 L67.0010469,36.2494863 L57.9628516,27.2097207 Z M64.401002,37.8178359 C64.305082,38.2228457 64.0080313,38.5475078 63.613752,38.6794141 L56.0144863,41.212459 C55.8887305,41.254334 55.7604883,41.274748 55.6357793,41.274748 C55.1336719,41.274748 54.666373,40.9571523 54.4986113,40.4551758 C54.2889746,39.8273125 54.6280312,39.1478906 55.2558945,38.9394316 L61.0159316,37.0198555 L57.149168,33.1530918 L53.7138477,35.1948906 C53.1434316,35.5339473 52.4100957,35.3459023 52.0710391,34.7766641 C51.7319824,34.2075566 51.9200273,33.4729121 52.4880879,33.1350332 L56.723875,30.6163828 C57.1971934,30.3359512 57.7962676,30.4126348 58.1833496,30.7985391 L64.0786953,36.6938848 C64.375877,36.9897578 64.4969219,37.4140039 64.401002,37.8178359 Z" id="Shape"></path>
            <path d="M30.7578418,0.00588867187 L26.0906113,0.939308594 L13.9404492,38.900959 L19.8993926,44.8599023 L39.796168,9.0443457 L30.7578418,0.00588867187 Z M33.8696777,14.5167539 C33.6456465,14.8929746 33.247834,15.1027422 32.8391602,15.1027422 C32.6307012,15.1027422 32.4197559,15.0488281 32.2280469,14.9338027 C31.6589395,14.5959238 31.4731191,13.8602324 31.810998,13.2921719 L33.8539746,9.85685156 L29.9872109,5.99008789 L28.0676348,11.750125 C27.857998,12.3768105 27.1821094,12.7183535 26.5518906,12.5074082 C25.9228496,12.2977715 25.5836621,11.6195273 25.7934297,10.9916641 L28.3264746,3.39239844 C28.45825,2.99942773 28.7842207,2.70106836 29.1880527,2.60514844 C29.5942402,2.51171484 30.0171777,2.63027344 30.3108262,2.92509961 L36.2061719,8.82162305 C36.5944316,9.20870508 36.6686289,9.81013477 36.3883281,10.2810977 L33.8696777,14.5167539 Z" id="Shape"></path>
        </g>
    </g>
</svg>