<?xml version="1.0" encoding="UTF-8"?>
<svg width="42px" height="67px" viewBox="0 0 42 67" version="1.1" xmlns="http://www.w3.org/2000/svg" xmlns:xlink="http://www.w3.org/1999/xlink">
    <!-- Generator: Sketch 48.2 (47327) - http://www.bohemiancoding.com/sketch -->
    <title>012-soccer-1</title>
    <desc>Created with Sketch.</desc>
    <defs></defs>
    <g id="Artboard" stroke="none" stroke-width="1" fill="none" fill-rule="evenodd" transform="translate(-882.000000, -2988.000000)">
        <g id="012-soccer-1" transform="translate(882.000000, 2988.000000)" fill="#ACAAAC" fill-rule="nonzero">
            <path d="M40.4461465,60.0674629 L36.7275156,60.0674629 L34.6353359,51.7012305 C34.5070938,51.1872148 34.0438516,50.8255195 33.5136094,50.8255195 L31.2031562,50.8255195 L31.2031562,47.3598398 C31.2031562,46.7209844 30.6856074,46.2046133 30.0479297,46.2046133 L27.1840723,46.2046133 L28.5819121,32.9229102 C23.7138125,35.1952832 17.898291,35.1952832 13.0301914,32.9229102 L14.4280313,46.2046133 L11.5641738,46.2046133 C10.9264961,46.2046133 10.4089473,46.7209844 10.4089473,47.3598398 L10.4089473,50.8255195 L8.09849414,50.8255195 C7.56825195,50.8255195 7.1061875,51.1859063 6.97794531,51.7012305 L4.88576563,60.0674629 L1.16713477,60.0674629 C0.529457031,60.0674629 0.0119082031,60.583834 0.0119082031,61.2226895 L0.0119082031,65.8435957 C0.0119082031,66.4824512 0.529457031,66.9988223 1.16713477,66.9988223 L40.4450996,66.9988223 C41.0827773,66.9988223 41.6003262,66.4824512 41.6003262,65.8435957 L41.6003262,61.2226895 C41.601373,60.583834 41.0838242,60.0674629 40.4461465,60.0674629 Z M12.7205781,48.5151973 L28.8938809,48.5151973 L28.8938809,50.8256504 L12.7205781,50.8256504 C12.7205781,50.8256504 12.7205781,48.5151973 12.7205781,48.5151973 Z M26.5834277,56.6017832 C26.5834277,57.2406387 26.0658789,57.7570098 25.4282012,57.7570098 L16.1863887,57.7570098 C15.5487109,57.7570098 15.0311621,57.2406387 15.0311621,56.6017832 C15.0311621,55.9629277 15.5487109,55.4465566 16.1863887,55.4465566 L25.4282012,55.4465566 C26.0658789,55.4465566 26.5834277,55.9629277 26.5834277,56.6017832 Z M39.2909199,64.6883691 L2.32353906,64.6883691 L2.32353906,62.377916 L5.78921875,62.377916 L35.8252402,62.377916 L39.2909199,62.377916 L39.2909199,64.6883691 Z" id="Shape"></path>
            <path d="M32.2150918,14.0049629 L27.4705234,15.9029473 L25.5852324,20.6162402 L28.3150898,24.2551777 L34.7913203,24.2551777 C36.0077891,22.162998 36.7598379,19.7774316 36.9261602,17.2302539 L32.2150918,14.0049629 Z" id="Shape"></path>
            <path d="M29.0429297,26.5657617 L28.1557031,30.5571035 C30.0710918,29.5751348 31.7819473,28.2143281 33.1716738,26.5657617 L29.0429297,26.5657617 Z" id="Shape"></path>
            <path d="M15.2748223,0.991259766 C12.5762402,1.97898633 10.2045449,3.65058398 8.39541406,5.81669922 L10.2010117,11.836623 L14.8346113,13.6907695 L19.6519375,9.83696094 L19.6519375,5.11555469 L15.2748223,0.991259766 Z" id="Shape"></path>
            <path d="M6.71570312,8.25761914 C6.68913867,8.30499023 6.65681641,8.34882813 6.63142969,8.39619922 C6.54715625,8.54865039 6.47662305,8.70699023 6.39810742,8.86179687 C6.23296289,9.18645898 6.06546289,9.51099023 5.92217188,9.8483457 C5.88055859,9.94191016 5.8505918,10.0400547 5.81238086,10.1347969 C5.65063867,10.5333945 5.49700977,10.9353945 5.36876758,11.3477324 C5.34560547,11.4182656 5.33291211,11.4898457 5.31210547,11.560248 C5.18150781,11.9969258 5.06255664,12.4370059 4.97016992,12.8875547 C4.94242773,13.0239102 4.92855664,13.1624902 4.90434766,13.3000234 C4.83970313,13.6627656 4.7772832,14.0255078 4.73684766,14.3951855 L7.90678516,12.225668 L6.71570312,8.25761914 Z" id="Shape"></path>
            <path d="M23.6941836,21.9448555 L17.9180508,21.9448555 L14.8266289,26.0666641 L16.0627266,31.6291035 C17.5634219,32.091168 19.1565039,32.3418945 20.8061172,32.3418945 C22.4557305,32.3418945 24.0488125,32.0901211 25.5495078,31.6291035 L26.7856055,26.0666641 L23.6941836,21.9448555 Z" id="Shape"></path>
            <path d="M26.338459,0.992306641 L21.9613438,5.11660156 L21.9625215,9.83683008 L26.7798477,13.6906387 L31.4134473,11.8376699 L33.2190449,5.81774609 C31.4087363,3.65176172 29.0382187,1.97898633 26.338459,0.992306641 Z" id="Shape"></path>
            <path d="M36.7101113,13.301332 C36.6859023,13.1649766 36.6720313,13.0252188 36.6442891,12.8888633 C36.5507246,12.435959 36.4305957,11.9923457 36.299998,11.5546211 C36.2791914,11.4864434 36.266498,11.4170879 36.2456914,11.349041 C36.1162715,10.9355254 35.9614648,10.5323477 35.7997227,10.13375 C35.7616426,10.0401855 35.7315449,9.94204102 35.6911094,9.8483457 C35.5466406,9.51099023 35.3803184,9.18645898 35.2151738,8.86179687 C35.1366582,8.70699023 35.066125,8.54878125 34.9818516,8.39619922 C34.9552871,8.34882813 34.9241426,8.30499023 34.8975781,8.25761914 L33.7076738,12.2269766 L36.8776113,14.3964941 C36.8371758,14.0268164 36.7760645,13.6628965 36.7101113,13.301332 Z" id="Shape"></path>
            <path d="M14.1427578,15.9029473 L9.39936719,14.0049629 L4.68829883,17.2303848 C4.85579883,19.7776934 5.60784766,22.1632598 6.82313867,24.2553086 L13.2981914,24.2553086 L16.0280488,20.6163711 L14.1427578,15.9029473 Z" id="Shape"></path>
            <path d="M12.5715293,26.5657617 L8.44278516,26.5657617 C9.83251172,28.2143281 11.5433672,29.5751348 13.4587559,30.5571035 L12.5715293,26.5657617 Z" id="Shape"></path>
            <path d="M23.6456348,0.257662109 C21.7568105,-0.0888535156 19.8056973,-0.0854511719 17.9180508,0.265775391 C17.8742129,0.273888672 18.055584,0.436808594 18.0625195,0.443744141 C18.156084,0.531550781 18.2484707,0.618179687 18.3409883,0.705986328 C18.6020527,0.952001953 18.8619395,1.1969707 19.1231348,1.44298633 C19.6234102,1.9143418 20.1235547,2.38569727 20.6226523,2.855875 C20.6838945,2.91358398 20.7451367,2.97142383 20.8074258,3.03031055 C21.1493613,2.70800391 21.4924746,2.38569727 21.8344102,2.06339062 C22.3634746,1.56429297 22.8937168,1.06532617 23.423959,0.566228516 C23.4586367,0.531550781 23.6988945,0.357115234 23.6850234,0.285535156 C23.682668,0.271533203 23.6698437,0.261064453 23.6456348,0.257662109 Z" id="Shape"></path>
            <polygon id="Shape" points="20.8071641 11.8711699 16.4219355 15.3796406 18.1236309 19.6344023 23.4908281 19.6344023 25.1925234 15.3796406"></polygon>
        </g>
    </g>
</svg>