<?xml version="1.0" encoding="UTF-8"?>
<svg width="70px" height="67px" viewBox="0 0 70 67" version="1.1" xmlns="http://www.w3.org/2000/svg" xmlns:xlink="http://www.w3.org/1999/xlink">
    <!-- Generator: Sketch 48.2 (47327) - http://www.bohemiancoding.com/sketch -->
    <title>016-diploma</title>
    <desc>Created with Sketch.</desc>
    <defs></defs>
    <g id="Artboard" stroke="none" stroke-width="1" fill="none" fill-rule="evenodd" transform="translate(-872.000000, -2665.000000)">
        <g id="016-diploma" transform="translate(872.000000, 2665.000000)" fill="#ACAAAC" fill-rule="nonzero">
            <path d="M68.0457944,0.0332298387 L1.11549597,0.0332298387 C0.499798387,0.0332298387 0,0.5318125 0,1.14872581 L0,43.5378427 C0,44.154756 0.499798387,44.6533387 1.11549597,44.6533387 L20.2999194,44.6533387 C19.1564617,45.5278508 18.6890827,46.9278266 19.1197198,48.3032177 C19.5760222,49.7556048 20.912375,50.7149476 22.4640464,50.7149476 C22.4975464,50.7149476 22.5309113,50.7138669 22.5644113,50.7138669 C23.0105827,50.6680746 23.4121774,50.8923085 23.660996,51.2404113 C23.7893226,51.4200685 23.9777601,51.7903246 23.8014798,52.2644577 C23.4244698,53.2829657 23.5583347,54.3460504 24.1137863,55.2059738 L20.227381,61.9424456 C20.0031472,62.3306673 20.0332702,62.8147964 20.3032964,63.1728952 C20.5731875,63.5286976 21.0294899,63.6926855 21.4645847,63.5823246 L24.8445726,62.7379355 L25.6889617,66.1168427 C25.8005383,66.5619335 26.1730907,66.8943669 26.6281774,66.9535323 C26.676131,66.9590706 26.723004,66.9624476 26.7709577,66.9624476 C27.1736331,66.9624476 27.5506431,66.743752 27.748131,66.3834919 L32.2067379,58.2604173 C32.8302702,58.822623 33.655748,59.1539758 34.5794294,59.1539758 C35.5031109,59.1539758 36.3285887,58.822623 36.952121,58.2604173 L41.4108629,66.3845726 C41.6071351,66.743752 41.9842802,66.9635282 42.3869556,66.9635282 C42.4338286,66.9635282 42.4817823,66.9601512 42.5297359,66.9546129 C42.9848226,66.8954476 43.3575101,66.5630141 43.4689516,66.1179234 L44.3133407,62.7390161 L47.6933286,63.5834052 C48.129504,63.6960625 48.5845907,63.530994 48.8546169,63.1739758 C49.1245081,62.8169577 49.154631,62.331748 48.9305323,61.9435262 L45.044127,55.2070544 C45.5995786,54.3459153 45.7346593,53.2828306 45.3564335,52.2654032 C45.1812339,51.7912702 45.3698065,51.4210141 45.4970524,51.2413569 C45.745871,50.893254 46.122881,50.6713165 46.5936371,50.7148125 C48.1966391,50.7181895 49.5720302,49.7878891 50.0383286,48.3041633 C50.4700464,46.9287722 50.0014516,45.5277157 48.858129,44.6542843 L68.0425524,44.6542843 C68.65825,44.6542843 69.1580484,44.1557016 69.1580484,43.5387883 L69.1580484,1.14980645 C69.1612903,0.5318125 68.6614919,0.0332298387 68.0457944,0.0332298387 Z M20.0790625,31.2673871 L14.5015827,31.2673871 C13.8858851,31.2673871 13.3860867,30.7688044 13.3860867,30.1518911 C13.3860867,29.5349778 13.8858851,29.0363952 14.5015827,29.0363952 L20.0790625,29.0363952 C20.6947601,29.0363952 21.1945585,29.5349778 21.1945585,30.1518911 C21.1945585,30.7688044 20.6948952,31.2673871 20.0790625,31.2673871 Z M54.6597077,17.8813004 C55.2754052,17.8813004 55.7752036,18.3798831 55.7752036,18.9967964 C55.7752036,19.6137097 55.2754052,20.1122923 54.6597077,20.1122923 L40.158125,20.1122923 C39.5424274,20.1122923 39.042629,19.6137097 39.042629,18.9967964 C39.042629,18.3798831 39.5424274,17.8813004 40.158125,17.8813004 L54.6597077,17.8813004 Z M47.9667319,13.4193165 C47.9667319,12.8024032 48.4665302,12.3038206 49.0822278,12.3038206 L54.6597077,12.3038206 C55.2754052,12.3038206 55.7752036,12.8024032 55.7752036,13.4193165 C55.7752036,14.0362298 55.2754052,14.5348125 54.6597077,14.5348125 L49.0822278,14.5348125 C48.4663952,14.5348125 47.9667319,14.0360948 47.9667319,13.4193165 Z M55.7752036,24.5742762 C55.7752036,25.1911895 55.2754052,25.6897722 54.6597077,25.6897722 L49.0822278,25.6897722 C48.4665302,25.6897722 47.9667319,25.1911895 47.9667319,24.5742762 C47.9667319,23.9573629 48.4665302,23.4587802 49.0822278,23.4587802 L54.6597077,23.4587802 C55.2755403,23.4587802 55.7752036,23.9573629 55.7752036,24.5742762 Z M45.7357399,24.5742762 C45.7357399,25.1911895 45.2359415,25.6897722 44.620244,25.6897722 L35.6961411,25.6897722 L33.4651492,25.6897722 C32.8494516,25.6897722 32.3496532,25.1911895 32.3496532,24.5742762 C32.3496532,23.9573629 32.8494516,23.4587802 33.4651492,23.4587802 L35.6961411,23.4587802 L44.620244,23.4587802 C45.2359415,23.4587802 45.7357399,23.9573629 45.7357399,24.5742762 Z M44.620244,14.5348125 L35.6961411,14.5348125 L33.4651492,14.5348125 C32.8494516,14.5348125 32.3496532,14.0362298 32.3496532,13.4193165 C32.3496532,12.8024032 32.8494516,12.3038206 33.4651492,12.3038206 L35.6961411,12.3038206 L44.620244,12.3038206 C45.2359415,12.3038206 45.7357399,12.8024032 45.7357399,13.4193165 C45.7357399,14.0362298 45.2359415,14.5348125 44.620244,14.5348125 Z M33.4651492,17.8813004 L35.6961411,17.8813004 C36.3118387,17.8813004 36.8116371,18.3798831 36.8116371,18.9967964 C36.8116371,19.6137097 36.3118387,20.1122923 35.6961411,20.1122923 L33.4651492,20.1122923 L24.5410464,20.1122923 C23.9253488,20.1122923 23.4255504,19.6137097 23.4255504,18.9967964 C23.4255504,18.3798831 23.9253488,17.8813004 24.5410464,17.8813004 L33.4651492,17.8813004 Z M29.0031653,14.5348125 L14.5015827,14.5348125 C13.8858851,14.5348125 13.3860867,14.0362298 13.3860867,13.4193165 C13.3860867,12.8024032 13.8858851,12.3038206 14.5015827,12.3038206 L29.0031653,12.3038206 C29.6188629,12.3038206 30.1186613,12.8024032 30.1186613,13.4193165 C30.1186613,14.0362298 29.6188629,14.5348125 29.0031653,14.5348125 Z M14.5015827,17.8813004 L20.0790625,17.8813004 C20.6947601,17.8813004 21.1945585,18.3798831 21.1945585,18.9967964 C21.1945585,19.6137097 20.6947601,20.1122923 20.0790625,20.1122923 L14.5015827,20.1122923 C13.8858851,20.1122923 13.3860867,19.6137097 13.3860867,18.9967964 C13.3860867,18.3798831 13.88575,17.8813004 14.5015827,17.8813004 Z M14.5015827,23.4587802 L29.0031653,23.4587802 C29.6188629,23.4587802 30.1186613,23.9573629 30.1186613,24.5742762 C30.1186613,25.1911895 29.6188629,25.6897722 29.0031653,25.6897722 L14.5015827,25.6897722 C13.8858851,25.6897722 13.3860867,25.1911895 13.3860867,24.5742762 C13.3860867,23.9573629 13.88575,23.4587802 14.5015827,23.4587802 Z M47.4268145,46.3567056 C48.1084315,46.8039577 47.9701089,47.4488327 47.9120242,47.6351089 C47.7792399,48.0579113 47.3687298,48.5342056 46.6559093,48.4839556 C45.4623367,48.4805786 44.3612944,48.9982077 43.6853508,49.9441774 C43.0383145,50.8477319 42.8821613,52.0056431 43.267006,53.0407661 C43.6005202,53.9387823 42.6780544,54.767502 41.7957077,54.5600181 C41.4566552,54.4796452 41.1687984,54.263246 40.8643266,54.0948004 C40.0220988,53.628502 38.9835988,53.5292177 38.067752,53.8270706 C37.0381673,54.1616653 36.1244819,55.0251008 35.8021794,56.0714355 C35.6091492,56.6994254 35.0447823,56.9247399 34.5806452,56.9247399 C33.6703367,56.9247399 33.4874375,56.2420423 33.138254,55.5648831 C32.7421976,54.7985706 32.0595,54.1816573 31.2530685,53.8771855 C30.3037218,53.518006 29.2005181,53.5971633 28.3115524,54.08575 C27.9411613,54.2898569 27.5864395,54.5677177 27.1648528,54.5977056 C26.335998,54.6579516 25.5953508,53.8458468 25.8942843,53.040496 C26.279129,52.0041573 26.1229758,50.846246 25.4759395,49.9439073 C24.799996,48.9979375 23.6788266,48.4836855 22.505381,48.4836855 C21.7747298,48.5383931 21.3809698,48.057506 21.2492661,47.6348387 C21.1901008,47.4485625 21.0517782,46.8049032 21.7333952,46.3564355 C22.6982762,45.7227722 23.2738548,44.6687379 23.2738548,43.5375726 C23.2738548,42.4064073 22.6982762,41.3511573 21.7344758,40.7187097 C21.0528589,40.2714577 21.1911815,39.6277984 21.2492661,39.4413871 C21.5604919,38.4574597 22.5075423,38.6772359 23.2995202,38.5021714 C25.2862863,38.0649153 26.6281774,36.0123649 25.8941492,34.0357298 C25.6364153,33.3396593 26.0848831,32.9045645 26.2902056,32.7517883 C26.6583004,32.4740625 27.2964214,32.3066976 27.8876694,32.7417923 C28.8145927,33.4244899 30.0272117,33.6152238 31.1304153,33.253748 C32.2180847,32.8956492 33.0312702,32.074629 33.3603266,31.0049254 C33.5533569,30.3769355 34.1188044,30.151621 34.5829415,30.151621 C35.0469435,30.151621 35.6114456,30.3758548 35.8044758,31.0061411 C36.1335323,32.0758448 36.9456371,32.8947036 38.0343871,33.2538831 C39.1365101,33.6186008 40.348994,33.4257056 41.2771331,32.7419274 C41.8671653,32.305752 42.5075827,32.4731169 42.8745968,32.7519234 C42.9259274,32.789881 42.9927923,32.84675 43.0597923,32.920369 C43.1266573,32.9929073 43.1936573,33.0832762 43.2460685,33.1925565 C43.3508911,33.407875 43.3988448,33.6889778 43.2694375,34.0369456 C42.429506,36.3035988 44.3514335,38.5892984 46.6583407,38.593756 C47.4002036,38.543506 47.782752,39.0199355 47.9144556,39.4426028 C47.9222903,39.4659718 47.930125,39.4960948 47.9378246,39.5329718 C47.9946935,39.7873286 48.0258972,40.3294073 47.4291109,40.721006 C46.4642298,41.3534536 45.8886512,42.4087036 45.8886512,43.539869 C45.8886512,44.6710343 46.4630141,45.7231774 47.4268145,46.3567056 Z M47.9667319,30.151756 C47.9667319,29.5348427 48.4665302,29.0362601 49.0822278,29.0362601 L54.6597077,29.0362601 C55.2754052,29.0362601 55.7752036,29.5348427 55.7752036,30.151756 C55.7752036,30.7686694 55.2754052,31.267252 54.6597077,31.267252 L49.0822278,31.267252 C48.4663952,31.2673871 47.9667319,30.7686694 47.9667319,30.151756 Z M64.6256875,36.5491754 C64.2453004,38.6675101 62.3232379,40.1924355 60.0432117,40.1924355 C60.0230847,40.1924355 60.0030927,40.1924355 59.9829657,40.1924355 C56.3106633,40.1489395 53.9848448,39.1974315 52.6786149,38.4065343 C52.2591895,38.1521774 51.7895141,38.0227702 51.3121391,37.9904859 L51.3121391,35.7450403 C52.1978629,35.779621 53.0668367,36.0328972 53.8354456,36.4990605 C54.708877,37.0277661 56.6732198,37.9213246 60.008631,37.9614435 C61.1854536,37.9368589 62.2407036,37.1985081 62.4281956,36.1554153 C62.6390565,34.9796734 61.9629778,34.0850343 61.197746,33.7180202 C61.197746,33.7180202 61.197746,33.7169395 61.1966653,33.7169395 C59.9350121,33.1123185 59.1196653,31.7804234 59.1196653,30.3246593 L59.1196653,14.3640706 C59.1196653,12.9083065 59.9351472,11.5764113 61.1966653,10.9717903 C61.9618972,10.6047762 62.6390565,9.70905645 62.4281956,8.53331452 C62.2408387,7.48914113 61.1754577,6.73957863 60.008631,6.72728629 C56.6732198,6.7663246 54.708877,7.66096371 53.8343649,8.19088508 C53.0088871,8.69176411 52.067375,8.95841331 51.1124899,8.95841331 L18.0477198,8.95841331 C17.0939153,8.95841331 16.1513226,8.69297984 15.3236835,8.19088508 C14.450252,7.66217944 12.4857742,6.76862097 9.15049798,6.72850202 C7.96584073,6.75632863 6.91720968,7.4914375 6.72985282,8.53453024 C6.51899194,9.71027218 7.19615121,10.6049113 7.96030242,10.9719254 C9.22303629,11.577627 10.0385181,12.9095222 10.0385181,14.3652863 L10.0385181,30.325875 C10.0385181,31.7816391 9.22303629,33.1135343 7.96138306,33.7181552 C7.19615121,34.0851694 6.51899194,34.9808891 6.72985282,36.156631 C6.91720968,37.1995887 7.95800605,37.9213246 9.15049798,37.9626593 C12.4859093,37.923621 14.450252,37.0289819 15.3247641,36.4990605 C16.093373,36.0327621 16.9623468,35.7807016 17.8469899,35.746121 L17.8469899,37.9915665 C17.3706956,38.0250665 16.8999395,38.1532581 16.4815948,38.4065343 C15.1753649,39.1985121 12.8484657,40.1489395 9.17724395,40.1935161 C6.86925605,40.1856815 4.91936694,38.6876371 4.53452218,36.550256 C4.17196573,34.5312056 5.1625121,32.5846935 6.99758266,31.7055887 C7.48954637,31.4702782 7.80739113,30.9280645 7.80739113,30.3257399 L7.80739113,14.3651512 C7.80739113,13.7628266 7.48941129,13.2206129 6.99636694,12.9842218 C5.16143145,12.1063327 4.17196573,10.1596855 4.53344153,8.14063508 C4.91490927,6.0223004 6.83697177,4.497375 9.11591734,4.497375 C9.13604435,4.497375 9.15603629,4.497375 9.17616331,4.497375 C12.84725,4.54087097 15.1742843,5.49237903 16.4794335,6.28327621 C16.9591048,6.574375 17.5001028,6.72728629 18.0467742,6.72728629 L51.1114093,6.72728629 C51.6580806,6.72728629 52.1990786,6.57329435 52.6764536,6.28449194 C53.9826835,5.49251411 56.3097177,4.54208669 59.9818851,4.49751008 C62.2820383,4.50534476 64.2408427,6.00338911 64.6246069,8.14077016 C64.9871633,10.1598206 63.9976976,12.1063327 62.1615464,12.9854375 C61.6695827,13.220748 61.3517379,13.7629617 61.3517379,14.3652863 L61.3517379,30.325875 C61.3528185,30.9260383 61.6707984,31.4693327 62.1638427,31.7057238 C63.9987782,32.5836129 64.988244,34.530125 64.6256875,36.5491754 Z" id="Shape"></path>
            <path d="M43.2436371,33.1903952 L43.2436371,33.1918455 C43.4376371,33.3356091 43.5781371,33.5016714 43.6111371,33.6903952 C43.5781371,33.5004024 43.4376371,33.3341588 43.2436371,33.1903952 Z" id="Shape"></path>
            <path d="M34.5806452,34.613875 C29.6601976,34.613875 25.6566774,38.6173952 25.6566774,43.5379778 C25.6566774,48.4585605 29.6601976,52.4620806 34.5806452,52.4620806 C39.5010927,52.4620806 43.504748,48.4585605 43.504748,43.5379778 C43.504748,38.6173952 39.5010927,34.613875 34.5806452,34.613875 Z M38.715869,42.0955867 L34.2538851,46.5575706 C34.0364052,46.7750504 33.7508448,46.8844657 33.4652843,46.8844657 C33.1797238,46.8844657 32.8941633,46.7751855 32.6766835,46.5575706 L30.0507157,43.9316028 C29.6145403,43.4954274 29.6145403,42.7904415 30.0507157,42.3542661 C30.4868911,41.9180907 31.191877,41.9180907 31.6280524,42.3542661 L33.4642036,44.1904173 L37.1375867,40.5170343 C37.5737621,40.0808589 38.278748,40.0808589 38.7149234,40.5170343 C39.1508286,40.9532097 39.1508286,41.6594113 38.715869,42.0955867 Z" id="Shape"></path>
        </g>
    </g>
</svg>