<?xml version="1.0" encoding="UTF-8"?>
<svg width="67px" height="67px" viewBox="0 0 67 67" version="1.1" xmlns="http://www.w3.org/2000/svg" xmlns:xlink="http://www.w3.org/1999/xlink">
    <!-- Generator: Sketch 48.2 (47327) - http://www.bohemiancoding.com/sketch -->
    <title>018-weight-1</title>
    <desc>Created with Sketch.</desc>
    <defs></defs>
    <g id="Artboard" stroke="none" stroke-width="1" fill="none" fill-rule="evenodd" transform="translate(-357.000000, -2779.000000)">
        <g id="018-weight-1" transform="translate(357.000000, 2779.000000)" fill="#ACAAAC" fill-rule="nonzero">
            <path d="M33.5,7.81662305 C19.3383984,7.81662305 7.81662305,19.3373516 7.81662305,33.5 C7.81662305,47.6626484 19.3383984,59.183377 33.5,59.183377 C47.6616016,59.183377 59.183377,47.6626484 59.183377,33.5 C59.183377,19.3373516 47.6616016,7.81662305 33.5,7.81662305 Z M21.7045977,15.8265254 C25.1092969,13.511623 29.1873984,12.2856016 33.4988223,12.283377 C34.1151699,12.283377 34.6154453,12.7824746 34.6154453,13.3989531 C34.6154453,14.0164785 34.1163477,14.5167539 33.4988223,14.5167539 C29.6374238,14.5189785 25.9925977,15.6099531 22.9596699,17.6736055 C22.7675684,17.8042031 22.5487715,17.8667539 22.3320684,17.8667539 C21.9746914,17.8667539 21.6241191,17.6958516 21.407416,17.3776016 C21.0626016,16.86725 21.1954238,16.1726484 21.7045977,15.8265254 Z M17.6801484,22.9497246 C15.6422754,26.0272754 14.5178008,29.7748262 14.516623,33.5010469 C14.516623,34.1173945 14.0163477,34.616623 13.4,34.616623 C12.7836523,34.616623 12.283377,34.1163477 12.283377,33.4988223 C12.2856016,29.3391953 13.5408047,25.1550977 15.8198516,21.7168984 C16.1604785,21.2010508 16.8516777,21.0614238 17.3675254,21.4020508 C17.8801016,21.7437246 18.0207754,22.4361016 17.6801484,22.9497246 Z M45.286373,51.1779238 C41.8269746,53.4904707 37.7510977,54.7143984 33.5,54.716623 C32.8836523,54.716623 32.383377,54.2175254 32.383377,53.6010469 C32.383377,52.9835215 32.8824746,52.4832461 33.5,52.4832461 C37.3089238,52.4810215 40.9549277,51.3888691 44.046873,49.3219453 C44.5582715,48.9780469 45.252873,49.1164961 45.5957246,49.6290723 C45.9373984,50.1416484 45.7989492,50.8352031 45.286373,51.1779238 Z M33.5,48.016623 C25.4957246,48.016623 18.983377,41.5042754 18.983377,33.5 C18.983377,25.4957246 25.4957246,18.983377 33.5,18.983377 C41.5042754,18.983377 48.016623,25.4957246 48.016623,33.5 C48.016623,41.5042754 41.5042754,48.016623 33.5,48.016623 Z M51.1801484,45.2841484 C50.9658008,45.6080254 50.6106484,45.7832461 50.2488223,45.7832461 C50.0366992,45.7832461 49.8222207,45.7229199 49.6324746,45.5967715 C49.1188516,45.2561445 48.9780469,44.5627207 49.3186738,44.0490977 C51.3609961,40.9693223 52.4844238,37.2239961 52.4821992,33.5 C52.4821992,32.8836523 52.9812969,32.383377 53.5988223,32.383377 C54.2151699,32.383377 54.7154453,32.8824746 54.7154453,33.5 C54.7178008,37.6574023 53.4625977,41.8426777 51.1801484,45.2841484 Z" id="Shape"></path>
            <path d="M33.5,21.216623 C26.727373,21.216623 21.216623,26.727373 21.216623,33.5 C21.216623,40.272627 26.727373,45.783377 33.5,45.783377 C40.272627,45.783377 45.783377,40.272627 45.783377,33.5 C45.783377,26.727373 40.272627,21.216623 33.5,21.216623 Z M33.5,40.2 C29.8049238,40.2 26.8,37.1950762 26.8,33.5 C26.8,29.8049238 29.8049238,26.8 33.5,26.8 C37.1950762,26.8 40.2,29.8049238 40.2,33.5 C40.2,37.1950762 37.1938984,40.2 33.5,40.2 Z" id="Shape"></path>
            <path d="M29.033377,33.5 C29.033377,35.5758223 30.4627539,37.3089238 32.383377,37.8081523 L32.383377,29.1919785 C30.462623,29.6910762 29.033377,31.4241777 29.033377,33.5 Z" id="Shape"></path>
            <path d="M33.5,0 C15.0281523,0 0,15.0281523 0,33.5 C0,51.9718477 15.0281523,67 33.5,67 C51.9718477,67 67,51.9718477 67,33.5 C67,15.0281523 51.9718477,0 33.5,0 Z M33.5,61.416623 C18.10675,61.416623 5.58337695,48.89325 5.58337695,33.5 C5.58337695,18.10675 18.10675,5.58337695 33.5,5.58337695 C48.89325,5.58337695 61.416623,18.10675 61.416623,33.5 C61.416623,48.89325 48.89325,61.416623 33.5,61.416623 Z" id="Shape"></path>
            <path d="M34.616623,29.1918477 L34.616623,37.8080215 C36.5372461,37.3089238 37.966623,35.5758223 37.966623,33.4998691 C37.966623,31.4241777 36.537377,29.6910762 34.616623,29.1918477 Z" id="Shape"></path>
        </g>
    </g>
</svg>