<?xml version="1.0" encoding="UTF-8"?>
<svg width="41px" height="67px" viewBox="0 0 41 67" version="1.1" xmlns="http://www.w3.org/2000/svg" xmlns:xlink="http://www.w3.org/1999/xlink">
    <!-- Generator: Sketch 48.2 (47327) - http://www.bohemiancoding.com/sketch -->
    <title>032-app</title>
    <desc>Created with Sketch.</desc>
    <defs></defs>
    <g id="Artboard" stroke="none" stroke-width="1" fill="none" fill-rule="evenodd" transform="translate(-882.000000, -2779.000000)">
        <g id="032-app" transform="translate(882.000000, 2779.000000)" fill="#ACAAAC" fill-rule="nonzero">
            <path d="M35.4891934,0 L4.81431641,0 C2.18796875,0 0.0506425781,2.13732617 0.0506425781,4.76367383 L0.0506425781,8.93324609 L40.2528672,8.93324609 L40.2528672,4.76367383 C40.2528672,2.13732617 38.115541,0 35.4891934,0 Z M25.7362441,6.7 L14.5696211,6.7 C13.9532734,6.7 13.452998,6.19972461 13.452998,5.58337695 C13.452998,4.9670293 13.9532734,4.46675391 14.5696211,4.46675391 L25.7362441,4.46675391 C26.3525918,4.46675391 26.8528672,4.9670293 26.8528672,5.58337695 C26.8528672,6.19972461 26.3525918,6.7 25.7362441,6.7 Z" id="Shape"></path>
            <rect id="Rectangle-path" x="6.75286719" y="45.783377" width="4.46662305" height="4.46662305"></rect>
            <path d="M0.0528671875,11.166623 L0.0528671875,55.8332461 L40.2528672,55.8332461 L40.2528672,11.166623 L0.0528671875,11.166623 Z M5.63624414,14.516623 L7.83612109,14.516623 C8.45246875,14.516623 8.95274414,15.0168984 8.95274414,15.6332461 C8.95274414,16.2495937 8.45246875,16.75 7.83612109,16.75 L5.63624414,16.75 C5.01989648,16.75 4.51962109,16.2497246 4.51962109,15.633377 C4.51962109,15.0170293 5.01989648,14.516623 5.63624414,14.516623 Z M5.63624414,18.983377 L11.2196211,18.983377 C11.8359688,18.983377 12.3362441,19.4836523 12.3362441,20.1 C12.3362441,20.7163477 11.8359687,21.216623 11.2196211,21.216623 L5.63624414,21.216623 C5.01989648,21.216623 4.51962109,20.7163477 4.51962109,20.1 C4.51962109,19.4836523 5.01989648,18.983377 5.63624414,18.983377 Z M13.4528672,51.366623 C13.4528672,51.9829707 12.9525918,52.4832461 12.3362441,52.4832461 L5.63624414,52.4832461 C5.01989648,52.4832461 4.51962109,51.9829707 4.51962109,51.366623 L4.51962109,44.666623 C4.51962109,44.0502754 5.01989648,43.55 5.63624414,43.55 L12.3362441,43.55 C12.9525918,43.55 13.4528672,44.0502754 13.4528672,44.666623 L13.4528672,51.366623 Z M24.6196211,51.366623 C24.6196211,51.9829707 24.1193457,52.4832461 23.502998,52.4832461 L16.802998,52.4832461 C16.1866504,52.4832461 15.686375,51.9829707 15.686375,51.366623 L15.686375,44.666623 C15.686375,44.0502754 16.1866504,43.55 16.802998,43.55 L23.502998,43.55 C24.1193457,43.55 24.6196211,44.0502754 24.6196211,44.666623 L24.6196211,51.366623 Z M24.4933418,37.9599492 C24.0499902,37.9096992 23.6792656,37.5993008 23.5508926,37.1704746 L21.2137441,29.3829023 L17.8625664,39.4363047 C17.7174434,39.8740293 17.317668,40.176707 16.8575664,40.1989531 C16.8396387,40.1989531 16.8218418,40.2001309 16.8039141,40.2001309 C16.3639648,40.2001309 15.9641895,39.942207 15.7833418,39.5368047 L12.2769648,31.6487324 L11.1022402,33.9993594 C10.913541,34.3779355 10.5260664,34.6168848 10.1028672,34.6168848 L6.75286719,34.6168848 C6.13651953,34.6168848 5.63624414,34.1166094 5.63624414,33.5002617 C5.63624414,32.8839141 6.13651953,32.3836387 6.75286719,32.3836387 L9.41271484,32.3836387 L11.3367402,28.534541 C11.5298887,28.1481133 11.9341133,27.8935918 12.3607148,27.9181934 C12.7928125,27.9282695 13.1802871,28.1861934 13.3556387,28.5803418 L16.6531641,35.9994141 L20.209791,25.3308418 C20.3649902,24.8685156 20.7669902,24.548041 21.2862402,24.5670156 C21.773168,24.5748672 22.1985918,24.8963887 22.3392656,25.3631641 L24.9411426,34.0374395 L28.1169688,28.4798418 C28.3213711,28.1224648 28.7110703,27.8947695 29.1175195,27.9181934 C29.5295957,27.9293164 29.9013672,28.1672187 30.0856172,28.534541 L32.0118672,32.3836387 L33.5550918,32.3836387 C34.1714395,32.3836387 34.6717148,32.8839141 34.6717148,33.5002617 C34.6717148,34.1166094 34.1714395,34.6168848 33.5550918,34.6168848 L31.3217148,34.6168848 C30.8995625,34.6168848 30.5120879,34.3779355 30.3223418,33.9993594 L29.0225156,31.3986602 L25.5909902,37.4030117 C25.3677441,37.7914023 24.9344688,38.0136016 24.4933418,37.9599492 Z M14.5696211,20.1 C14.5696211,19.4836523 15.0698965,18.983377 15.6862441,18.983377 L27.9696211,18.983377 C28.5859687,18.983377 29.0862441,19.4836523 29.0862441,20.1 C29.0862441,20.7163477 28.5859688,21.216623 27.9696211,21.216623 L15.6862441,21.216623 C15.0698965,21.216623 14.5696211,20.7163477 14.5696211,20.1 Z M35.7862441,51.366623 C35.7862441,51.9829707 35.2859688,52.4832461 34.6696211,52.4832461 L27.9696211,52.4832461 C27.3532734,52.4832461 26.852998,51.9829707 26.852998,51.366623 L26.852998,44.666623 C26.852998,44.0502754 27.3532734,43.55 27.9696211,43.55 L34.6696211,43.55 C35.2859688,43.55 35.7862441,44.0502754 35.7862441,44.666623 L35.7862441,51.366623 Z M34.6696211,21.216623 L32.4362441,21.216623 C31.8198965,21.216623 31.3196211,20.7163477 31.3196211,20.1 C31.3196211,19.4836523 31.8198965,18.983377 32.4362441,18.983377 L34.6696211,18.983377 C35.2859688,18.983377 35.7862441,19.4836523 35.7862441,20.1 C35.7862441,20.7163477 35.2859688,21.216623 34.6696211,21.216623 Z M34.6696211,16.75 L12.3362441,16.75 C11.7198965,16.75 11.2196211,16.2497246 11.2196211,15.633377 C11.2196211,15.0170293 11.7198965,14.5167539 12.3362441,14.5167539 L34.6696211,14.5167539 C35.2859688,14.5167539 35.7862441,15.0170293 35.7862441,15.633377 C35.7862441,16.2497246 35.2859688,16.75 34.6696211,16.75 Z" id="Shape"></path>
            <rect id="Rectangle-path" x="29.0862441" y="45.783377" width="4.46662305" height="4.46662305"></rect>
            <rect id="Rectangle-path" x="17.9196211" y="45.783377" width="4.46662305" height="4.46662305"></rect>
            <path d="M0.0528671875,58.066623 L0.0528671875,62.2363262 C0.0528671875,64.8626738 2.19019336,67 4.81654102,67 L35.4903711,67 C38.1167187,67 40.2540449,64.8626738 40.2540449,62.2363262 L40.2540449,58.066623 L0.0528671875,58.066623 Z M11.2196211,62.533377 L6.75299805,62.533377 C6.13665039,62.533377 5.636375,62.0331016 5.636375,61.4167539 C5.636375,60.8004062 6.13665039,60.3001309 6.75299805,60.3001309 L11.2196211,60.3001309 C11.8359688,60.3001309 12.3362441,60.8004062 12.3362441,61.4167539 C12.3362441,62.0331016 11.8359688,62.533377 11.2196211,62.533377 Z M23.5028672,62.533377 L16.8028672,62.533377 C16.1865195,62.533377 15.6862441,62.0331016 15.6862441,61.4167539 C15.6862441,60.8004062 16.1865195,60.3001309 16.8028672,60.3001309 L23.5028672,60.3001309 C24.1192148,60.3001309 24.6194902,60.8004062 24.6194902,61.4167539 C24.6194902,62.0331016 24.1193457,62.533377 23.5028672,62.533377 Z M33.5528672,62.533377 L29.0862441,62.533377 C28.4698965,62.533377 27.9696211,62.0331016 27.9696211,61.4167539 C27.9696211,60.8004062 28.4698965,60.3001309 29.0862441,60.3001309 L33.5528672,60.3001309 C34.1692148,60.3001309 34.6694902,60.8004062 34.6694902,61.4167539 C34.6694902,62.0331016 34.1693457,62.533377 33.5528672,62.533377 Z" id="Shape"></path>
        </g>
    </g>
</svg>