<?xml version="1.0" encoding="UTF-8"?>
<svg width="70px" height="67px" viewBox="0 0 70 67" version="1.1" xmlns="http://www.w3.org/2000/svg" xmlns:xlink="http://www.w3.org/1999/xlink">
    <!-- Generator: Sketch 48.2 (47327) - http://www.bohemiancoding.com/sketch -->
    <title>039-punching-ball</title>
    <desc>Created with Sketch.</desc>
    <defs></defs>
    <g id="Artboard" stroke="none" stroke-width="1" fill="none" fill-rule="evenodd" transform="translate(-64.000000, -2540.000000)">
        <g id="039-punching-ball" transform="translate(64.000000, 2540.000000)" fill="#ACAAAC" fill-rule="nonzero">
            <path d="M68.0086472,64.6174476 L63.3979395,64.6174476 C62.7617097,64.6174476 62.2452964,65.1338609 62.2452964,65.7700907 C62.2452964,66.4063206 62.7617097,66.9227339 63.3979395,66.9227339 L68.0086472,66.9227339 C68.644877,66.9227339 69.1612903,66.4063206 69.1612903,65.7700907 C69.1612903,65.1338609 68.644877,64.6174476 68.0086472,64.6174476 Z" id="Shape"></path>
            <path d="M25.3590948,64.6174476 L1.15264315,64.6174476 C0.516413306,64.6174476 0,65.1338609 0,65.7700907 C0,66.4063206 0.516413306,66.9227339 1.15264315,66.9227339 L25.3590948,66.9227339 C25.9953246,66.9227339 26.5117379,66.4063206 26.5117379,65.7700907 C26.5117379,65.1338609 25.9954597,64.6174476 25.3590948,64.6174476 Z" id="Shape"></path>
            <path d="M55.3290323,64.6174476 L43.8021956,64.6174476 C43.1659657,64.6174476 42.6495524,65.1338609 42.6495524,65.7700907 C42.6495524,66.4063206 43.1659657,66.9227339 43.8021956,66.9227339 L55.3290323,66.9227339 C55.9652621,66.9227339 56.4816754,66.4063206 56.4816754,65.7700907 C56.4816754,65.1338609 55.9652621,64.6174476 55.3290323,64.6174476 Z" id="Shape"></path>
            <path d="M68.0086472,49.6324113 L64.5505827,49.6324113 C63.9143528,49.6324113 63.3979395,50.1488246 63.3979395,50.7850544 C63.3979395,51.4212843 63.9143528,51.9376976 64.5505827,51.9376976 L68.0086472,51.9376976 C68.644877,51.9376976 69.1612903,51.4212843 69.1612903,50.7850544 C69.1612903,50.1488246 68.644877,49.6324113 68.0086472,49.6324113 Z" id="Shape"></path>
            <path d="M59.9397399,49.6324113 L47.260125,49.6324113 C46.6238952,49.6324113 46.1074819,50.1488246 46.1074819,50.7850544 C46.1074819,51.4212843 46.6238952,51.9376976 47.260125,51.9376976 L59.9397399,51.9376976 C60.5759698,51.9376976 61.0923831,51.4212843 61.0923831,50.7850544 C61.0923831,50.1488246 60.5761048,49.6324113 59.9397399,49.6324113 Z" id="Shape"></path>
            <path d="M47.2602601,45.0217036 L43.8021956,45.0217036 C43.1659657,45.0217036 42.6495524,45.5381169 42.6495524,46.1743468 C42.6495524,46.8105766 43.1659657,47.3269899 43.8021956,47.3269899 L47.2602601,47.3269899 C47.8964899,47.3269899 48.4129032,46.8105766 48.4129032,46.1743468 C48.4129032,45.5381169 47.8964899,45.0217036 47.2602601,45.0217036 Z" id="Shape"></path>
            <path d="M64.5505827,45.0217036 L51.8709677,45.0217036 C51.2347379,45.0217036 50.7183246,45.5381169 50.7183246,46.1743468 C50.7183246,46.8105766 51.2347379,47.3269899 51.8709677,47.3269899 L64.5505827,47.3269899 C65.1868125,47.3269899 65.7032258,46.8105766 65.7032258,46.1743468 C65.7032258,45.5381169 65.1868125,45.0217036 64.5505827,45.0217036 Z" id="Shape"></path>
            <path d="M47.2602601,54.243254 L43.8021956,54.243254 C43.1659657,54.243254 42.6495524,54.7596673 42.6495524,55.3958972 C42.6495524,56.032127 43.1659657,56.5485403 43.8021956,56.5485403 L47.2602601,56.5485403 C47.8964899,56.5485403 48.4129032,56.032127 48.4129032,55.3958972 C48.4129032,54.7596673 47.8964899,54.243254 47.2602601,54.243254 Z" id="Shape"></path>
            <path d="M64.5505827,54.243254 L51.8709677,54.243254 C51.2347379,54.243254 50.7183246,54.7596673 50.7183246,55.3958972 C50.7183246,56.032127 51.2347379,56.5485403 51.8709677,56.5485403 L64.5505827,56.5485403 C65.1868125,56.5485403 65.7032258,56.032127 65.7032258,55.3958972 C65.7032258,54.7596673 65.1868125,54.243254 64.5505827,54.243254 Z" id="Shape"></path>
            <path d="M4.61070766,49.6324113 L1.15264315,49.6324113 C0.516413306,49.6324113 3.55271368e-15,50.1488246 3.55271368e-15,50.7850544 C3.55271368e-15,51.4212843 0.516413306,51.9376976 1.15264315,51.9376976 L4.61070766,51.9376976 C5.2469375,51.9376976 5.76335081,51.4212843 5.76335081,50.7850544 C5.76335081,50.1488246 5.24707258,49.6324113 4.61070766,49.6324113 Z" id="Shape"></path>
            <path d="M21.9010302,49.6324113 L9.2215504,49.6324113 C8.58532056,49.6324113 8.06890726,50.1488246 8.06890726,50.7850544 C8.06890726,51.4212843 8.58532056,51.9376976 9.2215504,51.9376976 L21.9011653,51.9376976 C22.5373952,51.9376976 23.0538085,51.4212843 23.0538085,50.7850544 C23.0538085,50.1488246 22.5373952,49.6324113 21.9010302,49.6324113 Z" id="Shape"></path>
            <path d="M25.3590948,54.243254 L21.9010302,54.243254 C21.2648004,54.243254 20.7483871,54.7596673 20.7483871,55.3958972 C20.7483871,56.032127 21.2648004,56.5485403 21.9010302,56.5485403 L25.3590948,56.5485403 C25.9953246,56.5485403 26.5117379,56.032127 26.5117379,55.3958972 C26.5117379,54.7596673 25.9954597,54.243254 25.3590948,54.243254 Z" id="Shape"></path>
            <path d="M17.2903226,54.243254 L4.61070766,54.243254 C3.97447782,54.243254 3.45806452,54.7596673 3.45806452,55.3958972 C3.45806452,56.032127 3.97447782,56.5485403 4.61070766,56.5485403 L17.2903226,56.5485403 C17.9265524,56.5485403 18.4429657,56.032127 18.4429657,55.3958972 C18.4429657,54.7596673 17.9265524,54.243254 17.2903226,54.243254 Z" id="Shape"></path>
            <path d="M25.3590948,45.0217036 L21.9010302,45.0217036 C21.2648004,45.0217036 20.7483871,45.5381169 20.7483871,46.1743468 C20.7483871,46.8105766 21.2648004,47.3269899 21.9010302,47.3269899 L25.3590948,47.3269899 C25.9953246,47.3269899 26.5117379,46.8105766 26.5117379,46.1743468 C26.5117379,45.5381169 25.9954597,45.0217036 25.3590948,45.0217036 Z" id="Shape"></path>
            <path d="M17.2903226,45.0217036 L4.61070766,45.0217036 C3.97447782,45.0217036 3.45806452,45.5381169 3.45806452,46.1743468 C3.45806452,46.8105766 3.97447782,47.3269899 4.61070766,47.3269899 L17.2903226,47.3269899 C17.9265524,47.3269899 18.4429657,46.8105766 18.4429657,46.1743468 C18.4429657,45.5381169 17.9265524,45.0217036 17.2903226,45.0217036 Z" id="Shape"></path>
            <path d="M39.1902722,60.0055242 L38.037629,60.0055242 L38.037629,53.0893952 C38.037629,52.4531653 37.5212157,51.936752 36.8849859,51.936752 L35.7323427,51.936752 C35.7323427,48.8163891 35.7323427,45.6960262 35.7323427,42.5757984 C35.7323427,40.3545323 35.7323427,38.1334012 35.7323427,35.9121351 C35.7335585,34.6684476 35.675879,33.4211129 35.7473367,32.1924194 C35.816498,30.992498 36.0054758,29.8086512 36.4885242,28.6570887 C37.1144879,27.1632319 38.0884194,25.872131 39.3737117,24.8842863 C40.0099415,22.2665585 40.3454819,19.2753327 40.3454819,16.2045444 C40.3454819,6.85966532 37.3484476,0.207483871 34.6581815,0.0807782258 C34.615496,0.0807782258 34.5729456,0.077266129 34.5302601,0.077266129 C31.8271613,0.162502016 28.8175645,6.80320161 28.8175645,16.2045444 C28.8175645,19.2787097 29.1541855,22.2722319 29.7904153,24.8911754 C29.8699778,24.9522319 29.9402198,25.0236895 30.0174859,25.0871774 C32.2814375,26.9522359 33.4328649,29.690996 33.4271915,32.6130605 C33.4248952,33.8152782 33.4271915,35.017631 33.4271915,36.2198488 C33.4271915,40.1874375 33.4271915,44.1548911 33.4271915,48.1213992 C33.4271915,49.3927782 33.4271915,50.665373 33.4271915,51.936752 L32.2745484,51.936752 C31.6383185,51.936752 31.1219052,52.4531653 31.1219052,53.0893952 L31.1219052,60.0055242 L29.9692621,60.0055242 C29.3330323,60.0055242 28.816619,60.5219375 28.816619,61.1581673 L28.816619,65.768875 C28.816619,66.4051048 29.3330323,66.9215181 29.9692621,66.9215181 L39.1908125,66.9215181 C39.8270423,66.9215181 40.3434556,66.4051048 40.3434556,65.768875 L40.3434556,61.1581673 C40.3429153,60.5219375 39.826502,60.0055242 39.1902722,60.0055242 Z" id="Shape"></path>
            <path d="M43.4447722,3.67932661 C42.1963569,2.45860282 40.7439698,1.53532661 39.1671734,0.926653226 C41.3065806,4.19573992 42.6494173,9.72864315 42.6494173,16.2044093 C42.6494173,18.5927702 42.4454456,20.9304758 42.074244,23.1170262 C45.30875,20.696381 47.260125,16.8660343 47.260125,12.7463448 C47.2602601,9.30570565 45.9058065,6.08619355 43.4447722,3.67932661 Z" id="Shape"></path>
            <path d="M29.9145544,0.997030242 C25.4225827,2.83439718 22.1085141,7.20547177 21.9103508,12.2345242 C21.7420403,16.4891593 23.7350202,20.5892621 27.0859657,23.1124335 C26.7147641,20.9280444 26.5107923,18.5904738 26.5107923,16.2031935 C26.511873,9.76322379 27.8305302,4.2719254 29.9145544,0.997030242 Z" id="Shape"></path>
        </g>
    </g>
</svg>