<?xml version="1.0" encoding="UTF-8"?>
<svg width="50px" height="67px" viewBox="0 0 50 67" version="1.1" xmlns="http://www.w3.org/2000/svg" xmlns:xlink="http://www.w3.org/1999/xlink">
    <!-- Generator: Sketch 48.2 (47327) - http://www.bohemiancoding.com/sketch -->
    <title>shield@3x</title>
    <desc>Created with Sketch.</desc>
    <defs></defs>
    <g id="Artboard" stroke="none" stroke-width="1" fill="none" fill-rule="evenodd" transform="translate(-2137.000000, -1170.000000)">
        <g id="shield" transform="translate(2137.000000, 1170.000000)" fill="#AFAFAF" fill-rule="nonzero">
            <path d="M48.9464935,8.55214591 L25.3967532,0.209733463 C25.0990909,0.103758755 24.7716883,0.103758755 24.4741558,0.209733463 L0.924415584,8.55214591 C0.371168831,8.74897471 0.00038961039,9.27454669 0.00038961039,9.86385992 L0.00038961039,26.5486848 C0.00038961039,48.1406732 3.19038961,56.0323346 24.3118182,66.7210506 C24.5079221,66.8201167 24.7216883,66.8704319 24.9354545,66.8704319 C25.1492208,66.8704319 25.362987,66.8202471 25.5590909,66.7210506 C46.6805195,56.0323346 49.8705195,48.1406732 49.8705195,26.5486848 L49.8705195,9.86385992 C49.8705195,9.27454669 49.4997403,8.74910506 48.9464935,8.55214591 Z M47.0998701,26.5486848 C47.0998701,47.2295253 44.4727273,53.9235292 24.9353247,63.9211284 C5.39805195,53.9235292 2.77090909,47.2295253 2.77090909,26.5486848 L2.77090909,10.8482646 L24.1150649,3.28664981 L27.43,12.1572412 L17.1783117,19.8750156 C16.8292208,20.1370195 16.6236364,20.5498385 16.6236364,20.9870331 C16.6236364,21.4242276 16.8292208,21.8370467 17.1783117,22.0990506 L26.9822078,29.4801304 L19.8001299,36.6887568 C19.258961,37.2319261 19.258961,38.1117899 19.8001299,38.6548288 L28.1118182,46.9972412 C28.3823377,47.2687607 28.7368831,47.4045856 29.0912987,47.4045856 C29.4457143,47.4045856 29.8001299,47.2687607 30.0707792,46.9972412 C30.6119481,46.454072 30.6119481,45.5742082 30.0707792,45.0311693 L22.7385714,37.671858 L30.0707792,30.3125467 C30.3549351,30.0273405 30.501039,29.6336829 30.4725974,29.2303794 C30.4441558,28.8285097 30.244026,28.4590973 29.9219481,28.217428 L20.3183117,20.9870331 L29.9219481,13.7566381 C30.4144156,13.3859222 30.6037662,12.7341712 30.3887013,12.1558074 L27.2762338,3.82525681 L47.1,10.8482646 L47.1,26.5486848 L47.0998701,26.5486848 Z" id="Shape"></path>
        </g>
    </g>
</svg>