<?xml version="1.0" encoding="UTF-8"?>
<svg width="47px" height="67px" viewBox="0 0 47 67" version="1.1" xmlns="http://www.w3.org/2000/svg" xmlns:xlink="http://www.w3.org/1999/xlink">
    <!-- Generator: Sketch 48.2 (47327) - http://www.bohemiancoding.com/sketch -->
    <title>star-shape-award-symbol@3x</title>
    <desc>Created with Sketch.</desc>
    <defs></defs>
    <g id="Artboard" stroke="none" stroke-width="1" fill="none" fill-rule="evenodd" transform="translate(-2597.000000, -1281.000000)">
        <g id="star-shape-award-symbol" transform="translate(2597.000000, 1281.000000)" fill="#AFAFAF" fill-rule="nonzero">
            <path d="M39.5746087,54.7180625 C39.5746087,51.8245 37.2351304,49.4774063 34.3509565,49.4774063 L25.9676522,49.4774063 L25.9676522,36.7809062 L36.4483478,43.7886875 C36.8991304,44.0901875 37.4876522,44.077625 37.9238261,43.7572812 C38.36,43.4369375 38.554087,42.8820938 38.408,42.3586562 L34.2883478,27.6249375 L46.2528696,18.131875 C46.6765217,17.7947813 46.8476522,17.2294688 46.6806957,16.7144063 C46.5137391,16.1993438 46.042087,15.8413125 45.5057391,15.820375 L30.2667826,15.19225 L24.9638261,0.845875 C24.7801739,0.33709375 24.296,0 23.7554783,0 C23.2149565,0 22.7328696,0.33709375 22.5429565,0.845875 L17.2441739,15.19225 L2.00313043,15.8182812 C1.46469565,15.8413125 0.995130435,16.19725 0.826086957,16.7144062 C0.659130435,17.2294687 0.828173913,17.7947812 1.256,18.131875 L13.2205217,27.6249375 L9.10504348,42.3565625 C8.95895652,42.88 9.15095652,43.4390312 9.58713043,43.7551875 C10.0233043,44.0734375 10.6118261,44.086 11.0626087,43.7865937 L21.5453913,36.7788125 L21.5453913,49.4753125 L13.16,49.4753125 C10.2758261,49.4753125 7.93634783,51.8224062 7.93634783,54.7159687 L7.93634783,59.1589062 L3.512,59.1589062 L3.512,66.422125 L43.9947826,66.422125 L43.9947826,59.1589062 L39.5704348,59.1589062 L39.5704348,54.7180625 L39.5746087,54.7180625 Z M16.2674783,26.6304062 L5.81808696,18.34125 L23.7596522,21.6472812 L23.7596522,5.26159375 L28.3926957,17.7926875 L41.7012174,18.3391563 L41.6135652,18.40825 L23.7596522,21.6451875 L12.7593043,39.2054688 L16.2674783,26.6304062 Z M41.8535652,61.3112812 L41.8535652,64.2676562 L5.66156522,64.2676562 L5.66156522,61.3112812 L41.8535652,61.3112812 Z" id="Shape"></path>
        </g>
    </g>
</svg>