<?xml version="1.0" encoding="UTF-8"?>
<svg width="88px" height="67px" viewBox="0 0 88 67" version="1.1" xmlns="http://www.w3.org/2000/svg" xmlns:xlink="http://www.w3.org/1999/xlink">
    <!-- Generator: Sketch 48.2 (47327) - http://www.bohemiancoding.com/sketch -->
    <title>diamond-sketch@3x</title>
    <desc>Created with Sketch.</desc>
    <defs></defs>
    <g id="Artboard" stroke="none" stroke-width="1" fill="none" fill-rule="evenodd" transform="translate(-2604.000000, -251.000000)">
        <g id="diamond-sketch" transform="translate(2604.000000, 251.000000)" fill="#AFAFAF" fill-rule="nonzero">
            <path d="M86.9516718,23.3734932 C86.9539282,23.3712297 86.9566359,23.3698716 86.9593436,23.3676081 C87.9648,22.373473 87.1637744,20.8311149 85.8753641,20.7423851 C86.8812718,20.8116486 86.3532718,20.657277 85.6217436,20.1543243 C84.7904821,19.5825608 84.0485744,18.9130135 83.3035077,18.2339595 C81.1120821,16.2366351 79.0587487,14.0813176 76.9629949,11.9848514 C73.571159,8.59139189 69.4685538,3.56186486 64.5892923,2.36672973 C64.4484923,2.33232432 64.3221333,2.34409459 64.1912615,2.34183108 C64.1447795,1.68541216 63.6754462,1.04483784 63.0206359,0.826182432 C59.4961231,-0.351297297 54.1204513,0.846554054 50.3450256,0.719344595 C44.3998359,0.518797297 38.4690872,0.134452703 32.5171282,0.155277027 C28.7236513,0.168405405 24.6887385,0.285202703 21.2066462,1.93258784 C20.8835282,2.08560135 20.536041,2.43463514 20.2621128,2.85021622 C20.225559,2.85112162 20.1894564,2.84116216 20.1524513,2.84614189 C16.3734154,3.35316892 13.3678769,8.02189189 11.032041,10.7503311 C7.50933333,14.8653986 4.048,19.0954527 0.784328205,23.4201216 C-0.4928,25.112777 2.21218462,27.0367635 3.63778462,25.6288581 C7.08151795,22.2295135 9.97107692,18.2602162 13.0781538,14.5575608 C14.6107077,12.7313581 16.1983179,10.9567635 17.8518154,9.24011486 C19.0969026,7.94719595 20.5225026,7.02277703 21.3591795,5.50486486 C22.7820718,5.66421622 24.4581333,4.89643243 25.7618872,4.66600676 C30.8221128,3.77237162 36.2483282,4.26808108 41.3469128,4.47541892 C46.4269949,4.68185135 57.3836718,7.08706081 62.5707077,4.2707973 C62.6393026,4.69724324 62.8604308,5.10784459 63.3153231,5.39757432 C68.6454154,8.78786486 72.9885538,13.8119595 77.419241,18.2565946 C78.6778667,19.5187297 81.5462154,23.1217905 84.1555282,23.9461622 C84.1433436,23.964723 84.1284513,23.9773986 84.1162667,23.9964122 C77.5798974,34.2261351 67.0302769,42.1878176 58.2952615,50.5089459 C55.2992,53.3632365 46.0659692,58.9550203 45.2225231,63.7912432 C45.1259487,63.6617703 45.0126769,63.5345608 44.8687179,63.4141419 C30.624,51.6058446 16.2267487,40.6409324 3.72307692,26.9738378 C2.83269744,26.0009797 0.796061538,26.6940676 0.964841026,28.1196284 C1.81460513,35.2972297 12.7473641,42.3725203 17.691159,46.5930676 C25.6269538,53.3673108 33.9562667,59.6499189 41.9890872,66.3028378 C43.2653128,67.3598986 44.8962462,66.5830608 45.3985231,65.4463243 C45.7338256,65.8895203 46.3647179,66.0131081 46.8724103,65.5658378 C50.8761846,62.0388311 57.6066051,56.7865743 62.2751179,52.3867568 C70.9762872,44.1851419 81.2221949,36.2800473 87.6317538,26.0575676 C88.3294359,24.9475405 87.8167795,23.890027 86.9516718,23.3734932 Z" id="Shape"></path>
            <path d="M70.0078359,26.4219932 C70.2808615,25.883277 70.1671385,25.1431081 69.7700103,24.7008176 C70.2483692,25.2331959 69.523159,24.2766351 69.5515897,24.3128514 C69.4180103,24.1448986 69.030359,23.6356081 68.7379282,23.3902432 C67.7257026,22.5382568 66.7459692,21.6518649 65.7770667,20.7514392 C63.8658872,18.9768446 62.2764718,16.9057297 60.4275692,15.0980878 C60.1441641,14.8210338 59.8278154,14.7042365 59.5195897,14.6938243 C59.2808615,14.0337838 58.7117949,13.5063851 57.8069744,13.5000473 C54.2219897,13.4733378 48.6477538,12.1016486 45.5163077,14.4226554 C45.2920205,14.58925 45.1467077,14.8038311 45.035241,15.0319932 C43.862359,14.5141014 42.1515487,15.0958243 42.1113846,16.7857635 C41.8370051,28.4356149 38.3305436,40.8170338 42.0378256,52.1957162 C42.4611282,53.4954257 44.4603077,53.5230405 44.8222359,52.3573311 C45.2252308,52.5796081 45.7184821,52.6592838 46.2451282,52.4302162 C51.8581744,49.9892432 56.3746051,45.6202095 60.4997744,41.1963986 C63.5851897,37.8871419 69.5299282,32.0970743 70.1996308,27.4853919 C70.2533333,27.1155338 70.1698462,26.7443176 70.0078359,26.4219932 Z M58.3340718,17.2592905 C59.2064,19.7002635 61.7863795,22.0239865 63.4502564,23.7243378 C64.3252923,24.6188784 65.5270564,26.0199932 66.859241,26.7298311 C66.5731282,27.01775 66.3190564,27.3287568 66.0740103,27.6492703 C65.4146872,27.1757432 64.6217846,26.8411959 63.9398974,26.4256149 C62.1586872,25.3413919 60.5060923,24.0493784 58.8814769,22.7469527 C56.6219077,20.9361419 54.5685744,18.9093919 52.515241,16.8785676 C54.3095385,17.0320338 56.1083487,17.2946014 57.8078769,17.3235743 C57.9992205,17.3276486 58.171159,17.3000338 58.3340718,17.2592905 Z M44.7382974,49.8077095 C44.6241231,48.1720946 44.5835077,46.5450811 44.5744821,44.9216892 C45.2301949,45.521973 45.9021538,46.1055068 46.6052513,46.6537297 C47.0317128,46.9855608 47.4965333,47.3757905 47.9911385,47.7157703 C46.9428103,48.4604662 45.8669538,49.1693986 44.7382974,49.8077095 Z M49.8626051,46.3046959 C49.0444308,45.8107973 48.0615385,45.4291689 47.3385846,44.9542838 C46.3836718,44.3259324 45.4756923,43.6287703 44.5889231,42.9058041 C44.6178051,41.0411216 44.7044513,39.1818716 44.8136615,37.3244324 C45.8583795,38.6037703 46.9558974,39.8396486 48.1071179,41.0261824 C49.1243077,42.0755473 50.6166974,43.8601014 52.2043077,44.3051081 C51.4434462,44.995027 50.6654359,45.6645743 49.8626051,46.3046959 Z M58.7537641,37.3719662 C57.1309538,39.3222095 55.4147282,41.1968514 53.6014769,42.96375 C52.3622564,41.745527 50.7092103,40.9016892 49.3756718,39.7531824 C47.7781333,38.3778716 46.3006359,36.8314392 44.9485949,35.2071419 C45.1940923,31.6570473 45.5032205,28.1078581 45.7469128,24.5428243 C47.9202872,27.3767432 50.6564103,29.8883378 53.1849436,32.3134662 C54.1195487,33.2093649 56.8516103,36.5136419 58.9762462,37.096723 C58.9017846,37.1877162 58.8295795,37.2814257 58.7537641,37.3719662 Z M60.5200821,35.1908446 C60.2818051,34.9871284 59.960041,34.8730473 59.5714872,34.9640405 C60.1883897,34.8196284 60.1017436,34.9174122 59.4744615,34.5231081 C59.0150564,34.2333784 58.5448205,33.9635676 58.0858667,33.6742905 C56.4517744,32.6466554 54.9652513,31.3084662 53.4854974,30.0739459 C50.8130051,27.8448378 48.0922256,25.4518514 45.8660513,22.7365405 C45.9260718,21.7315405 45.9536,20.71975 45.9969231,19.7111284 C48.9329641,22.36125 51.7178256,25.1929054 54.5369846,27.9638986 C55.9702564,29.3727095 57.3913436,30.8186419 58.7555692,32.2949054 C59.3138051,32.8988108 60.3170051,33.8585405 61.2443897,33.7779595 C61.4488205,33.7603041 61.6139897,33.6973784 61.761559,33.6149865 C61.3486359,34.141027 60.9393231,34.6697838 60.5200821,35.1908446 Z M62.2534564,32.9898041 C62.2850462,32.8929257 62.3193436,32.7978581 62.3328821,32.6855878 C62.3608615,32.4642162 62.2678974,32.2233784 62.1474051,32.0432027 C62.0485744,31.896527 61.9077744,31.7946689 61.7538872,31.7149932 C62.1158154,31.8317905 61.5860103,31.4755135 61.3513436,31.1989122 C60.9357128,30.7081824 60.3355077,30.3614122 59.843159,29.9526216 C58.1810872,28.5736892 56.5686564,27.1340946 54.9828513,25.6677905 C52.233641,23.1258649 49.5458051,20.4449595 46.5447795,18.1995541 C46.3863795,18.0818514 46.2216615,18.0583108 46.0655179,18.0877365 C46.0731897,17.8364865 46.0934974,17.5879527 46.0980103,17.3367027 C46.2839385,17.348473 46.4865641,17.3262905 46.7058872,17.2561216 C48.0146051,16.8396351 49.4018462,16.7373243 50.8130051,16.7753514 C52.9308718,19.6744595 55.6254769,22.1819797 58.2144821,24.6397027 C59.772759,26.1186824 62.1844103,28.8679459 64.5387487,29.8810946 C64.5021949,29.9349662 64.4678974,29.9879324 64.430441,30.0422568 C63.732759,31.0458986 63.0003282,32.0232838 62.2534564,32.9898041 Z" id="Shape"></path>
            <path d="M55.7892923,36.9658919 C55.137641,35.8056149 53.8713436,35.3099054 52.832041,34.5679257 C50.6090256,32.9812027 48.6418872,31.2111351 46.7013744,29.2993716 C46.1020718,28.7090473 45.0320821,29.4840743 45.5163077,30.2165473 C46.9852308,32.4361486 49.2524718,34.2075743 51.3003897,35.8626554 C52.4606359,36.8002027 53.5234051,38.0306486 55.067241,38.2271216 C55.7270154,38.3108716 56.0686359,37.4629595 55.7892923,36.9658919 Z" id="Shape"></path>
        </g>
    </g>
</svg>