<?xml version="1.0" encoding="UTF-8"?>
<svg width="48px" height="67px" viewBox="0 0 48 67" version="1.1" xmlns="http://www.w3.org/2000/svg" xmlns:xlink="http://www.w3.org/1999/xlink">
    <!-- Generator: Sketch 48.2 (47327) - http://www.bohemiancoding.com/sketch -->
    <title>play-right-triangle-arrow-sketch@3x</title>
    <desc>Created with Sketch.</desc>
    <defs></defs>
    <g id="Artboard" stroke="none" stroke-width="1" fill="none" fill-rule="evenodd" transform="translate(-2190.000000, -150.000000)">
        <g id="play-right-triangle-arrow-sketch" transform="translate(2190.000000, 150.000000)" fill="#AFAFAF" fill-rule="nonzero">
            <path d="M47.6698286,32.7547113 C46.0313143,25.912768 36.6685714,20.5254845 31.2788571,16.8249433 C23.1425143,11.2383866 14.3417143,6.36845361 5.57314286,1.80381959 C5.3352,-0.644443299 1.50925714,-0.608525773 1.56,1.95957732 C1.63028571,5.47155155 1.60114286,8.99423196 1.52194286,12.5234742 C1.20274286,12.6212113 1.04057143,13.1541031 1.39954286,13.4283196 C1.43314286,13.4542216 1.46811429,13.4780515 1.50171429,13.504299 C1.06182857,30.8990876 -0.642514286,48.4468711 0.925371429,65.6786495 C1.0248,66.7765515 1.98102857,67.1861495 2.73394286,66.9209124 C2.89988571,66.949232 3.07474286,66.9481959 3.26262857,66.8898299 C11.9526857,64.1877268 19.8425143,58.7306804 27.0774857,53.323366 C33.4704,48.545299 42.4470857,42.1222784 46.0686857,34.6545412 C47.0403429,34.7215412 47.9581714,33.9614021 47.6698286,32.7547113 Z M3.81531429,63.7988505 C3.99462857,61.9062732 4.15062857,60.002299 4.30457143,58.0983247 C5.59885714,59.2984536 7.0584,60.4540309 8.5896,61.1468247 C7.01417143,62.0530515 5.43325714,62.9509897 3.81531429,63.7988505 Z M9.91782857,60.3998093 C8.98457143,59.6994175 7.94468571,59.1471856 6.9792,58.491 C6.08605714,57.8845464 5.25222857,57.1979691 4.4424,56.4841082 C4.584,54.6436804 4.70982857,52.7970361 4.8288,50.9486649 C6.16834286,52.235134 7.52605714,53.5008814 8.91805714,54.7279485 C10.1451429,55.8096186 11.7493714,57.5215722 13.4355429,58.2326701 C12.2722286,58.968634 11.1048,59.6987268 9.91782857,60.3998093 Z M14.9163429,57.2818918 C13.5058286,55.6742371 11.1857143,54.5241856 9.54068571,53.1693351 C7.95668571,51.8659433 6.43748571,50.4855361 4.94502857,49.0757732 C5.02045714,47.8314381 5.06228571,46.5798505 5.12742857,45.3327526 C7.81474286,47.2249845 10.2569143,49.4408196 12.6651429,51.6860103 C14.0214857,52.9514124 15.4508571,54.5587216 17.0139429,55.8728196 C16.3172571,56.347 15.6216,56.8215258 14.9163429,57.2818918 Z M18.8173714,54.6246856 C16.9762286,52.9220567 14.7973714,51.380366 13.0131429,49.8338402 C10.5353143,47.6850052 7.98068571,45.6086959 5.19874286,43.8749845 C5.2416,43.0070928 5.26457143,42.1371289 5.30297143,41.268201 C8.86251429,43.0340309 12.1741714,45.3030515 15.3925714,47.6256031 C17.4356571,49.1006392 19.4136,51.0619433 21.5472,52.6267732 C20.6413714,53.3002268 19.7376,53.9767887 18.8173714,54.6246856 Z M26.4744,48.7839433 C25.3789714,49.6939691 24.2643429,50.5691134 23.1428571,51.431134 C20.6461714,49.2950773 17.4414857,47.5461701 14.9334857,45.8131495 C11.8786286,43.7029948 8.71817143,41.7337474 5.34548571,40.1993093 C5.44217143,37.900933 5.5128,35.6001392 5.58068571,33.2993454 C11.5666286,39.2215928 19.164,45.0720052 26.4579429,48.7362835 C26.4757714,48.7452629 26.4936,48.7442268 26.5110857,48.7514794 C26.4987429,48.7618402 26.4870857,48.7735825 26.4744,48.7839433 Z M27.4985143,47.8911856 C27.4628571,47.7969021 27.4083429,47.7053814 27.312,47.6218041 C24.1028571,44.8457938 20.2176,42.8016031 16.6971429,40.4420979 C12.7913143,37.8246082 9.13097143,34.928067 5.63211429,31.7959897 C5.69862857,29.3059381 5.7432,26.817268 5.77474286,24.3303247 C14.1294857,31.1290979 22.3251429,38.415866 31.1616,44.4745309 C29.9746286,45.644268 28.7626286,46.7919021 27.4985143,47.8911856 Z M32.5261714,43.1093196 C24.0456,35.8905876 14.8090286,29.2600052 5.78811429,22.675701 C5.80731429,20.673299 5.80148571,18.6764227 5.79908571,16.6788557 C16.1266286,24.0847732 26.88,30.4770567 36.1769143,39.3338351 C34.9666286,40.5968196 33.7566857,41.8615309 32.5261714,43.1093196 Z M24.3061714,26.8573299 C18.2478857,22.8041753 11.8981714,19.2131134 5.80182857,15.2228144 C5.79565714,13.7505412 5.76068571,12.2886289 5.74422857,10.8201546 C16.6220571,19.4375979 28.2401143,28.1645206 40.0213714,35.4015567 C39.2057143,36.2107371 38.3986286,37.0278608 37.5984,37.855 C34.3460571,33.2261289 28.8514286,29.8985773 24.3061714,26.8573299 Z M41.6907429,33.8042629 C35.2700571,29.3984948 28.7976,25.0839021 22.4376,20.5828144 C17.0602286,16.7769381 11.6393143,12.4202113 5.72571429,9.42213402 C5.70582857,8.04276289 5.70514286,6.6568299 5.6712,5.2833299 C11.7624,9.04810825 18.0078857,12.5569742 23.9818286,16.5213711 C28.4732571,19.5018351 32.8652571,22.6014485 37.0182857,26.0498763 C39.2989714,27.9438351 41.0742857,30.3661959 43.1136,32.4597732 C42.6291429,32.8963093 42.1645714,33.3552938 41.6907429,33.8042629 Z" id="Shape"></path>
        </g>
    </g>
</svg>