<?xml version="1.0" encoding="UTF-8"?>
<svg width="67px" height="67px" viewBox="0 0 67 67" version="1.1" xmlns="http://www.w3.org/2000/svg" xmlns:xlink="http://www.w3.org/1999/xlink">
    <!-- Generator: Sketch 48.2 (47327) - http://www.bohemiancoding.com/sketch -->
    <title>circle@3x</title>
    <desc>Created with Sketch.</desc>
    <defs></defs>
    <g id="Artboard" stroke="none" stroke-width="1" fill="none" fill-rule="evenodd" transform="translate(-1431.000000, -553.000000)">
        <g id="circle" transform="translate(1431.000000, 553.000000)" fill="#9B9B9B" fill-rule="nonzero">
            <path d="M33.5,0 C15.027498,0 0,15.027498 0,33.5 C0,51.972502 15.027498,67 33.5,67 C51.972502,67 67,51.972502 67,33.5 C67,15.027498 51.972502,0 33.5,0 Z" id="Shape"></path>
        </g>
    </g>
</svg>