<?xml version="1.0" encoding="UTF-8"?>
<svg width="45px" height="67px" viewBox="0 0 45 67" version="1.1" xmlns="http://www.w3.org/2000/svg" xmlns:xlink="http://www.w3.org/1999/xlink">
    <!-- Generator: Sketch 48.2 (47327) - http://www.bohemiancoding.com/sketch -->
    <title>cone-2@3x</title>
    <desc>Created with Sketch.</desc>
    <defs></defs>
    <g id="Artboard" stroke="none" stroke-width="1" fill="none" fill-rule="evenodd" transform="translate(-1243.000000, -553.000000)">
        <g id="cone-2" transform="translate(1243.000000, 553.000000)" fill="#AFAFAF" fill-rule="nonzero">
            <path d="M44.7162188,60.8625645 L23.7787187,0.8416875 C23.3907207,-0.2805625 21.5314707,-0.2805625 21.1462207,0.8416875 L0.208720703,60.8625645 C0.155722656,61.0105664 0.12771875,61.1668125 0.12771875,61.3231895 C0.12771875,66.7501895 20.1774688,66.9065664 22.4610957,66.9065664 C24.7447227,66.9065664 44.7944727,66.7501895 44.7944727,61.3231895 C44.7943418,61.1668125 44.7664688,61.0104355 44.7162188,60.8625645 Z M4.4883457,61.2980645 C4.3208457,61.4264375 4.27622266,61.4990645 4.27622266,61.5018125 C4.27622266,62.2723125 3.67047461,62.8083125 2.89997461,62.8083125 C2.12947461,62.8083125 1.52372656,62.0936895 1.52372656,61.3231895 C1.52372656,60.7425664 1.74422461,59.8854375 2.79397852,59.0814375 C3.40535352,58.6151855 4.28198047,58.7269395 4.74810156,59.3410625 C5.2169707,59.9524375 5.10246875,60.8290645 4.4883457,61.2980645 Z M11.6795918,59.2405625 C10.7415918,59.3773105 9.86496484,59.5309395 9.06096484,59.7011875 C8.9660918,59.7206855 8.86833984,59.7319395 8.77058789,59.7319395 C8.12571289,59.7319395 7.54783789,59.2796895 7.40821094,58.6236914 C7.24908594,57.8699414 7.73208789,57.1301934 8.48858594,56.9710684 C9.34846289,56.7924453 10.2808359,56.6249453 11.2774609,56.4825703 C12.0200879,56.3653203 12.7487129,56.8956934 12.8603359,57.6634453 C12.9693418,58.4225605 12.4389688,59.1289395 11.6795918,59.2405625 Z M19.7279668,58.5733105 C18.8039688,58.6011836 17.9049648,58.6430586 17.0284688,58.6961875 C16.9977168,58.6961875 16.9698438,58.6989355 16.9419707,58.6989355 C16.2077188,58.6989355 15.5963438,58.1294355 15.5489727,57.3896875 C15.4987227,56.6219355 16.0849727,55.9575625 16.8554727,55.9100605 C17.7572246,55.8514355 18.6895977,55.8095605 19.6415996,55.7816875 L19.6862227,55.7816875 C20.4399727,55.7816875 21.0569746,56.3790605 21.0820996,57.1356895 C21.1014668,57.9061895 20.4957188,58.5481855 19.7279668,58.5733105 Z M29.3229687,57.3869395 C29.2727187,58.1266875 28.6613438,58.6961875 27.9270918,58.6961875 C27.8992187,58.6961875 27.8684668,58.6961875 27.8433418,58.6934395 C26.9667148,58.6404414 26.0622148,58.5985664 25.1382168,58.5705625 C24.3704648,58.5454375 23.7647168,57.9033105 23.7870938,57.1328105 C23.8122188,56.3623105 24.3147187,55.7760605 25.2275937,55.7788086 C26.1795957,55.8095605 27.1092207,55.8514355 28.0137207,55.9071816 C28.7813418,55.9548145 29.3675918,56.6164395 29.3229687,57.3869395 Z M37.4634688,58.6068105 C37.3267207,59.2656875 36.7459668,59.7179375 36.1010918,59.7179375 C36.0062188,59.7179375 35.9112148,59.7095625 35.8135938,59.6900645 C35.0068457,59.5198164 34.1274707,59.3690664 33.1922188,59.2321875 C32.4328418,59.1205645 31.9024688,58.4141855 32.0113438,57.6520605 C32.1229668,56.8871875 32.8460957,56.3455605 33.5942188,56.4711855 C34.5908438,56.6163086 35.5232168,56.7783125 36.3803457,56.9569355 C37.1368438,57.1133125 37.6225938,57.8530605 37.4634688,58.6068105 Z M42.0027187,62.7189355 C41.2657187,62.7189355 40.6654668,62.1494355 40.6097207,61.4291855 C40.6097207,61.4291855 40.5427207,61.3816836 40.4338457,61.3008125 C39.8197227,60.8318125 39.7052207,59.9551855 40.1742207,59.3438105 C40.6404727,58.7296875 41.5169688,58.6179336 42.1283438,59.0841855 C43.1779668,59.8881855 43.3985957,60.7451836 43.3985957,61.3259375 C43.3985957,62.0936895 42.7732187,62.7189355 42.0027187,62.7189355 Z" id="Shape"></path>
        </g>
    </g>
</svg>