<?xml version="1.0" encoding="UTF-8"?>
<svg width="45px" height="67px" viewBox="0 0 45 67" version="1.1" xmlns="http://www.w3.org/2000/svg" xmlns:xlink="http://www.w3.org/1999/xlink">
    <!-- Generator: Sketch 48.2 (47327) - http://www.bohemiancoding.com/sketch -->
    <title>cone@3x</title>
    <desc>Created with Sketch.</desc>
    <defs></defs>
    <g id="Artboard" stroke="none" stroke-width="1" fill="none" fill-rule="evenodd" transform="translate(-1655.000000, -663.000000)">
        <g id="cone" transform="translate(1655.000000, 663.000000)" fill="#9B9B9B" fill-rule="nonzero">
            <path d="M43.014621,55.6839355 L23.8341254,0.8416875 C23.4394898,-0.2805625 21.583863,-0.2805625 21.1919825,0.8416875 L2.01161808,55.6839355 C6.13994169,53.8665605 12.9830904,52.9453105 22.5131195,52.9453105 C32.0431487,52.9453105 38.8862974,53.8638125 43.014621,55.6839355 Z" id="Shape"></path>
            <path d="M44.9038338,61.3203105 C44.9038338,61.2673125 44.8730029,61.2225586 44.8674927,61.1695605 C44.8590962,61.0663125 44.8618513,60.9629336 44.8255102,60.8596855 L44.7303936,60.5889375 C44.6575802,60.3906855 44.5456706,60.2036875 44.4169679,60.0221855 C44.3665889,59.9551855 44.318965,59.8881855 44.2630758,59.8211855 C43.8711953,59.3605605 43.3170262,58.9501855 42.6146064,58.5873125 C42.4187318,58.4840645 42.2059329,58.3835645 41.9876239,58.2830645 C41.8644315,58.2300664 41.7497668,58.1714414 41.6209329,58.1211914 C38.0944023,56.6695684 31.8390087,55.8180664 23.6104373,55.7454395 C23.1290816,55.7398125 22.7260496,55.7370645 22.516137,55.7370645 C22.3062245,55.7370645 21.9031924,55.7398125 21.4218367,55.7454395 C13.1905102,55.8151875 6.93787172,56.6694375 3.41134111,58.1211914 C3.28263848,58.1714414 3.16784257,58.2300664 3.04465015,58.2830645 C2.82358601,58.3808164 2.61367347,58.4813164 2.41766764,58.5873125 C1.71511662,58.9501855 1.16094752,59.3605605 0.769198251,59.8211855 C0.713177843,59.8881855 0.665685131,59.9551855 0.615306122,60.0221855 C0.486603499,60.2036875 0.374562682,60.3906855 0.301880466,60.5889375 L0.206763848,60.8596855 C0.170422741,60.9629336 0.173177843,61.0663125 0.164781341,61.1695605 C0.162026239,61.2225586 0.128440233,61.2673125 0.128440233,61.3203105 C0.128440233,61.3343125 0.136836735,61.3454355 0.136836735,61.3594375 C0.136836735,61.3621855 0.134081633,61.3678125 0.136836735,61.3705605 C0.136836735,61.4208105 0.15638484,61.4683125 0.159271137,61.5185625 C0.164912536,61.5493145 0.187215743,61.5715605 0.195612245,61.5995645 C0.909314869,66.7390664 20.2688921,66.9009395 22.5191545,66.9009395 C24.7694169,66.9009395 44.1317493,66.7361875 44.8426968,61.5995645 C44.8483382,61.5688125 44.8735277,61.5465664 44.8790379,61.5185625 C44.8846793,61.4683125 44.9014723,61.4208105 44.9014723,61.3705605 C44.9014723,61.3678125 44.8987172,61.3621855 44.9014723,61.3594375 C44.8954373,61.3454355 44.9038338,61.3343125 44.9038338,61.3203105 Z" id="Shape"></path>
        </g>
    </g>
</svg>