<?xml version="1.0" encoding="UTF-8"?>
<svg width="68px" height="67px" viewBox="0 0 68 67" version="1.1" xmlns="http://www.w3.org/2000/svg" xmlns:xlink="http://www.w3.org/1999/xlink">
    <!-- Generator: Sketch 48.2 (47327) - http://www.bohemiancoding.com/sketch -->
    <title>cone-4@3x</title>
    <desc>Created with Sketch.</desc>
    <defs></defs>
    <g id="Artboard" stroke="none" stroke-width="1" fill="none" fill-rule="evenodd" transform="translate(-1232.000000, -663.000000)">
        <g id="cone-4" transform="translate(1232.000000, 663.000000)" fill="#9B9B9B" fill-rule="nonzero">
            <polygon id="Shape" points="67.5890493 54.9533201 35.774572 0.00213121272 35.6686154 0.445423459 46.8562919 47.3662028"></polygon>
            <polygon id="Shape" points="43.834785 47.0166839 34.1979645 6.60889066 24.561144 47.0166839"></polygon>
            <path d="M32.7273136,0.448220676 L32.6214911,0.00492842942 L0.0515029586,56.2576223 C0.0229349112,56.3059742 0.0229349112,56.3627177 0,56.4110696 L21.5282367,47.408827 L32.7273136,0.448220676 Z" id="Shape"></path>
            <path d="M45.3884576,49.8582565 L23.0418067,49.8582565 L1.77685207,58.7496759 L19.2906746,66.7772883 C19.4795187,66.8625368 19.6855306,66.9079583 19.8915424,66.9079583 L48.5042525,66.9079583 C48.7102643,66.9079583 48.9162761,66.8625368 49.1023037,66.7772883 L67.7006391,58.2524374 C67.7807101,58.2155408 67.8379803,58.1501392 67.9094675,58.0989901 L45.3884576,49.8582565 Z" id="Shape"></path>
        </g>
    </g>
</svg>