<?xml version="1.0" encoding="UTF-8"?>
<svg width="68px" height="68px" viewBox="0 0 68 68" version="1.1" xmlns="http://www.w3.org/2000/svg" xmlns:xlink="http://www.w3.org/1999/xlink">
    <!-- Generator: Sketch 48.2 (47327) - http://www.bohemiancoding.com/sketch -->
    <title>cube-2@3x</title>
    <desc>Created with Sketch.</desc>
    <defs></defs>
    <g id="Artboard" stroke="none" stroke-width="1" fill="none" fill-rule="evenodd" transform="translate(-1905.000000, -553.000000)">
        <g id="cube-2" transform="translate(1905.000000, 553.000000)" fill="#9B9B9B" fill-rule="nonzero">
            <path d="M48.0728187,21.8365 L48.0728187,45.3332891 C48.8532943,45.3332891 49.486768,45.968 49.486768,46.75 C49.486768,47.532 48.8532943,48.1667109 48.0728187,48.1667109 L48.0728187,67.1699219 L67.4546745,47.7502109 C67.7204444,47.4839219 67.8675789,47.124 67.8675789,46.7472109 L67.8675789,2.00028906 L48.0728187,21.8365 Z M56.5562495,48.1667109 L53.7284834,48.1667109 C52.9480078,48.1667109 52.3145341,47.532 52.3145341,46.75 C52.3145341,45.968 52.9480078,45.3332891 53.7284834,45.3332891 L56.5562495,45.3332891 C57.3367251,45.3332891 57.9701988,45.968 57.9701988,46.75 C57.9700663,47.532 57.3367251,48.1667109 56.5562495,48.1667109 Z M63.625731,48.1667109 L62.2117817,48.1667109 C61.431306,48.1667109 60.7978324,47.532 60.7978324,46.75 C60.7978324,45.968 61.431306,45.3332891 62.2117817,45.3332891 L63.625731,45.3332891 C64.4062066,45.3332891 65.0396803,45.968 65.0396803,46.75 C65.0396803,47.532 64.4062066,48.1667109 63.625731,48.1667109 Z" id="Shape"></path>
            <path d="M21.208577,0 C20.8325224,0 20.4733021,0.150210938 20.2075322,0.413710938 L0.825676413,19.8332891 L19.7946277,19.8332891 C19.7946277,19.0512891 20.4281014,18.4165781 21.208577,18.4165781 C21.9890526,18.4165781 22.6225263,19.0512891 22.6225263,19.8332891 L46.0735127,19.8332891 L65.8681404,0 L21.208577,0 Z M22.6225263,14.1667109 C22.6225263,14.9487109 21.9890526,15.5834219 21.208577,15.5834219 C20.4281014,15.5834219 19.7946277,14.9487109 19.7946277,14.1667109 L19.7946277,11.3332891 C19.7946277,10.5512891 20.4281014,9.91657812 21.208577,9.91657812 C21.9890526,9.91657812 22.6225263,10.5512891 22.6225263,11.3332891 L22.6225263,14.1667109 Z M22.6225263,5.66671094 C22.6225263,6.44871094 21.9890526,7.08342188 21.208577,7.08342188 C20.4281014,7.08342188 19.7946277,6.44871094 19.7946277,5.66671094 L19.7946277,4.25 C19.7946277,3.468 20.4281014,2.83328906 21.208577,2.83328906 C21.9890526,2.83328906 22.6225263,3.468 22.6225263,4.25 L22.6225263,5.66671094 Z" id="Shape"></path>
            <path d="M21.208577,24.0832891 C20.4281014,24.0832891 19.7946277,23.4485781 19.7946277,22.6665781 L0,22.6665781 L0,66.5832891 C0,67.3652891 0.633473684,68 1.41394932,68 L45.2450526,68 L45.2450526,48.1667109 C44.464577,48.1667109 43.8311033,47.532 43.8311033,46.75 C43.8311033,45.968 44.464577,45.3332891 45.2450526,45.3332891 L45.2450526,22.6665781 L22.6225263,22.6667109 C22.6225263,23.4487109 21.9890526,24.0832891 21.208577,24.0832891 Z M19.7946277,28.3332891 C19.7946277,27.5512891 20.4281014,26.9165781 21.208577,26.9165781 C21.9890526,26.9165781 22.6225263,27.5512891 22.6225263,28.3332891 L22.6225263,31.1665781 C22.6225263,31.9485781 21.9890526,32.5832891 21.208577,32.5832891 C20.4281014,32.5832891 19.7946277,31.9485781 19.7946277,31.1665781 L19.7946277,28.3332891 Z M19.7946277,36.8332891 C19.7946277,36.0512891 20.4281014,35.4165781 21.208577,35.4165781 C21.9890526,35.4165781 22.6225263,36.0512891 22.6225263,36.8332891 L22.6225263,39.6665781 C22.6225263,40.4485781 21.9890526,41.0832891 21.208577,41.0832891 C20.4281014,41.0832891 19.7946277,40.4485781 19.7946277,39.6665781 L19.7946277,36.8332891 Z M5.53398051,64.4582891 L4.53293567,65.4612891 C4.25576608,65.739 3.89389474,65.875 3.53189084,65.875 C3.16988694,65.875 2.80801559,65.7362109 2.530846,65.4612891 C1.979423,64.9087891 1.979423,64.0105781 2.530846,63.4580781 L3.53189084,62.4550781 C4.08331384,61.9025781 4.97977388,61.9025781 5.53119688,62.4550781 C6.08261988,63.0077109 6.08540351,63.9057891 5.53398051,64.4582891 Z M11.4129981,58.5677891 L9.45332554,60.5312891 C9.17615595,60.809 8.8142846,60.945 8.4522807,60.945 C8.0902768,60.945 7.72840546,60.8062109 7.45123587,60.5312891 C6.89981287,59.9787891 6.89981287,59.0805781 7.45123587,58.5280781 L9.41090838,56.5645781 C9.96233138,56.0120781 10.8587914,56.0120781 11.4102144,56.5645781 C11.9616374,57.1172109 11.9644211,58.0152891 11.4129981,58.5677891 Z M17.289232,52.6802109 L15.3295595,54.6437109 C15.0523899,54.9214219 14.6905185,55.0574219 14.3285146,55.0574219 C13.9665107,55.0574219 13.6046394,54.9186328 13.3274698,54.6437109 C12.7760468,54.0912109 12.7760468,53.193 13.3274698,52.6405 L15.2871423,50.677 C15.8385653,50.1245 16.7350253,50.1245 17.2864483,50.677 C17.8378713,51.2295 17.8434386,52.1247891 17.289232,52.6802109 Z M36.7614893,45.3332891 L39.5892554,45.3332891 C40.369731,45.3332891 41.0032047,45.968 41.0032047,46.75 C41.0032047,47.532 40.369731,48.1667109 39.5892554,48.1667109 L36.7614893,48.1667109 C35.9810136,48.1667109 35.34754,47.532 35.34754,46.75 C35.3476725,45.968 35.9810136,45.3332891 36.7614893,45.3332891 Z M28.2780585,45.3332891 L31.1058246,45.3332891 C31.8863002,45.3332891 32.5197739,45.968 32.5197739,46.75 C32.5197739,47.532 31.8863002,48.1667109 31.1058246,48.1667109 L28.2780585,48.1667109 C27.4975828,48.1667109 26.8641092,47.532 26.8641092,46.75 C26.8642417,45.968 27.4975828,45.3332891 28.2780585,45.3332891 Z M24.0335595,46.75 C24.0335595,47.532 23.4030019,48.1667109 22.6225263,48.1667109 L21.7939337,48.1667109 L21.208577,48.7532109 C20.9314074,49.0309219 20.5695361,49.1669219 20.2075322,49.1669219 C19.8455283,49.1669219 19.4836569,49.0281328 19.2064873,48.7532109 C18.6550643,48.2007109 18.6550643,47.3025 19.2064873,46.75 L19.7918441,46.1635 L19.7918441,45.3332891 C19.7918441,44.5512891 20.4253177,43.9165781 21.2057934,43.9165781 C21.986269,43.9165781 22.6197427,44.5512891 22.6197427,45.3332891 C23.4000858,45.3332891 24.0335595,45.968 24.0335595,46.75 Z" id="Shape"></path>
        </g>
    </g>
</svg>