<?xml version="1.0" encoding="UTF-8"?>
<svg width="45px" height="67px" viewBox="0 0 45 67" version="1.1" xmlns="http://www.w3.org/2000/svg" xmlns:xlink="http://www.w3.org/1999/xlink">
    <!-- Generator: Sketch 48.2 (47327) - http://www.bohemiancoding.com/sketch -->
    <title>cylinder@3x</title>
    <desc>Created with Sketch.</desc>
    <defs></defs>
    <g id="Artboard" stroke="none" stroke-width="1" fill="none" fill-rule="evenodd" transform="translate(-2354.000000, -778.000000)">
        <g id="cylinder" transform="translate(2354.000000, 778.000000)" fill="#9B9B9B" fill-rule="nonzero">
            <path d="M0.0438157895,10.192375 L0.0438157895,61.416623 C0.0438157895,66.843623 20.2038158,67 22.5,67 C24.7961842,67 44.9561842,66.843623 44.9561842,61.416623 L44.9561842,10.192375 C41.2088158,12.690873 33.7140789,13.958377 22.5,13.958377 C11.2859211,13.958377 3.79407895,12.690873 0.0438157895,10.192375 Z" id="Shape"></path>
            <path d="M22.5,11.166623 C36.3526316,11.166623 44.9561842,9.02537109 44.9561842,5.58324609 C44.9561842,5.37112305 44.9028947,5.17561914 44.8157895,4.99699609 C43.5357895,0.672748047 28.5069737,0.0864980469 23.7490789,0.0111230469 C23.3336842,0.008375 22.9267105,0 22.5,0 C22.0732895,0 21.6663158,0.008375 21.2480263,0.0111230469 C16.4901316,0.0864980469 1.46144737,0.67 0.181447368,4.99712695 C0.0972368421,5.17575 0.0439473684,5.37125391 0.0439473684,5.58337695 C0.0438157895,9.02550195 8.64736842,11.166623 22.5,11.166623 Z" id="Shape"></path>
        </g>
    </g>
</svg>