<?xml version="1.0" encoding="UTF-8"?>
<svg width="53px" height="67px" viewBox="0 0 53 67" version="1.1" xmlns="http://www.w3.org/2000/svg" xmlns:xlink="http://www.w3.org/1999/xlink">
    <!-- Generator: Sketch 48.2 (47327) - http://www.bohemiancoding.com/sketch -->
    <title>cylinder-8@3x</title>
    <desc>Created with Sketch.</desc>
    <defs></defs>
    <g id="Artboard" stroke="none" stroke-width="1" fill="none" fill-rule="evenodd" transform="translate(-2233.000000, -778.000000)">
        <g id="cylinder-8" transform="translate(2233.000000, 778.000000)" fill="#9B9B9B" fill-rule="nonzero">
            <path d="M38.5339951,15.6469961 C38.2867052,15.8683588 37.9700074,16.0141824 37.6145037,16.0141824 C37.5755676,16.0141824 37.5450958,15.9946078 37.5061597,15.9917176 L27.8912826,19.2259784 L27.8912826,47.6528961 C28.6357568,47.6781196 29.2330811,48.2862431 29.2330811,49.0458392 C29.2330811,49.8053039 28.6357568,50.4106686 27.8912826,50.4387824 L27.8912826,66.8733569 L51.9436462,58.7850118 C52.5103686,58.5943902 52.8937396,58.0591784 52.8937396,57.4565725 L52.8937396,10.8208941 L38.5339951,15.6469961 Z M36.2254349,20.6216804 C36.2254349,19.8481588 36.8477617,19.2203294 37.6145037,19.2203294 C38.3812457,19.2203294 39.0035725,19.8481588 39.0035725,20.6216804 L39.0035725,23.6232804 C39.0035725,24.396802 38.3812457,25.0246314 37.6145037,25.0246314 C36.8477617,25.0246314 36.2254349,24.396802 36.2254349,23.6232804 L36.2254349,20.6216804 Z M36.2254349,29.6292392 C36.2254349,28.8557176 36.8477617,28.2278882 37.6145037,28.2278882 C38.3812457,28.2278882 39.0035725,28.8557176 39.0035725,29.6292392 L39.0035725,32.6308392 C39.0035725,33.4043608 38.3812457,34.0321902 37.6145037,34.0321902 C36.8477617,34.0321902 36.2254349,33.4043608 36.2254349,32.6308392 L36.2254349,29.6292392 Z M36.2254349,38.636798 C36.2254349,37.8632765 36.8477617,37.2354471 37.6145037,37.2354471 C38.3812457,37.2354471 39.0035725,37.8632765 39.0035725,38.636798 L39.0035725,41.638398 C39.0035725,42.4119196 38.3812457,43.039749 37.6145037,43.039749 C36.8477617,43.039749 36.2254349,42.4119196 36.2254349,41.638398 L36.2254349,38.636798 Z M39.0063071,49.0457078 L39.0035725,49.0457078 C39.0035725,49.8192294 38.3812457,50.4470588 37.6145037,50.4470588 C37.2867371,50.4470588 36.9950418,50.3152922 36.7588206,50.1219118 C36.5198649,50.3152922 36.2310344,50.4470588 35.9031376,50.4470588 L33.2168059,50.4470588 C32.4500639,50.4470588 31.8277371,49.8192294 31.8277371,49.0457078 C31.8277371,48.2721863 32.4500639,47.6443569 33.2168059,47.6443569 L35.9031376,47.6443569 C36.0170811,47.6443569 36.1198256,47.6836373 36.2281695,47.7088608 L36.2281695,47.6443569 C36.2281695,46.8708353 36.8504963,46.2430059 37.6172383,46.2430059 C38.3839803,46.2430059 39.0063071,46.8708353 39.0063071,47.6443569 L39.0063071,49.0457078 Z M44.1706167,53.1796078 C43.9066585,53.6027588 43.4538796,53.8381784 42.9927666,53.8381784 C42.742742,53.8381784 42.4871179,53.7709157 42.2566265,53.6252235 L39.9786683,52.1902412 C39.3286044,51.7810157 39.1313194,50.9150078 39.5369582,50.2591961 C39.9425971,49.6061431 40.7981499,49.4015961 41.4510786,49.8135804 L43.7290369,51.2485627 C44.3818354,51.6577882 44.5789902,52.5237961 44.1706167,53.1796078 Z M49.9045135,56.7949804 C49.6405553,57.2210216 49.1877764,57.453551 48.7266634,57.453551 C48.4766388,57.453551 48.2210147,57.3862882 47.9905233,57.2405961 L46.8126732,56.4979471 C46.1626093,56.0887216 45.9653243,55.2227137 46.3709631,54.566902 C46.776602,53.9110902 47.6350197,53.709302 48.2850835,54.1212863 L49.4629337,54.8639353 C50.1157322,55.2759196 50.3101523,56.1391686 49.9045135,56.7949804 Z" id="Shape"></path>
            <path d="M36.2254349,11.6112314 C36.2254349,10.8377098 36.8477617,10.2098804 37.6145037,10.2098804 C38.3812457,10.2098804 39.0035725,10.8377098 39.0035725,11.6112314 L39.0035725,12.5360941 L51.671484,8.27607647 L38.3283759,0.199029412 C38.111688,0.0672627451 37.8645283,0 37.6145037,0 L15.3900541,0 C15.1372948,0 14.8900049,0.0672627451 14.6760516,0.199029412 L1.78311794,8.00150784 L14.0009853,12.3174902 L14.0009853,11.6084725 C14.0009853,10.834951 14.623312,10.2071216 15.3900541,10.2071216 C16.1567961,10.2071216 16.7791229,10.834951 16.7791229,11.6084725 L16.7791229,13.298449 L26.5134128,16.734498 L36.2254349,13.4694961 L36.2254349,11.6112314 Z M36.2254349,4.20392157 C36.2254349,3.4304 36.8477617,2.80257059 37.6145037,2.80257059 C38.3812457,2.80257059 39.0035725,3.4304 39.0035725,4.20392157 L39.0035725,5.60527255 C39.0035725,6.37879412 38.3812457,7.00662353 37.6145037,7.00662353 C36.8477617,7.00662353 36.2254349,6.37879412 36.2254349,5.60527255 L36.2254349,4.20392157 Z M16.7791229,5.60527255 C16.7791229,6.37879412 16.1567961,7.00662353 15.3900541,7.00662353 C14.623312,7.00662353 14.0009853,6.37879412 14.0009853,5.60527255 L14.0009853,4.20392157 C14.0009853,3.4304 14.623312,2.80257059 15.3900541,2.80257059 C16.1567961,2.80257059 16.7791229,3.4304 16.7791229,4.20392157 L16.7791229,5.60527255 Z" id="Shape"></path>
            <path d="M15.3900541,16.0141824 C14.9094079,16.0141824 14.5066339,15.7535392 14.2566093,15.3779451 L0.110818182,10.3836863 L0.110818182,57.453551 C0.110818182,58.0561569 0.494189189,58.5913686 1.06091155,58.7819902 L25.1132752,66.8703353 L25.1132752,50.438651 C24.368801,50.4134275 23.7714767,49.8053039 23.7714767,49.0457078 C23.7714767,48.2862431 24.368801,47.6808784 25.1132752,47.6527647 L25.1132752,19.2119216 L15.8123612,15.9272137 C15.6761499,15.9721431 15.5400688,16.0141824 15.3900541,16.0141824 Z M14.0009853,29.6264804 C14.0009853,28.8529588 14.623312,28.2251294 15.3900541,28.2251294 C16.1567961,28.2251294 16.7791229,28.8529588 16.7791229,29.6264804 L16.7791229,32.6280804 C16.7791229,33.401602 16.1567961,34.0294314 15.3900541,34.0294314 C14.623312,34.0294314 14.0009853,33.401602 14.0009853,32.6280804 L14.0009853,29.6264804 Z M14.0009853,38.636798 C14.0009853,37.8632765 14.623312,37.2354471 15.3900541,37.2354471 C16.1567961,37.2354471 16.7791229,37.8632765 16.7791229,38.636798 L16.7791229,41.638398 C16.7791229,42.4119196 16.1567961,43.039749 15.3900541,43.039749 C14.623312,43.039749 14.0009853,42.4119196 14.0009853,41.638398 L14.0009853,38.636798 Z M6.19188452,56.4979471 L5.0140344,57.2405961 C4.78341278,57.3862882 4.53065356,57.453551 4.27789435,57.453551 C3.81391646,57.453551 3.36113759,57.2208902 3.10004423,56.7949804 C2.69440541,56.1391686 2.88895577,55.2759196 3.5417543,54.8639353 L4.71960442,54.1212863 C5.3696683,53.709302 6.228086,53.9110902 6.63372482,54.566902 C7.03923342,55.2227137 6.8419484,56.0859627 6.19188452,56.4979471 Z M13.0231548,52.1902412 L10.7451966,53.6252235 C10.5145749,53.7709157 10.2618157,53.8381784 10.0090565,53.8381784 C9.54507862,53.8381784 9.09229975,53.6055176 8.83120639,53.1796078 C8.42556757,52.5237961 8.62285258,51.6577882 9.27291646,51.2485627 L11.5508747,49.8135804 C12.2036732,49.4043549 13.0593563,49.6033843 13.4649951,50.2591961 C13.8732383,50.9151392 13.6732187,51.7811471 13.0231548,52.1902412 Z M19.7877518,47.6444882 C20.5544939,47.6444882 21.1768206,48.2723176 21.1768206,49.0458392 C21.1768206,49.8193608 20.5544939,50.4470588 19.7877518,50.4470588 L17.1014201,50.4470588 C16.7736536,50.4470588 16.4846929,50.3152922 16.2457371,50.1219118 C16.0067813,50.3152922 15.7179509,50.4470588 15.3900541,50.4470588 C14.623312,50.4470588 14.0009853,49.8192294 14.0009853,49.0457078 L14.0009853,47.6443569 C14.0009853,46.8708353 14.623312,46.2430059 15.3900541,46.2430059 C16.1567961,46.2430059 16.7791229,46.8708353 16.7791229,47.6443569 L16.7791229,47.7088608 C16.8847322,47.6836373 16.9874767,47.6443569 17.1014201,47.6443569 L19.7877518,47.6443569 L19.7877518,47.6444882 Z M16.7791229,20.6187902 L16.7791229,23.6203902 C16.7791229,24.3939118 16.1567961,25.0217412 15.3900541,25.0217412 C14.623312,25.0217412 14.0009853,24.3939118 14.0009853,23.6203902 L14.0009853,20.6187902 C14.0009853,19.8452686 14.623312,19.2174392 15.3900541,19.2174392 C16.1567961,19.2174392 16.7791229,19.8452686 16.7791229,20.6187902 Z" id="Shape"></path>
        </g>
    </g>
</svg>