<?xml version="1.0" encoding="UTF-8"?>
<svg width="67px" height="67px" viewBox="0 0 67 67" version="1.1" xmlns="http://www.w3.org/2000/svg" xmlns:xlink="http://www.w3.org/1999/xlink">
    <!-- Generator: Sketch 48.2 (47327) - http://www.bohemiancoding.com/sketch -->
    <title>dodecahedron-3@3x</title>
    <desc>Created with Sketch.</desc>
    <defs></defs>
    <g id="Artboard" stroke="none" stroke-width="1" fill="none" fill-rule="evenodd" transform="translate(-2110.000000, -778.000000)">
        <g id="dodecahedron-3" transform="translate(2110.000000, 778.000000)" fill="#9B9B9B" fill-rule="nonzero">
            <path d="M66.8218141,28.926955 L61.5016732,12.9637789 L52.9452094,21.5229961 L52.9619922,21.8307241 L53.927002,23.0586204 C54.4053112,23.6655538 54.2989765,24.5466497 53.6920431,25.0222055 C53.5326067,25.1453229 53.3423581,25.1592211 53.1606321,25.206816 L53.6473327,33.4750881 C53.885045,33.4862329 54.1200039,33.5365812 54.3354266,33.673728 C54.984317,34.090544 55.1745656,34.9576106 54.7577495,35.606501 L53.8542329,37.0106164 L54.265411,43.9950059 L64.206454,50.9542211 L66.8833072,29.5421487 C66.9086125,29.3353796 66.8890763,29.1255949 66.8218141,28.926955 Z M62.701773,30.7675538 L61.3031644,30.7675538 C60.5311566,30.7675538 59.9045558,30.140953 59.9045558,29.3689452 C59.9045558,30.140953 59.277955,30.7675538 58.5059472,30.7675538 L57.870955,30.7675538 L57.526908,31.3018493 C57.2583836,31.7157808 56.8108865,31.9423483 56.3493601,31.9423483 C56.089227,31.9423483 55.8263405,31.8695793 55.594135,31.7185342 C54.9452446,31.3017182 54.7577495,30.4374051 55.1745656,29.7857613 L55.3927417,29.4473523 L55.1437534,29.1312329 C54.6654442,28.5242994 54.7717789,27.6459569 55.3787123,27.1676477 C55.9885303,26.692092 56.8639883,26.7956732 57.3422975,27.4026067 L57.7870411,27.9675832 L58.5059472,27.9675832 C59.277955,27.9675832 59.9045558,28.594184 59.9045558,29.3661918 C59.9045558,28.594184 60.5311566,27.9675832 61.3031644,27.9675832 L62.701773,27.9675832 C63.4737808,27.9703366 64.1003816,28.5969374 64.1003816,29.3689452 C64.1003816,30.140953 63.4736497,30.7675538 62.701773,30.7675538 Z" id="Shape"></path>
            <path d="M21.1727867,44.8930157 L21.114047,44.8789863 L20.5937808,45.3264834 C20.3308943,45.5530509 20.0063836,45.6648924 19.6847573,45.6648924 C19.290362,45.6648924 18.8987202,45.499818 18.6246888,45.1754384 C18.1212055,44.5907945 18.1883366,43.7069452 18.7757339,43.2034618 L19.3100294,42.7446888 L19.296,42.5013386 L14.4709511,36.3615949 L0.180283757,36.3615949 L6.84029354,55.0130313 C6.94662818,55.3123679 7.15352838,55.566863 7.42205284,55.7346908 L24.7362427,66.389002 L28.9543581,54.7977397 L21.1727867,44.8930157 Z M12.9268043,51.8970724 L11.8667358,52.8060959 C11.6009648,53.0326634 11.2765851,53.1445049 10.9548278,53.1445049 C10.5604325,53.1445049 10.1687906,52.9794305 9.8947593,52.6550509 C9.39127593,52.070407 9.45840705,51.1865577 10.0458043,50.6830744 L11.1058728,49.7740509 C11.6905166,49.2733209 12.5771194,49.3376986 13.0778493,49.9250959 C13.5813327,50.5124932 13.5142016,51.3963425 12.9268043,51.8970724 Z M17.5280391,47.9558728 L15.9951683,49.2705675 C15.7322818,49.497135 15.407771,49.6062231 15.0861448,49.6062231 C14.6917495,49.6062231 14.3001076,49.4411487 14.0231918,49.1167691 C13.5197084,48.5321252 13.589593,47.6482759 14.1769902,47.1447926 L15.7098611,45.8300978 C16.2945049,45.3322524 17.1756008,45.396499 17.6818376,45.9838963 C18.1825675,46.5685401 18.1154364,47.4523894 17.5280391,47.9558728 Z" id="Shape"></path>
            <path d="M18.4007436,27.3214462 L18.3420039,26.3033346 C18.2972935,25.5340802 18.8846908,24.8711605 19.6566986,24.8264501 C19.7685401,24.8208121 19.8721213,24.8543777 19.9783249,24.874045 L24.5711683,17.7302192 C24.478863,17.6267691 24.3613836,17.548362 24.3026438,17.4169843 C23.9921624,16.7093542 24.3137886,15.8841135 25.0215499,15.5736321 L26.073227,15.1148591 L20.23282,2.46339726 L5.93953033,12.8603288 C5.67939726,13.0476928 5.49203327,13.3218552 5.4108728,13.6295832 L0.0907318982,33.5646399 L14.3869061,33.5646399 L18.4007436,27.3214462 Z M16.7756986,18.4769217 C17.0805421,17.766407 17.9057828,17.433636 18.6106595,17.7412329 L19.3407104,18.0544677 L20.0680078,17.7355949 C20.775638,17.4223601 21.6008787,17.7496243 21.9084755,18.4572544 C22.2189569,19.1648845 21.8944462,19.9901252 21.186816,20.2977221 L20.7980587,20.4683033 L20.8232329,20.8906262 C20.8679432,21.6626341 20.280546,22.3228004 19.5085382,22.3675108 C19.4806106,22.3675108 19.4525519,22.3702642 19.4246243,22.3702642 C18.6889354,22.3702642 18.0736106,21.7968963 18.0289002,21.052816 L17.9980881,20.5185205 L17.5086341,20.3087358 C16.8007417,20.0097926 16.4707241,19.1874364 16.7756986,18.4769217 Z M12.1268689,16.4825245 C11.9003014,17.0139354 11.3827886,17.3300548 10.8429863,17.3300548 C10.6583757,17.3300548 10.4710117,17.2937358 10.291908,17.2153288 L9.00802544,16.6642505 C8.29475734,16.3649139 7.96749315,15.5425577 8.27233659,14.8321742 C8.57718004,14.1189061 9.40242074,13.7888885 10.1072975,14.0964853 L11.39118,14.6475636 C12.1016947,14.9497847 12.4317123,15.7721409 12.1268689,16.4825245 Z M12.4428571,16.6224247 C12.7477006,15.91191 13.5700568,15.5818924 14.277818,15.8867358 L15.721137,16.5049452 C16.4316517,16.8097886 16.7616693,17.6321448 16.4568258,18.3399061 C16.2302583,18.871317 15.7127456,19.1874364 15.1729432,19.1874364 C14.9883327,19.1874364 14.8009687,19.1511174 14.621865,19.0727104 L13.178546,18.454501 C12.4680313,18.152411 12.1380137,17.3300548 12.4428571,16.6224247 Z" id="Shape"></path>
            <path d="M19.9726869,30.2388963 C19.9447593,30.2388963 19.9167006,30.2416497 19.888773,30.2416497 C19.8747436,30.2416497 19.8663523,30.2360117 19.852454,30.2332583 L16.8651194,34.8820881 L22.8622094,42.5126145 C23.1111977,42.6748043 23.2817789,42.9097632 23.3881135,43.1811722 L30.9655382,52.8256321 L41.9219393,48.0313953 C42.2016086,47.4551429 42.8309628,47.1110959 43.4799843,47.2621409 L43.6086086,47.292953 L44.0422074,47.1027045 L44.1009472,47.0131526 C44.4309648,46.5012779 45.0380294,46.2914932 45.5973679,46.423002 L51.4573112,43.8579902 L51.1048728,37.8553933 C50.7580724,37.4078963 50.6993327,36.7812955 51.0125675,36.2750587 L50.2237769,22.8712564 L50.0223836,22.6167613 C49.8769765,22.4321507 49.8042074,22.2196125 49.7650039,22.0041898 L28.6411233,17.0337339 C28.6327319,17.0364873 28.6270939,17.0448787 28.6187025,17.0477632 L28.2159159,17.2239824 L21.2454247,28.068411 L21.2873816,28.7621429 C21.332092,29.531135 20.7446947,30.1940548 19.9726869,30.2388963 Z M46.8699746,42.7056164 L48.2545538,40.5517828 C48.6713699,39.9028924 49.535683,39.7126438 50.1873268,40.1322133 C50.8362172,40.5545362 51.0237123,41.4188493 50.6068963,42.0678708 L49.222317,44.2217045 C48.956546,44.635636 48.5062955,44.8622035 48.0447691,44.8622035 C47.784636,44.8622035 47.5245029,44.792319 47.289544,44.6383894 C46.6405225,44.2217045 46.4531585,43.3573914 46.8699746,42.7056164 Z M33.9023933,46.4481761 C34.0786125,45.6957045 34.8338376,45.2370626 35.5863092,45.4076438 L38.2184521,46.0286067 C38.9680391,46.2075793 39.4324501,46.9600509 39.2562309,47.7125225 C39.1051859,48.3559061 38.5289335,48.7893738 37.8968258,48.7893738 C37.7904912,48.7893738 37.6814031,48.778229 37.5751996,48.7530548 L34.9430568,48.132092 C34.1905851,47.9558728 33.7261742,47.2006477 33.9023933,46.4481761 Z M26.0060959,44.5965636 C26.1823151,43.8413386 26.9459315,43.3825656 27.6871272,43.5532779 L30.3192701,44.1714873 C31.0717417,44.3477065 31.538775,45.1001781 31.3625558,45.8525186 C31.2115108,46.4959022 30.6352583,46.9322544 30.0031507,46.9322544 C29.896816,46.9322544 29.787728,46.9211096 29.6815245,46.8959354 L27.0493816,46.277726 C26.2970411,46.1013757 25.8298767,45.3461507 26.0060959,44.5965636 Z M21.5951096,34.0093836 L21.748908,36.633135 C21.7936184,37.4023894 21.2091057,38.0624247 20.4370978,38.1100196 C20.4091703,38.1100196 20.3811115,38.112773 20.353184,38.112773 C19.6174951,38.112773 19.0021703,37.5394051 18.9574599,36.7953249 L18.8036614,34.1715734 C18.7589511,33.402319 19.3463483,32.7393992 20.1183562,32.6946888 C20.8706967,32.6751526 21.5502681,33.2373757 21.5951096,34.0093836 Z" id="Shape"></path>
            <path d="M46.8139883,18.4349648 C46.7468571,18.376225 46.6656967,18.3426595 46.6098415,18.2698904 L44.903636,16.099274 C44.4253268,15.4923405 44.5316614,14.613998 45.1385949,14.1356888 C45.7484129,13.6573796 46.6266243,13.7637143 47.10218,14.3706477 L48.8083855,16.5412642 C49.2866947,17.1481977 49.1803601,18.0265401 48.5734266,18.5048493 C48.3972074,18.641865 48.1874227,18.6670391 47.9832759,18.7089961 L51.0769452,19.4362935 L59.6976556,10.8155832 L42.4561037,0.206113503 C42.2071155,0.0523150685 41.9190548,-0.0120626223 41.6226027,0.0019667319 L22.8005851,1.34734247 L28.7221526,14.1777769 L46.8139883,18.4349648 Z M39.8827006,9.06742074 L40.3246908,8.87441879 L40.3246908,8.39047162 C40.3246908,7.6184638 40.9512916,6.99186301 41.7232994,6.99186301 C40.9512916,6.99186301 40.3246908,6.36526223 40.3246908,5.5932544 L40.3246908,4.19477691 C40.3246908,3.42276908 40.9512916,2.7961683 41.7232994,2.7961683 C42.4953072,2.7961683 43.121908,3.42276908 43.121908,4.19477691 L43.121908,5.59338552 C43.121908,6.36539335 42.4953072,6.99199413 41.7232994,6.99199413 C42.4953072,6.99199413 43.121908,7.61859491 43.121908,8.39060274 L43.121908,9.30526419 L43.6868845,10.0241703 C44.1651937,10.6311037 44.0588591,11.5094462 43.4519256,11.9877554 C43.194546,12.1891487 42.8897025,12.287092 42.5876125,12.287092 C42.173681,12.287092 41.7625029,12.1052348 41.4855871,11.7527965 L41.2898317,11.5038082 L40.9988865,11.6296791 C40.2912564,11.9485519 39.4689002,11.6156497 39.1584188,10.9080196 C38.8478063,10.2002583 39.1750705,9.37790215 39.8827006,9.06742074 Z M32.4535675,12.3176419 L34.9290274,11.2351526 C35.6395421,10.9274247 36.4618982,11.249182 36.7694951,11.9568121 C37.0799765,12.6644423 36.7583503,13.489683 36.0478356,13.7972798 L33.5723757,14.8797691 C33.3905186,14.9609295 33.2004012,14.9972485 33.0129061,14.9972485 C32.4731037,14.9972485 31.961229,14.6840137 31.7317769,14.1581096 C31.4214266,13.4532329 31.7430528,12.6281233 32.4535675,12.3176419 Z" id="Shape"></path>
            <path d="M45.9859941,49.3068865 L46.1034736,50.1319961 C46.2125616,50.8956125 45.6811507,51.6061272 44.9175342,51.7152153 C44.8504031,51.7236067 44.783272,51.7292446 44.7188943,51.7292446 C44.0335538,51.7292446 43.4350117,51.2257613 43.3343151,50.5292759 L43.3259237,50.4705362 L31.6451096,55.5808924 L27.4970098,66.9847906 L47.5020822,64.3163288 C47.7342877,64.2855166 47.9524638,64.1988493 48.1398278,64.0618337 L62.8163679,53.3879863 L52.7523386,46.3476106 L45.9859941,49.3068865 Z M43.9357417,54.7445068 L43.7343483,53.3403914 C43.6252603,52.576775 44.1566712,51.8662603 44.9202877,51.7571722 C45.6782661,51.6424462 46.3915342,52.1794951 46.5035068,52.9431115 L46.7049002,54.347227 C46.8139883,55.1108434 46.2825773,55.8213581 45.5189609,55.9304462 C45.4518297,55.9388376 45.3846986,55.9444755 45.3203209,55.9444755 C44.6351115,55.9444755 44.0364384,55.4409922 43.9357417,54.7445068 Z M46.1175029,60.1233875 C46.0503718,60.1317789 45.9832407,60.1374168 45.918863,60.1374168 C45.2335225,60.1374168 44.6349804,59.6339335 44.5342838,58.9374481 L44.3356438,57.5528689 C44.2265558,56.7892524 44.7579667,56.0787378 45.5215832,55.9696497 C46.287953,55.8521703 46.9957143,56.3919726 47.1048023,57.155589 L47.3034423,58.5401683 C47.4125303,59.3066693 46.8811194,60.0142994 46.1175029,60.1233875 Z" id="Shape"></path>
        </g>
    </g>
</svg>