<?xml version="1.0" encoding="UTF-8"?>
<svg width="45px" height="67px" viewBox="0 0 45 67" version="1.1" xmlns="http://www.w3.org/2000/svg" xmlns:xlink="http://www.w3.org/1999/xlink">
    <!-- Generator: Sketch 48.2 (47327) - http://www.bohemiancoding.com/sketch -->
    <title>octahedron-1@3x</title>
    <desc>Created with Sketch.</desc>
    <defs></defs>
    <g id="Artboard" stroke="none" stroke-width="1" fill="none" fill-rule="evenodd" transform="translate(-1243.000000, -890.000000)">
        <g id="octahedron-1" transform="translate(1243.000000, 890.000000)" fill="#9B9B9B" fill-rule="nonzero">
            <polygon id="Shape" points="19.7700452 36.4595283 28.9940964 36.4595283 27.4760241 30.6728441 18.4196386 30.6728441"></polygon>
            <polygon id="Shape" points="26.7184789 27.7793664 21.4008886 7.49965992 18.2836898 27.7793664"></polygon>
            <polygon id="Shape" points="39.2013705 30.6728441 30.4659488 30.6728441 31.7526506 35.588664"></polygon>
            <polygon id="Shape" points="15.2765512 28.3118401 19.5560241 0.462896761 19.4404066 0.020208502 0.0147740964 36.4595283 0.798478916 36.4595283"></polygon>
            <polygon id="Shape" points="43.5849398 27.7793664 44.356988 27.2702206 22.5546235 0 22.5054217 0.31248583 29.7054217 27.7793664"></polygon>
            <polygon id="Shape" points="44.455256 30.6728441 32.1661898 38.7829636 26.6519277 65.9720789 26.8659488 66.8864798 44.9613705 30.6728441"></polygon>
            <polygon id="Shape" points="16.8003163 36.4595283 15.6263855 31.4308664 6.69429217 36.4595283"></polygon>
            <polygon id="Shape" points="20.4466717 39.3530061 25.0731325 59.1987045 29.0981928 39.3530061"></polygon>
            <polygon id="Shape" points="1.55317771 39.3530061 0.645180723 39.8651356 23.4971837 66.9761296 23.691009 66.0154798 17.4740964 39.3530061"></polygon>
        </g>
    </g>
</svg>