<?xml version="1.0" encoding="UTF-8"?>
<svg width="45px" height="67px" viewBox="0 0 45 67" version="1.1" xmlns="http://www.w3.org/2000/svg" xmlns:xlink="http://www.w3.org/1999/xlink">
    <!-- Generator: Sketch 48.2 (47327) - http://www.bohemiancoding.com/sketch -->
    <title>octahedron@3x</title>
    <desc>Created with Sketch.</desc>
    <defs></defs>
    <g id="Artboard" stroke="none" stroke-width="1" fill="none" fill-rule="evenodd" transform="translate(-2608.000000, -890.000000)">
        <g id="octahedron" transform="translate(2608.000000, 890.000000)" fill="#9B9B9B" fill-rule="nonzero">
            <path d="M32.1984431,38.531968 L26.4039521,66.938494 C26.4154042,66.918528 26.4356138,66.909952 26.4442365,66.889852 L44.885479,30.207486 L32.1984431,38.531968 Z" id="Shape"></path>
            <polygon id="Shape" points="44.1926946 27.237376 22.5437874 0.323074 31.7873802 35.376"></polygon>
            <polygon id="Shape" points="19.488503 0 0.0528143713 36.236414 29.0453443 36.236414"></polygon>
            <polygon id="Shape" points="0.248308383 39.09517 23.5440269 66.564098 29.1488174 39.09517"></polygon>
        </g>
    </g>
</svg>