<?xml version="1.0" encoding="UTF-8"?>
<svg width="70px" height="67px" viewBox="0 0 70 67" version="1.1" xmlns="http://www.w3.org/2000/svg" xmlns:xlink="http://www.w3.org/1999/xlink">
    <!-- Generator: Sketch 48.2 (47327) - http://www.bohemiancoding.com/sketch -->
    <title>pentagon@3x</title>
    <desc>Created with Sketch.</desc>
    <defs></defs>
    <g id="Artboard" stroke="none" stroke-width="1" fill="none" fill-rule="evenodd" transform="translate(-1231.000000, -778.000000)">
        <g id="pentagon" transform="translate(1231.000000, 778.000000)" fill="#9B9B9B" fill-rule="nonzero">
            <path d="M69.2909942,25.9121138 L35.8147563,0.390288618 C35.2907797,-0.00776219512 34.5688109,-0.00776219512 34.0478363,0.390288618 L0.571461988,25.9121138 C0.0795516569,26.2897378 -0.121306043,26.9376768 0.0736842105,27.5244715 L12.8615789,65.9160163 C13.0595712,66.5115264 13.6154776,66.9095772 14.2442495,66.9095772 L55.6238012,66.9095772 C56.2497076,66.9095772 56.808616,66.5086667 57.0064717,65.9160163 L69.7943665,27.5244715 C69.9838986,26.9346809 69.7830409,26.2897378 69.2909942,25.9121138 Z" id="Shape"></path>
        </g>
    </g>
</svg>