<?xml version="1.0" encoding="UTF-8"?>
<svg width="67px" height="67px" viewBox="0 0 67 67" version="1.1" xmlns="http://www.w3.org/2000/svg" xmlns:xlink="http://www.w3.org/1999/xlink">
    <!-- Generator: Sketch 48.2 (47327) - http://www.bohemiancoding.com/sketch -->
    <title>triangle@3x</title>
    <desc>Created with Sketch.</desc>
    <defs></defs>
    <g id="Artboard" stroke="none" stroke-width="1" fill="none" fill-rule="evenodd" transform="translate(-1542.000000, -778.000000)">
        <g id="triangle" transform="translate(1542.000000, 778.000000)" fill="#9B9B9B" fill-rule="nonzero">
            <path d="M58.3484941,11.1377031 C58.3177422,11.0930801 58.3009922,11.0372031 58.2619961,10.9980762 C58.141998,10.8640762 58.0051191,10.7468262 57.8794941,10.6155742 C57.3937441,10.0990723 56.8939922,9.59945117 56.3776211,9.11370117 C56.2463691,8.99082422 56.1291191,8.85407617 55.9951191,8.73119922 C55.9532441,8.69495117 55.9002461,8.67820117 55.8554922,8.64470117 C48.9266191,2.40257812 39.4182461,-1.03117188 29.1281191,0.278076172 C22.2327461,1.15470312 15.9682461,4.21995312 11.0186211,8.71444922 C11.0102461,8.72007617 10.999123,8.72282422 10.9934961,8.73119922 C10.957248,8.76744727 10.923748,8.80382617 10.8873691,8.84007422 C10.1727461,9.49607227 9.49149219,10.1800742 8.83549414,10.8919492 C8.80199414,10.9254492 8.76286719,10.9589492 8.72936719,10.9951973 C8.72099219,11.0063203 8.72099219,11.0146953 8.71261719,11.0203223 C4.21524219,15.9700781 1.15287109,22.2345781 0.276244141,29.1299512 C-1.03300391,39.4228262 2.40349414,48.9284512 8.64286914,55.8573242 C8.67362109,55.9019473 8.69037109,55.9578242 8.72936719,55.9969512 C8.84936523,56.1309512 8.98899219,56.2482012 9.11186914,56.3794531 C9.59761914,56.8959551 10.0973711,57.3955762 10.6137422,57.8813262 C10.7449941,58.0042031 10.8622441,58.1436992 10.9962441,58.2638281 C11.0381191,58.3000762 11.0911172,58.3168262 11.1358711,58.3503262 C18.0647441,64.5924492 27.573248,68.0261992 37.8632441,66.7169512 C44.7586172,65.8403242 51.0231172,62.7750742 55.9727422,58.2805781 C55.9811172,58.2749512 55.9922402,58.2722031 56.0006152,58.2638281 C56.0368633,58.2303281 56.0703633,58.1912012 56.1094902,58.1549531 C56.8213652,57.4989551 57.5081152,56.8149531 58.1613652,56.1030781 C58.1948652,56.0668301 58.2339922,56.0333301 58.2674922,55.9969512 C58.2758672,55.9885762 58.2758672,55.9774531 58.2842422,55.9718262 C62.7816172,51.0222012 65.8441191,44.7577012 66.7206152,37.8623281 C68.0243672,27.5749492 64.5906172,18.0665762 58.3484941,11.1377031 Z M11.1609961,52.7893262 L11.1609961,13.9571992 L31.2023711,13.9571992 L11.1609961,52.7893262 Z M55.8276191,52.7893262 L35.7862441,13.9571992 L55.8276191,13.9571992 L55.8276191,52.7893262 Z" id="Shape"></path>
        </g>
    </g>
</svg>